<svg width="633" height="200" viewBox="0 0 633 200" fill="none" xmlns="http://www.w3.org/2000/svg">
<path d="M5 109.231C58.0141 111.514 165.841 115.478 173.038 113.076" stroke="#B5001F" stroke-width="10" stroke-dasharray="7 7"/>
<path d="M200.672 4.20703H200.975C202.049 4.21354 203.029 4.46419 203.914 4.95898C204.799 5.45378 205.486 6.13737 205.975 7.00977C206.469 7.87565 206.717 8.8457 206.717 9.91992C206.717 11.0007 206.469 11.9805 205.975 12.8594C205.48 13.7383 204.796 14.4251 203.924 14.9199C203.051 15.4082 202.081 15.6589 201.014 15.6719H200.672V17.5859H198.855V15.6719H198.582C197.495 15.6719 196.505 15.4245 195.613 14.9297C194.728 14.4349 194.038 13.7513 193.543 12.8789C193.055 12.0065 192.811 11.0267 192.811 9.93945C192.811 8.85221 193.055 7.8724 193.543 7C194.038 6.1276 194.728 5.44401 195.613 4.94922C196.505 4.45443 197.495 4.20703 198.582 4.20703H198.855V2.19531H200.672V4.20703ZM198.582 5.68164C197.358 5.68164 196.388 6.05924 195.672 6.81445C194.962 7.56315 194.607 8.60482 194.607 9.93945C194.607 11.2806 194.962 12.3255 195.672 13.0742C196.382 13.8164 197.358 14.1875 198.602 14.1875H198.855V5.68164H198.582ZM200.672 5.68164V14.1875H200.945C202.189 14.1875 203.159 13.8066 203.855 13.0449C204.559 12.2767 204.91 11.235 204.91 9.91992C204.91 8.61784 204.559 7.58594 203.855 6.82422C203.159 6.0625 202.176 5.68164 200.906 5.68164H200.672ZM213.182 17.1953C211.749 17.1953 210.584 16.7266 209.686 15.7891C208.787 14.8451 208.338 13.5853 208.338 12.0098V11.6777C208.338 10.6296 208.536 9.69531 208.934 8.875C209.337 8.04818 209.897 7.40365 210.613 6.94141C211.336 6.47266 212.117 6.23828 212.957 6.23828C214.331 6.23828 215.398 6.69076 216.16 7.5957C216.922 8.50065 217.303 9.79622 217.303 11.4824V12.2344H210.145C210.171 13.276 210.473 14.1191 211.053 14.7637C211.639 15.4017 212.381 15.7207 213.279 15.7207C213.917 15.7207 214.458 15.5905 214.9 15.3301C215.343 15.0697 215.73 14.7246 216.062 14.2949L217.166 15.1543C216.281 16.515 214.952 17.1953 213.182 17.1953ZM212.957 7.72266C212.228 7.72266 211.616 7.98958 211.121 8.52344C210.626 9.05078 210.32 9.79297 210.203 10.75H215.496V10.6133C215.444 9.69531 215.197 8.98568 214.754 8.48438C214.311 7.97656 213.712 7.72266 212.957 7.72266ZM219.314 15.5254L219.939 14.7539C220.643 13.8424 221.043 12.4753 221.141 10.6523L221.307 6.43359H228.113V15.5254H229.471V20.1055H227.664V17H220.291V20.1055H218.484L218.494 15.5254H219.314ZM221.453 15.5254H226.307V8.10352H223.055L222.947 10.623C222.837 12.7259 222.339 14.36 221.453 15.5254ZM235.857 17.1953C234.425 17.1953 233.26 16.7266 232.361 15.7891C231.463 14.8451 231.014 13.5853 231.014 12.0098V11.6777C231.014 10.6296 231.212 9.69531 231.609 8.875C232.013 8.04818 232.573 7.40365 233.289 6.94141C234.012 6.47266 234.793 6.23828 235.633 6.23828C237.007 6.23828 238.074 6.69076 238.836 7.5957C239.598 8.50065 239.979 9.79622 239.979 11.4824V12.2344H232.82C232.846 13.276 233.149 14.1191 233.729 14.7637C234.314 15.4017 235.057 15.7207 235.955 15.7207C236.593 15.7207 237.133 15.5905 237.576 15.3301C238.019 15.0697 238.406 14.7246 238.738 14.2949L239.842 15.1543C238.956 16.515 237.628 17.1953 235.857 17.1953ZM235.633 7.72266C234.904 7.72266 234.292 7.98958 233.797 8.52344C233.302 9.05078 232.996 9.79297 232.879 10.75H238.172V10.6133C238.12 9.69531 237.872 8.98568 237.43 8.48438C236.987 7.97656 236.388 7.72266 235.633 7.72266ZM251.004 11.834C251.004 13.4421 250.636 14.7376 249.9 15.7207C249.165 16.7038 248.169 17.1953 246.912 17.1953C245.63 17.1953 244.62 16.7884 243.885 15.9746V21.0625H242.078V6.43359H243.729L243.816 7.60547C244.552 6.69401 245.574 6.23828 246.883 6.23828C248.152 6.23828 249.155 6.7168 249.891 7.67383C250.633 8.63086 251.004 9.96224 251.004 11.668V11.834ZM249.197 11.6289C249.197 10.4375 248.943 9.49674 248.436 8.80664C247.928 8.11654 247.231 7.77148 246.346 7.77148C245.252 7.77148 244.432 8.25651 243.885 9.22656V14.2754C244.425 15.2389 245.252 15.7207 246.365 15.7207C247.231 15.7207 247.918 15.3789 248.426 14.6953C248.94 14.0052 249.197 12.9831 249.197 11.6289ZM259.832 17C259.728 16.7917 259.643 16.4206 259.578 15.8867C258.738 16.7591 257.736 17.1953 256.57 17.1953C255.529 17.1953 254.673 16.9023 254.002 16.3164C253.338 15.724 253.006 14.9753 253.006 14.0703C253.006 12.9701 253.423 12.1172 254.256 11.5117C255.096 10.8997 256.274 10.5938 257.791 10.5938H259.549V9.76367C259.549 9.13216 259.36 8.63086 258.982 8.25977C258.605 7.88216 258.048 7.69336 257.312 7.69336C256.668 7.69336 256.128 7.85612 255.691 8.18164C255.255 8.50716 255.037 8.90104 255.037 9.36328H253.221C253.221 8.83594 253.406 8.32812 253.777 7.83984C254.155 7.34505 254.663 6.95443 255.301 6.66797C255.945 6.38151 256.652 6.23828 257.42 6.23828C258.637 6.23828 259.591 6.54427 260.281 7.15625C260.971 7.76172 261.329 8.59831 261.355 9.66602V14.5293C261.355 15.4993 261.479 16.2708 261.727 16.8438V17H259.832ZM256.834 15.623C257.4 15.623 257.938 15.4766 258.445 15.1836C258.953 14.8906 259.321 14.5098 259.549 14.041V11.873H258.133C255.919 11.873 254.812 12.5208 254.812 13.8164C254.812 14.3828 255.001 14.8255 255.379 15.1445C255.757 15.4635 256.242 15.623 256.834 15.623ZM272.85 6.43359V17H271.033V7.92773H267.439L267.225 11.8828C267.107 13.6992 266.801 14.998 266.307 15.7793C265.818 16.5605 265.04 16.9674 263.973 17H263.25V15.4082L263.768 15.3691C264.354 15.304 264.773 14.9655 265.027 14.3535C265.281 13.7415 265.444 12.6087 265.516 10.9551L265.711 6.43359H272.85ZM277.723 10.0762H280.467C281.665 10.0892 282.612 10.4017 283.309 11.0137C284.005 11.6257 284.354 12.4557 284.354 13.5039C284.354 14.5586 283.995 15.4049 283.279 16.043C282.563 16.681 281.6 17 280.389 17H275.916V6.43359H277.723V10.0762ZM277.723 11.5508V15.5254H280.408C281.085 15.5254 281.609 15.3529 281.98 15.0078C282.352 14.6562 282.537 14.1777 282.537 13.5723C282.537 12.9863 282.355 12.5078 281.99 12.1367C281.632 11.7591 281.128 11.5638 280.477 11.5508H277.723ZM295.242 17H293.436V12.4883H288.582V17H286.766V6.43359H288.582V11.0137H293.436V6.43359H295.242V17ZM304.676 17C304.572 16.7917 304.487 16.4206 304.422 15.8867C303.582 16.7591 302.579 17.1953 301.414 17.1953C300.372 17.1953 299.516 16.9023 298.846 16.3164C298.182 15.724 297.85 14.9753 297.85 14.0703C297.85 12.9701 298.266 12.1172 299.1 11.5117C299.939 10.8997 301.118 10.5938 302.635 10.5938H304.393V9.76367C304.393 9.13216 304.204 8.63086 303.826 8.25977C303.449 7.88216 302.892 7.69336 302.156 7.69336C301.512 7.69336 300.971 7.85612 300.535 8.18164C300.099 8.50716 299.881 8.90104 299.881 9.36328H298.064C298.064 8.83594 298.25 8.32812 298.621 7.83984C298.999 7.34505 299.507 6.95443 300.145 6.66797C300.789 6.38151 301.495 6.23828 302.264 6.23828C303.481 6.23828 304.435 6.54427 305.125 7.15625C305.815 7.76172 306.173 8.59831 306.199 9.66602V14.5293C306.199 15.4993 306.323 16.2708 306.57 16.8438V17H304.676ZM301.678 15.623C302.244 15.623 302.781 15.4766 303.289 15.1836C303.797 14.8906 304.165 14.5098 304.393 14.041V11.873H302.977C300.763 11.873 299.656 12.5208 299.656 13.8164C299.656 14.3828 299.845 14.8255 300.223 15.1445C300.6 15.4635 301.085 15.623 301.678 15.623ZM317.107 6.43359V17H315.291V12.8887H312.566L310.076 17H308.123L310.779 12.6152C310.102 12.3678 309.581 11.987 309.217 11.4727C308.859 10.9518 308.68 10.3464 308.68 9.65625C308.68 8.69271 309.041 7.91797 309.764 7.33203C310.486 6.73958 311.453 6.4401 312.664 6.43359H317.107ZM310.496 9.67578C310.496 10.1901 310.672 10.6068 311.023 10.9258C311.375 11.2383 311.84 11.3978 312.42 11.4043H315.291V7.89844H312.693C312.023 7.89844 311.489 8.06445 311.092 8.39648C310.695 8.72201 310.496 9.14844 310.496 9.67578ZM331.492 17C331.388 16.7917 331.303 16.4206 331.238 15.8867C330.398 16.7591 329.396 17.1953 328.23 17.1953C327.189 17.1953 326.333 16.9023 325.662 16.3164C324.998 15.724 324.666 14.9753 324.666 14.0703C324.666 12.9701 325.083 12.1172 325.916 11.5117C326.756 10.8997 327.934 10.5938 329.451 10.5938H331.209V9.76367C331.209 9.13216 331.02 8.63086 330.643 8.25977C330.265 7.88216 329.708 7.69336 328.973 7.69336C328.328 7.69336 327.788 7.85612 327.352 8.18164C326.915 8.50716 326.697 8.90104 326.697 9.36328H324.881C324.881 8.83594 325.066 8.32812 325.438 7.83984C325.815 7.34505 326.323 6.95443 326.961 6.66797C327.605 6.38151 328.312 6.23828 329.08 6.23828C330.298 6.23828 331.251 6.54427 331.941 7.15625C332.632 7.76172 332.99 8.59831 333.016 9.66602V14.5293C333.016 15.4993 333.139 16.2708 333.387 16.8438V17H331.492ZM328.494 15.623C329.061 15.623 329.598 15.4766 330.105 15.1836C330.613 14.8906 330.981 14.5098 331.209 14.041V11.873H329.793C327.579 11.873 326.473 12.5208 326.473 13.8164C326.473 14.3828 326.661 14.8255 327.039 15.1445C327.417 15.4635 327.902 15.623 328.494 15.623ZM336.014 17V6.43359H340.135C341.541 6.43359 342.618 6.68099 343.367 7.17578C344.122 7.66406 344.5 8.38346 344.5 9.33398C344.5 9.82227 344.354 10.265 344.061 10.6621C343.768 11.0527 343.335 11.3522 342.762 11.5605C343.4 11.7103 343.911 12.0033 344.295 12.4395C344.686 12.8757 344.881 13.3965 344.881 14.002C344.881 14.972 344.523 15.7142 343.807 16.2285C343.097 16.7428 342.091 17 340.789 17H336.014ZM337.82 12.3613V15.5449H340.809C341.564 15.5449 342.127 15.4049 342.498 15.125C342.876 14.8451 343.064 14.4512 343.064 13.9434C343.064 12.8887 342.29 12.3613 340.74 12.3613H337.82ZM337.82 10.916H340.154C341.847 10.916 342.693 10.4212 342.693 9.43164C342.693 8.44206 341.893 7.93099 340.291 7.89844H337.82V10.916ZM355.008 7.89844H351.463V17H349.656V7.89844H346.18V6.43359H355.008V7.89844ZM355.877 11.6191C355.877 10.584 356.079 9.65299 356.482 8.82617C356.893 7.99935 357.459 7.36133 358.182 6.91211C358.911 6.46289 359.741 6.23828 360.672 6.23828C362.111 6.23828 363.273 6.73633 364.158 7.73242C365.05 8.72852 365.496 10.0534 365.496 11.707V11.834C365.496 12.8626 365.298 13.7871 364.9 14.6074C364.51 15.4212 363.947 16.056 363.211 16.5117C362.482 16.9674 361.642 17.1953 360.691 17.1953C359.259 17.1953 358.097 16.6973 357.205 15.7012C356.32 14.7051 355.877 13.3867 355.877 11.7461V11.6191ZM357.693 11.834C357.693 13.0059 357.964 13.9466 358.504 14.6562C359.051 15.3659 359.78 15.7207 360.691 15.7207C361.609 15.7207 362.339 15.3626 362.879 14.6465C363.419 13.9238 363.689 12.9147 363.689 11.6191C363.689 10.4603 363.413 9.52279 362.859 8.80664C362.312 8.08398 361.583 7.72266 360.672 7.72266C359.78 7.72266 359.061 8.07747 358.514 8.78711C357.967 9.49674 357.693 10.5124 357.693 11.834ZM373.846 14.6074L377.439 6.43359H379.695V17H377.889V9.31445L374.471 17H373.221L369.734 9.14844V17H367.928V6.43359H370.271L373.846 14.6074ZM382.127 11.6191C382.127 10.584 382.329 9.65299 382.732 8.82617C383.143 7.99935 383.709 7.36133 384.432 6.91211C385.161 6.46289 385.991 6.23828 386.922 6.23828C388.361 6.23828 389.523 6.73633 390.408 7.73242C391.3 8.72852 391.746 10.0534 391.746 11.707V11.834C391.746 12.8626 391.548 13.7871 391.15 14.6074C390.76 15.4212 390.197 16.056 389.461 16.5117C388.732 16.9674 387.892 17.1953 386.941 17.1953C385.509 17.1953 384.347 16.6973 383.455 15.7012C382.57 14.7051 382.127 13.3867 382.127 11.7461V11.6191ZM383.943 11.834C383.943 13.0059 384.214 13.9466 384.754 14.6562C385.301 15.3659 386.03 15.7207 386.941 15.7207C387.859 15.7207 388.589 15.3626 389.129 14.6465C389.669 13.9238 389.939 12.9147 389.939 11.6191C389.939 10.4603 389.663 9.52279 389.109 8.80664C388.562 8.08398 387.833 7.72266 386.922 7.72266C386.03 7.72266 385.311 8.07747 384.764 8.78711C384.217 9.49674 383.943 10.5124 383.943 11.834ZM398.65 7.03906C399.979 7.03906 401.04 7.48503 401.834 8.37695C402.635 9.26237 403.035 10.431 403.035 11.8828V12.0488C403.035 13.0449 402.843 13.9368 402.459 14.7246C402.075 15.5059 401.521 16.1146 400.799 16.5508C400.083 16.9805 399.256 17.1953 398.318 17.1953C396.899 17.1953 395.757 16.7233 394.891 15.7793C394.025 14.8288 393.592 13.556 393.592 11.9609V11.082C393.592 8.86198 394.002 7.09766 394.822 5.78906C395.649 4.48047 396.867 3.68294 398.475 3.39648C399.386 3.23372 400.001 3.03516 400.32 2.80078C400.639 2.56641 400.799 2.24414 400.799 1.83398H402.283C402.283 2.64779 402.098 3.28255 401.727 3.73828C401.362 4.19401 400.776 4.51628 399.969 4.70508L398.621 5.00781C397.547 5.26172 396.74 5.69141 396.199 6.29688C395.665 6.89583 395.317 7.69661 395.154 8.69922C396.111 7.59245 397.277 7.03906 398.65 7.03906ZM398.299 8.52344C397.413 8.52344 396.71 8.82292 396.189 9.42188C395.669 10.0143 395.408 10.8379 395.408 11.8926V12.0488C395.408 13.1816 395.669 14.0801 396.189 14.7441C396.717 15.4017 397.426 15.7305 398.318 15.7305C399.217 15.7305 399.926 15.3984 400.447 14.7344C400.968 14.0703 401.229 13.1003 401.229 11.8242C401.229 10.8281 400.965 10.0306 400.438 9.43164C399.917 8.82617 399.204 8.52344 398.299 8.52344ZM411.727 6.43359H413.533V17H411.727V9.29492L406.854 17H405.047V6.43359H406.854V14.1484L411.727 6.43359ZM425.096 6.43359V17H423.279V7.92773H419.686L419.471 11.8828C419.354 13.6992 419.048 14.998 418.553 15.7793C418.064 16.5605 417.286 16.9674 416.219 17H415.496V15.4082L416.014 15.3691C416.6 15.304 417.02 14.9655 417.273 14.3535C417.527 13.7415 417.69 12.6087 417.762 10.9551L417.957 6.43359H425.096ZM429.969 10.0762H432.713C433.911 10.0892 434.858 10.4017 435.555 11.0137C436.251 11.6257 436.6 12.4557 436.6 13.5039C436.6 14.5586 436.242 15.4049 435.525 16.043C434.809 16.681 433.846 17 432.635 17H428.162V6.43359H429.969V10.0762ZM429.969 11.5508V15.5254H432.654C433.331 15.5254 433.855 15.3529 434.227 15.0078C434.598 14.6562 434.783 14.1777 434.783 13.5723C434.783 12.9863 434.601 12.5078 434.236 12.1367C433.878 11.7591 433.374 11.5638 432.723 11.5508H429.969ZM447.488 17H445.682V12.4883H440.828V17H439.012V6.43359H440.828V11.0137H445.682V6.43359H447.488V17ZM456.922 17C456.818 16.7917 456.733 16.4206 456.668 15.8867C455.828 16.7591 454.826 17.1953 453.66 17.1953C452.618 17.1953 451.762 16.9023 451.092 16.3164C450.428 15.724 450.096 14.9753 450.096 14.0703C450.096 12.9701 450.512 12.1172 451.346 11.5117C452.186 10.8997 453.364 10.5938 454.881 10.5938H456.639V9.76367C456.639 9.13216 456.45 8.63086 456.072 8.25977C455.695 7.88216 455.138 7.69336 454.402 7.69336C453.758 7.69336 453.217 7.85612 452.781 8.18164C452.345 8.50716 452.127 8.90104 452.127 9.36328H450.311C450.311 8.83594 450.496 8.32812 450.867 7.83984C451.245 7.34505 451.753 6.95443 452.391 6.66797C453.035 6.38151 453.742 6.23828 454.51 6.23828C455.727 6.23828 456.681 6.54427 457.371 7.15625C458.061 7.76172 458.419 8.59831 458.445 9.66602V14.5293C458.445 15.4993 458.569 16.2708 458.816 16.8438V17H456.922ZM453.924 15.623C454.49 15.623 455.027 15.4766 455.535 15.1836C456.043 14.8906 456.411 14.5098 456.639 14.041V11.873H455.223C453.009 11.873 451.902 12.5208 451.902 13.8164C451.902 14.3828 452.091 14.8255 452.469 15.1445C452.846 15.4635 453.331 15.623 453.924 15.623ZM469.354 6.43359V17H467.537V12.8887H464.812L462.322 17H460.369L463.025 12.6152C462.348 12.3678 461.827 11.987 461.463 11.4727C461.105 10.9518 460.926 10.3464 460.926 9.65625C460.926 8.69271 461.287 7.91797 462.01 7.33203C462.732 6.73958 463.699 6.4401 464.91 6.43359H469.354ZM462.742 9.67578C462.742 10.1901 462.918 10.6068 463.27 10.9258C463.621 11.2383 464.087 11.3978 464.666 11.4043H467.537V7.89844H464.939C464.269 7.89844 463.735 8.06445 463.338 8.39648C462.941 8.72201 462.742 9.14844 462.742 9.67578ZM485.066 7.89844H481.521V17H479.715V7.89844H476.238V6.43359H485.066V7.89844ZM495.75 11.834C495.75 13.4421 495.382 14.7376 494.646 15.7207C493.911 16.7038 492.915 17.1953 491.658 17.1953C490.376 17.1953 489.367 16.7884 488.631 15.9746V21.0625H486.824V6.43359H488.475L488.562 7.60547C489.298 6.69401 490.32 6.23828 491.629 6.23828C492.898 6.23828 493.901 6.7168 494.637 7.67383C495.379 8.63086 495.75 9.96224 495.75 11.668V11.834ZM493.943 11.6289C493.943 10.4375 493.689 9.49674 493.182 8.80664C492.674 8.11654 491.977 7.77148 491.092 7.77148C489.998 7.77148 489.178 8.25651 488.631 9.22656V14.2754C489.171 15.2389 489.998 15.7207 491.111 15.7207C491.977 15.7207 492.664 15.3789 493.172 14.6953C493.686 14.0052 493.943 12.9831 493.943 11.6289ZM504.578 17C504.474 16.7917 504.389 16.4206 504.324 15.8867C503.484 16.7591 502.482 17.1953 501.316 17.1953C500.275 17.1953 499.419 16.9023 498.748 16.3164C498.084 15.724 497.752 14.9753 497.752 14.0703C497.752 12.9701 498.169 12.1172 499.002 11.5117C499.842 10.8997 501.02 10.5938 502.537 10.5938H504.295V9.76367C504.295 9.13216 504.106 8.63086 503.729 8.25977C503.351 7.88216 502.794 7.69336 502.059 7.69336C501.414 7.69336 500.874 7.85612 500.438 8.18164C500.001 8.50716 499.783 8.90104 499.783 9.36328H497.967C497.967 8.83594 498.152 8.32812 498.523 7.83984C498.901 7.34505 499.409 6.95443 500.047 6.66797C500.691 6.38151 501.398 6.23828 502.166 6.23828C503.383 6.23828 504.337 6.54427 505.027 7.15625C505.717 7.76172 506.076 8.59831 506.102 9.66602V14.5293C506.102 15.4993 506.225 16.2708 506.473 16.8438V17H504.578ZM501.58 15.623C502.146 15.623 502.684 15.4766 503.191 15.1836C503.699 14.8906 504.067 14.5098 504.295 14.041V11.873H502.879C500.665 11.873 499.559 12.5208 499.559 13.8164C499.559 14.3828 499.747 14.8255 500.125 15.1445C500.503 15.4635 500.988 15.623 501.58 15.623ZM513.172 15.7207C513.816 15.7207 514.38 15.5254 514.861 15.1348C515.343 14.7441 515.61 14.2559 515.662 13.6699H517.371C517.339 14.2754 517.13 14.8516 516.746 15.3984C516.362 15.9453 515.848 16.3815 515.203 16.707C514.565 17.0326 513.888 17.1953 513.172 17.1953C511.733 17.1953 510.587 16.7168 509.734 15.7598C508.888 14.7962 508.465 13.4811 508.465 11.8145V11.5117C508.465 10.4831 508.654 9.56836 509.031 8.76758C509.409 7.9668 509.949 7.34505 510.652 6.90234C511.362 6.45964 512.199 6.23828 513.162 6.23828C514.347 6.23828 515.33 6.5931 516.111 7.30273C516.899 8.01237 517.319 8.93359 517.371 10.0664H515.662C515.61 9.38281 515.35 8.82292 514.881 8.38672C514.419 7.94401 513.846 7.72266 513.162 7.72266C512.244 7.72266 511.531 8.05469 511.023 8.71875C510.522 9.3763 510.271 10.3301 510.271 11.5801V11.9219C510.271 13.1393 510.522 14.0768 511.023 14.7344C511.525 15.3919 512.241 15.7207 513.172 15.7207ZM523.641 15.7207C524.285 15.7207 524.848 15.5254 525.33 15.1348C525.812 14.7441 526.079 14.2559 526.131 13.6699H527.84C527.807 14.2754 527.599 14.8516 527.215 15.3984C526.831 15.9453 526.316 16.3815 525.672 16.707C525.034 17.0326 524.357 17.1953 523.641 17.1953C522.202 17.1953 521.056 16.7168 520.203 15.7598C519.357 14.7962 518.934 13.4811 518.934 11.8145V11.5117C518.934 10.4831 519.122 9.56836 519.5 8.76758C519.878 7.9668 520.418 7.34505 521.121 6.90234C521.831 6.45964 522.667 6.23828 523.631 6.23828C524.816 6.23828 525.799 6.5931 526.58 7.30273C527.368 8.01237 527.788 8.93359 527.84 10.0664H526.131C526.079 9.38281 525.818 8.82292 525.35 8.38672C524.887 7.94401 524.314 7.72266 523.631 7.72266C522.713 7.72266 522 8.05469 521.492 8.71875C520.991 9.3763 520.74 10.3301 520.74 11.5801V11.9219C520.74 13.1393 520.991 14.0768 521.492 14.7344C521.993 15.3919 522.71 15.7207 523.641 15.7207ZM536.395 17C536.29 16.7917 536.206 16.4206 536.141 15.8867C535.301 16.7591 534.298 17.1953 533.133 17.1953C532.091 17.1953 531.235 16.9023 530.564 16.3164C529.9 15.724 529.568 14.9753 529.568 14.0703C529.568 12.9701 529.985 12.1172 530.818 11.5117C531.658 10.8997 532.837 10.5938 534.354 10.5938H536.111V9.76367C536.111 9.13216 535.923 8.63086 535.545 8.25977C535.167 7.88216 534.611 7.69336 533.875 7.69336C533.23 7.69336 532.69 7.85612 532.254 8.18164C531.818 8.50716 531.6 8.90104 531.6 9.36328H529.783C529.783 8.83594 529.969 8.32812 530.34 7.83984C530.717 7.34505 531.225 6.95443 531.863 6.66797C532.508 6.38151 533.214 6.23828 533.982 6.23828C535.2 6.23828 536.154 6.54427 536.844 7.15625C537.534 7.76172 537.892 8.59831 537.918 9.66602V14.5293C537.918 15.4993 538.042 16.2708 538.289 16.8438V17H536.395ZM533.396 15.623C533.963 15.623 534.5 15.4766 535.008 15.1836C535.516 14.8906 535.883 14.5098 536.111 14.041V11.873H534.695C532.482 11.873 531.375 12.5208 531.375 13.8164C531.375 14.3828 531.564 14.8255 531.941 15.1445C532.319 15.4635 532.804 15.623 533.396 15.623Z" fill="#204371"/>
<path d="M196.072 37.7812L200.721 49.3828L205.369 37.7812H207.801V52H205.926V46.4629L206.102 40.4863L201.434 52H199.998L195.34 40.5156L195.525 46.4629V52H193.65V37.7812H196.072ZM211.473 44.8711L212.195 37.7812H219.48V39.4512H213.729L213.299 43.3281C213.995 42.918 214.786 42.7129 215.672 42.7129C216.967 42.7129 217.996 43.1426 218.758 44.002C219.52 44.8548 219.9 46.0104 219.9 47.4688C219.9 48.9336 219.503 50.0892 218.709 50.9355C217.921 51.7754 216.818 52.1953 215.398 52.1953C214.142 52.1953 213.117 51.847 212.322 51.1504C211.528 50.4538 211.076 49.4902 210.965 48.2598H212.674C212.785 49.0736 213.074 49.6888 213.543 50.1055C214.012 50.5156 214.63 50.7207 215.398 50.7207C216.238 50.7207 216.896 50.4342 217.371 49.8613C217.853 49.2884 218.094 48.4974 218.094 47.4883C218.094 46.5378 217.833 45.776 217.312 45.2031C216.798 44.6237 216.111 44.334 215.252 44.334C214.464 44.334 213.846 44.5065 213.396 44.8516L212.918 45.2422L211.473 44.8711ZM224.5 44.0117H225.857C226.71 43.9987 227.381 43.7741 227.869 43.3379C228.357 42.9017 228.602 42.3125 228.602 41.5703C228.602 39.9036 227.771 39.0703 226.111 39.0703C225.33 39.0703 224.705 39.2949 224.236 39.7441C223.774 40.1868 223.543 40.776 223.543 41.5117H221.736C221.736 40.3854 222.146 39.4512 222.967 38.709C223.794 37.9603 224.842 37.5859 226.111 37.5859C227.452 37.5859 228.504 37.9408 229.266 38.6504C230.027 39.36 230.408 40.3464 230.408 41.6094C230.408 42.2279 230.206 42.8268 229.803 43.4062C229.406 43.9857 228.862 44.4186 228.172 44.7051C228.953 44.9525 229.555 45.3626 229.979 45.9355C230.408 46.5085 230.623 47.2083 230.623 48.0352C230.623 49.3112 230.206 50.3236 229.373 51.0723C228.54 51.821 227.456 52.1953 226.121 52.1953C224.786 52.1953 223.699 51.834 222.859 51.1113C222.026 50.3887 221.609 49.4349 221.609 48.25H223.426C223.426 48.9987 223.67 49.5977 224.158 50.0469C224.646 50.4961 225.301 50.7207 226.121 50.7207C226.993 50.7207 227.661 50.4928 228.123 50.0371C228.585 49.5814 228.816 48.9271 228.816 48.0742C228.816 47.2474 228.562 46.6126 228.055 46.1699C227.547 45.7272 226.814 45.4993 225.857 45.4863H224.5V44.0117ZM239.598 36.8145L240.633 37.5176C240.027 38.3444 239.715 39.2363 239.695 40.1934V41.5215H237.898V40.3887C237.898 39.7246 238.055 39.0671 238.367 38.416C238.686 37.765 239.096 37.2311 239.598 36.8145ZM242.674 36.8145L243.709 37.5176C243.104 38.3444 242.791 39.2363 242.771 40.1934V41.5215H240.975V40.3887C240.975 39.7246 241.131 39.0671 241.443 38.416C241.762 37.765 242.173 37.2311 242.674 36.8145ZM254.275 39.3242H247.42V43.582H250.955C252.439 43.6016 253.598 43.9824 254.432 44.7246C255.265 45.4668 255.682 46.4759 255.682 47.752C255.682 49.0345 255.262 50.0566 254.422 50.8184C253.582 51.5801 252.436 51.974 250.984 52H245.535V37.7812H254.275V39.3242ZM247.42 45.125V50.4668H250.848C251.779 50.4668 252.501 50.2194 253.016 49.7246C253.536 49.2298 253.797 48.5658 253.797 47.7324C253.797 46.9316 253.546 46.3001 253.045 45.8379C252.55 45.3757 251.844 45.138 250.926 45.125H247.42ZM264.461 52C264.357 51.7917 264.272 51.4206 264.207 50.8867C263.367 51.7591 262.365 52.1953 261.199 52.1953C260.158 52.1953 259.301 51.9023 258.631 51.3164C257.967 50.724 257.635 49.9753 257.635 49.0703C257.635 47.9701 258.051 47.1172 258.885 46.5117C259.725 45.8997 260.903 45.5938 262.42 45.5938H264.178V44.7637C264.178 44.1322 263.989 43.6309 263.611 43.2598C263.234 42.8822 262.677 42.6934 261.941 42.6934C261.297 42.6934 260.757 42.8561 260.32 43.1816C259.884 43.5072 259.666 43.901 259.666 44.3633H257.85C257.85 43.8359 258.035 43.3281 258.406 42.8398C258.784 42.3451 259.292 41.9544 259.93 41.668C260.574 41.3815 261.281 41.2383 262.049 41.2383C263.266 41.2383 264.22 41.5443 264.91 42.1562C265.6 42.7617 265.958 43.5983 265.984 44.666V49.5293C265.984 50.4993 266.108 51.2708 266.355 51.8438V52H264.461ZM261.463 50.623C262.029 50.623 262.566 50.4766 263.074 50.1836C263.582 49.8906 263.95 49.5098 264.178 49.041V46.873H262.762C260.548 46.873 259.441 47.5208 259.441 48.8164C259.441 49.3828 259.63 49.8255 260.008 50.1445C260.385 50.4635 260.87 50.623 261.463 50.623ZM275.652 41.4336H277.459V52H275.652V44.2949L270.779 52H268.973V41.4336H270.779V49.1484L275.652 41.4336ZM276.141 37.5859C276.141 38.3737 275.87 39.0085 275.33 39.4902C274.796 39.9655 274.093 40.2031 273.221 40.2031C272.348 40.2031 271.642 39.9622 271.102 39.4805C270.561 38.9987 270.291 38.3672 270.291 37.5859H271.766C271.766 38.0417 271.889 38.3997 272.137 38.6602C272.384 38.9141 272.745 39.041 273.221 39.041C273.676 39.041 274.031 38.9141 274.285 38.6602C274.546 38.4062 274.676 38.0482 274.676 37.5859H276.141ZM283.65 47.498H282.332V52H280.516V41.4336H282.332V45.9062H283.514L287.068 41.4336H289.256L285.076 46.5117L289.607 52H287.312L283.65 47.498ZM297.684 52C297.579 51.7917 297.495 51.4206 297.43 50.8867C296.59 51.7591 295.587 52.1953 294.422 52.1953C293.38 52.1953 292.524 51.9023 291.854 51.3164C291.189 50.724 290.857 49.9753 290.857 49.0703C290.857 47.9701 291.274 47.1172 292.107 46.5117C292.947 45.8997 294.126 45.5938 295.643 45.5938H297.4V44.7637C297.4 44.1322 297.212 43.6309 296.834 43.2598C296.456 42.8822 295.9 42.6934 295.164 42.6934C294.52 42.6934 293.979 42.8561 293.543 43.1816C293.107 43.5072 292.889 43.901 292.889 44.3633H291.072C291.072 43.8359 291.258 43.3281 291.629 42.8398C292.007 42.3451 292.514 41.9544 293.152 41.668C293.797 41.3815 294.503 41.2383 295.271 41.2383C296.489 41.2383 297.443 41.5443 298.133 42.1562C298.823 42.7617 299.181 43.5983 299.207 44.666V49.5293C299.207 50.4993 299.331 51.2708 299.578 51.8438V52H297.684ZM294.686 50.623C295.252 50.623 295.789 50.4766 296.297 50.1836C296.805 49.8906 297.173 49.5098 297.4 49.041V46.873H295.984C293.771 46.873 292.664 47.5208 292.664 48.8164C292.664 49.3828 292.853 49.8255 293.23 50.1445C293.608 50.4635 294.093 50.623 294.686 50.623ZM310.701 41.4336V52H308.885V42.9277H305.291L305.076 46.8828C304.959 48.6992 304.653 49.998 304.158 50.7793C303.67 51.5605 302.892 51.9674 301.824 52H301.102V50.4082L301.619 50.3691C302.205 50.304 302.625 49.9655 302.879 49.3535C303.133 48.7415 303.296 47.6087 303.367 45.9551L303.562 41.4336H310.701ZM313.846 41.7852L312.82 41.082C313.426 40.2357 313.738 39.3438 313.758 38.4062V37H315.545V38.2695C315.538 38.9206 315.376 39.5716 315.057 40.2227C314.744 40.8672 314.34 41.388 313.846 41.7852ZM316.844 41.7852L315.818 41.082C316.424 40.2357 316.736 39.3438 316.756 38.4062V37H318.543V38.2695C318.536 38.9206 318.374 39.5716 318.055 40.2227C317.742 40.8672 317.339 41.388 316.844 41.7852Z" fill="#204371"/>
<path d="M197.072 74.7812L201.721 86.3828L206.369 74.7812H208.801V89H206.926V83.4629L207.102 77.4863L202.434 89H200.998L196.34 77.5156L196.525 83.4629V89H194.65V74.7812H197.072ZM212.473 81.8711L213.195 74.7812H220.48V76.4512H214.729L214.299 80.3281C214.995 79.918 215.786 79.7129 216.672 79.7129C217.967 79.7129 218.996 80.1426 219.758 81.002C220.52 81.8548 220.9 83.0104 220.9 84.4688C220.9 85.9336 220.503 87.0892 219.709 87.9355C218.921 88.7754 217.818 89.1953 216.398 89.1953C215.142 89.1953 214.117 88.847 213.322 88.1504C212.528 87.4538 212.076 86.4902 211.965 85.2598H213.674C213.785 86.0736 214.074 86.6888 214.543 87.1055C215.012 87.5156 215.63 87.7207 216.398 87.7207C217.238 87.7207 217.896 87.4342 218.371 86.8613C218.853 86.2884 219.094 85.4974 219.094 84.4883C219.094 83.5378 218.833 82.776 218.312 82.2031C217.798 81.6237 217.111 81.334 216.252 81.334C215.464 81.334 214.846 81.5065 214.396 81.8516L213.918 82.2422L212.473 81.8711ZM230.5 84.2246H232.473V85.6992H230.5V89H228.684V85.6992H222.209V84.6348L228.576 74.7812H230.5V84.2246ZM224.26 84.2246H228.684V77.252L228.469 77.6426L224.26 84.2246ZM240.598 73.8145L241.633 74.5176C241.027 75.3444 240.715 76.2363 240.695 77.1934V78.5215H238.898V77.3887C238.898 76.7246 239.055 76.0671 239.367 75.416C239.686 74.765 240.096 74.2311 240.598 73.8145ZM243.674 73.8145L244.709 74.5176C244.104 75.3444 243.791 76.2363 243.771 77.1934V78.5215H241.975V77.3887C241.975 76.7246 242.131 76.0671 242.443 75.416C242.762 74.765 243.173 74.2311 243.674 73.8145ZM254.641 82.4277H248.479V87.4668H255.637V89H246.604V74.7812H255.539V76.3242H248.479V80.8945H254.641V82.4277ZM266.32 89H264.514V84.4883H259.66V89H257.844V78.4336H259.66V83.0137H264.514V78.4336H266.32V89ZM276.066 78.4336H277.873V89H276.066V81.2949L271.193 89H269.387V78.4336H271.193V86.1484L276.066 78.4336ZM285.012 87.7207C285.656 87.7207 286.219 87.5254 286.701 87.1348C287.183 86.7441 287.45 86.2559 287.502 85.6699H289.211C289.178 86.2754 288.97 86.8516 288.586 87.3984C288.202 87.9453 287.688 88.3815 287.043 88.707C286.405 89.0326 285.728 89.1953 285.012 89.1953C283.573 89.1953 282.427 88.7168 281.574 87.7598C280.728 86.7962 280.305 85.4811 280.305 83.8145V83.5117C280.305 82.4831 280.493 81.5684 280.871 80.7676C281.249 79.9668 281.789 79.3451 282.492 78.9023C283.202 78.4596 284.038 78.2383 285.002 78.2383C286.187 78.2383 287.17 78.5931 287.951 79.3027C288.739 80.0124 289.159 80.9336 289.211 82.0664H287.502C287.45 81.3828 287.189 80.8229 286.721 80.3867C286.258 79.944 285.686 79.7227 285.002 79.7227C284.084 79.7227 283.371 80.0547 282.863 80.7188C282.362 81.3763 282.111 82.3301 282.111 83.5801V83.9219C282.111 85.1393 282.362 86.0768 282.863 86.7344C283.365 87.3919 284.081 87.7207 285.012 87.7207ZM295.627 89.1953C294.195 89.1953 293.029 88.7266 292.131 87.7891C291.232 86.8451 290.783 85.5853 290.783 84.0098V83.6777C290.783 82.6296 290.982 81.6953 291.379 80.875C291.783 80.0482 292.342 79.4036 293.059 78.9414C293.781 78.4727 294.562 78.2383 295.402 78.2383C296.776 78.2383 297.844 78.6908 298.605 79.5957C299.367 80.5007 299.748 81.7962 299.748 83.4824V84.2344H292.59C292.616 85.276 292.919 86.1191 293.498 86.7637C294.084 87.4017 294.826 87.7207 295.725 87.7207C296.363 87.7207 296.903 87.5905 297.346 87.3301C297.788 87.0697 298.176 86.7246 298.508 86.2949L299.611 87.1543C298.726 88.515 297.398 89.1953 295.627 89.1953ZM295.402 79.7227C294.673 79.7227 294.061 79.9896 293.566 80.5234C293.072 81.0508 292.766 81.793 292.648 82.75H297.941V82.6133C297.889 81.6953 297.642 80.9857 297.199 80.4844C296.757 79.9766 296.158 79.7227 295.402 79.7227ZM308.684 78.4336H310.49V89H308.684V81.2949L303.811 89H302.004V78.4336H303.811V86.1484L308.684 78.4336ZM309.172 74.5859C309.172 75.3737 308.902 76.0085 308.361 76.4902C307.827 76.9655 307.124 77.2031 306.252 77.2031C305.38 77.2031 304.673 76.9622 304.133 76.4805C303.592 75.9987 303.322 75.3672 303.322 74.5859H304.797C304.797 75.0417 304.921 75.3997 305.168 75.6602C305.415 75.9141 305.777 76.041 306.252 76.041C306.708 76.041 307.062 75.9141 307.316 75.6602C307.577 75.4062 307.707 75.0482 307.707 74.5859H309.172ZM313.635 78.7852L312.609 78.082C313.215 77.2357 313.527 76.3438 313.547 75.4062V74H315.334V75.2695C315.327 75.9206 315.165 76.5716 314.846 77.2227C314.533 77.8672 314.13 78.388 313.635 78.7852ZM316.633 78.7852L315.607 78.082C316.213 77.2357 316.525 76.3438 316.545 75.4062V74H318.332V75.2695C318.326 75.9206 318.163 76.5716 317.844 77.2227C317.531 77.8672 317.128 78.388 316.633 78.7852Z" fill="#204371"/>
<path d="M204.641 113.516H203.117V120H201.242V113.516H199.631L195.607 120H193.264L198.049 112.5L193.635 105.781H195.852L199.631 111.953H201.242V105.781H203.117V111.953H204.66L208.439 105.781H210.646L206.232 112.49L211.018 120H208.684L204.641 113.516ZM216.662 120.195C215.23 120.195 214.064 119.727 213.166 118.789C212.268 117.845 211.818 116.585 211.818 115.01V114.678C211.818 113.63 212.017 112.695 212.414 111.875C212.818 111.048 213.378 110.404 214.094 109.941C214.816 109.473 215.598 109.238 216.438 109.238C217.811 109.238 218.879 109.691 219.641 110.596C220.402 111.501 220.783 112.796 220.783 114.482V115.234H213.625C213.651 116.276 213.954 117.119 214.533 117.764C215.119 118.402 215.861 118.721 216.76 118.721C217.398 118.721 217.938 118.59 218.381 118.33C218.824 118.07 219.211 117.725 219.543 117.295L220.646 118.154C219.761 119.515 218.433 120.195 216.662 120.195ZM216.438 110.723C215.708 110.723 215.096 110.99 214.602 111.523C214.107 112.051 213.801 112.793 213.684 113.75H218.977V113.613C218.924 112.695 218.677 111.986 218.234 111.484C217.792 110.977 217.193 110.723 216.438 110.723ZM231.545 109.434V120H229.729V110.928H226.135L225.92 114.883C225.803 116.699 225.497 117.998 225.002 118.779C224.514 119.561 223.736 119.967 222.668 120H221.945V118.408L222.463 118.369C223.049 118.304 223.469 117.965 223.723 117.354C223.977 116.742 224.139 115.609 224.211 113.955L224.406 109.434H231.545ZM238.83 120.195C237.398 120.195 236.232 119.727 235.334 118.789C234.436 117.845 233.986 116.585 233.986 115.01V114.678C233.986 113.63 234.185 112.695 234.582 111.875C234.986 111.048 235.546 110.404 236.262 109.941C236.984 109.473 237.766 109.238 238.605 109.238C239.979 109.238 241.047 109.691 241.809 110.596C242.57 111.501 242.951 112.796 242.951 114.482V115.234H235.793C235.819 116.276 236.122 117.119 236.701 117.764C237.287 118.402 238.029 118.721 238.928 118.721C239.566 118.721 240.106 118.59 240.549 118.33C240.992 118.07 241.379 117.725 241.711 117.295L242.814 118.154C241.929 119.515 240.601 120.195 238.83 120.195ZM238.605 110.723C237.876 110.723 237.264 110.99 236.77 111.523C236.275 112.051 235.969 112.793 235.852 113.75H241.145V113.613C241.092 112.695 240.845 111.986 240.402 111.484C239.96 110.977 239.361 110.723 238.605 110.723ZM250.861 112.324C250.861 111.829 250.673 111.439 250.295 111.152C249.917 110.859 249.4 110.713 248.742 110.713C248.104 110.713 247.57 110.879 247.141 111.211C246.717 111.543 246.506 111.934 246.506 112.383H244.709C244.709 111.465 245.093 110.713 245.861 110.127C246.63 109.541 247.59 109.248 248.742 109.248C249.979 109.248 250.943 109.515 251.633 110.049C252.323 110.576 252.668 111.331 252.668 112.314C252.668 112.79 252.525 113.226 252.238 113.623C251.952 114.02 251.545 114.336 251.018 114.57C252.248 114.987 252.863 115.807 252.863 117.031C252.863 118.001 252.489 118.77 251.74 119.336C250.992 119.902 249.992 120.186 248.742 120.186C247.525 120.186 246.519 119.889 245.725 119.297C244.937 118.698 244.543 117.891 244.543 116.875H246.34C246.34 117.389 246.568 117.832 247.023 118.203C247.486 118.568 248.059 118.75 248.742 118.75C249.432 118.75 249.989 118.59 250.412 118.271C250.835 117.952 251.047 117.539 251.047 117.031C251.047 116.439 250.868 116.016 250.51 115.762C250.158 115.501 249.608 115.371 248.859 115.371H247.053V113.848H249.016C250.246 113.815 250.861 113.307 250.861 112.324ZM263.84 120H262.033V115.488H257.18V120H255.363V109.434H257.18V114.014H262.033V109.434H263.84V120ZM266.271 114.619C266.271 113.584 266.473 112.653 266.877 111.826C267.287 110.999 267.854 110.361 268.576 109.912C269.305 109.463 270.135 109.238 271.066 109.238C272.505 109.238 273.667 109.736 274.553 110.732C275.445 111.729 275.891 113.053 275.891 114.707V114.834C275.891 115.863 275.692 116.787 275.295 117.607C274.904 118.421 274.341 119.056 273.605 119.512C272.876 119.967 272.036 120.195 271.086 120.195C269.654 120.195 268.492 119.697 267.6 118.701C266.714 117.705 266.271 116.387 266.271 114.746V114.619ZM268.088 114.834C268.088 116.006 268.358 116.947 268.898 117.656C269.445 118.366 270.174 118.721 271.086 118.721C272.004 118.721 272.733 118.363 273.273 117.646C273.814 116.924 274.084 115.915 274.084 114.619C274.084 113.46 273.807 112.523 273.254 111.807C272.707 111.084 271.978 110.723 271.066 110.723C270.174 110.723 269.455 111.077 268.908 111.787C268.361 112.497 268.088 113.512 268.088 114.834ZM277.365 118.525L277.99 117.754C278.693 116.842 279.094 115.475 279.191 113.652L279.357 109.434H286.164V118.525H287.521V123.105H285.715V120H278.342V123.105H276.535L276.545 118.525H277.365ZM279.504 118.525H284.357V111.104H281.105L280.998 113.623C280.887 115.726 280.389 117.36 279.504 118.525ZM289.045 114.619C289.045 113.584 289.247 112.653 289.65 111.826C290.061 110.999 290.627 110.361 291.35 109.912C292.079 109.463 292.909 109.238 293.84 109.238C295.279 109.238 296.441 109.736 297.326 110.732C298.218 111.729 298.664 113.053 298.664 114.707V114.834C298.664 115.863 298.465 116.787 298.068 117.607C297.678 118.421 297.115 119.056 296.379 119.512C295.65 119.967 294.81 120.195 293.859 120.195C292.427 120.195 291.265 119.697 290.373 118.701C289.488 117.705 289.045 116.387 289.045 114.746V114.619ZM290.861 114.834C290.861 116.006 291.132 116.947 291.672 117.656C292.219 118.366 292.948 118.721 293.859 118.721C294.777 118.721 295.507 118.363 296.047 117.646C296.587 116.924 296.857 115.915 296.857 114.619C296.857 113.46 296.581 112.523 296.027 111.807C295.48 111.084 294.751 110.723 293.84 110.723C292.948 110.723 292.229 111.077 291.682 111.787C291.135 112.497 290.861 113.512 290.861 114.834ZM309.855 114.834C309.855 116.442 309.488 117.738 308.752 118.721C308.016 119.704 307.02 120.195 305.764 120.195C304.481 120.195 303.472 119.788 302.736 118.975V124.062H300.93V109.434H302.58L302.668 110.605C303.404 109.694 304.426 109.238 305.734 109.238C307.004 109.238 308.007 109.717 308.742 110.674C309.484 111.631 309.855 112.962 309.855 114.668V114.834ZM308.049 114.629C308.049 113.438 307.795 112.497 307.287 111.807C306.779 111.117 306.083 110.771 305.197 110.771C304.104 110.771 303.283 111.257 302.736 112.227V117.275C303.277 118.239 304.104 118.721 305.217 118.721C306.083 118.721 306.77 118.379 307.277 117.695C307.792 117.005 308.049 115.983 308.049 114.629ZM311.682 114.619C311.682 113.584 311.883 112.653 312.287 111.826C312.697 110.999 313.264 110.361 313.986 109.912C314.715 109.463 315.546 109.238 316.477 109.238C317.915 109.238 319.077 109.736 319.963 110.732C320.855 111.729 321.301 113.053 321.301 114.707V114.834C321.301 115.863 321.102 116.787 320.705 117.607C320.314 118.421 319.751 119.056 319.016 119.512C318.286 119.967 317.447 120.195 316.496 120.195C315.064 120.195 313.902 119.697 313.01 118.701C312.124 117.705 311.682 116.387 311.682 114.746V114.619ZM313.498 114.834C313.498 116.006 313.768 116.947 314.309 117.656C314.855 118.366 315.585 118.721 316.496 118.721C317.414 118.721 318.143 118.363 318.684 117.646C319.224 116.924 319.494 115.915 319.494 114.619C319.494 113.46 319.217 112.523 318.664 111.807C318.117 111.084 317.388 110.723 316.477 110.723C315.585 110.723 314.865 111.077 314.318 111.787C313.771 112.497 313.498 113.512 313.498 114.834ZM331.779 115.41H330.51V120H328.703V115.41H327.434L324.475 120H322.189L325.969 114.531L322.551 109.434H324.738L327.463 113.809H328.703V109.434H330.51V113.809H331.74L334.484 109.434H336.672L333.244 114.541L337.023 120H334.738L331.779 115.41ZM347.297 120H345.49V115.488H340.637V120H338.82V109.434H340.637V114.014H345.49V109.434H347.297V120ZM352.18 113.076H354.924C356.122 113.089 357.069 113.402 357.766 114.014C358.462 114.626 358.811 115.456 358.811 116.504C358.811 117.559 358.452 118.405 357.736 119.043C357.02 119.681 356.057 120 354.846 120H350.373V109.434H352.18V113.076ZM362.58 120H360.764V109.434H362.58V120ZM352.18 114.551V118.525H354.865C355.542 118.525 356.066 118.353 356.438 118.008C356.809 117.656 356.994 117.178 356.994 116.572C356.994 115.986 356.812 115.508 356.447 115.137C356.089 114.759 355.585 114.564 354.934 114.551H352.18ZM370.119 120.195C368.687 120.195 367.521 119.727 366.623 118.789C365.725 117.845 365.275 116.585 365.275 115.01V114.678C365.275 113.63 365.474 112.695 365.871 111.875C366.275 111.048 366.835 110.404 367.551 109.941C368.273 109.473 369.055 109.238 369.895 109.238C371.268 109.238 372.336 109.691 373.098 110.596C373.859 111.501 374.24 112.796 374.24 114.482V115.234H367.082C367.108 116.276 367.411 117.119 367.99 117.764C368.576 118.402 369.318 118.721 370.217 118.721C370.855 118.721 371.395 118.59 371.838 118.33C372.281 118.07 372.668 117.725 373 117.295L374.104 118.154C373.218 119.515 371.89 120.195 370.119 120.195ZM369.895 110.723C369.165 110.723 368.553 110.99 368.059 111.523C367.564 112.051 367.258 112.793 367.141 113.75H372.434V113.613C372.382 112.695 372.134 111.986 371.691 111.484C371.249 110.977 370.65 110.723 369.895 110.723ZM387.385 117.607L390.979 109.434H393.234V120H391.428V112.314L388.01 120H386.76L383.273 112.148V120H381.467V109.434H383.811L387.385 117.607ZM402.668 120C402.564 119.792 402.479 119.421 402.414 118.887C401.574 119.759 400.572 120.195 399.406 120.195C398.365 120.195 397.508 119.902 396.838 119.316C396.174 118.724 395.842 117.975 395.842 117.07C395.842 115.97 396.258 115.117 397.092 114.512C397.932 113.9 399.11 113.594 400.627 113.594H402.385V112.764C402.385 112.132 402.196 111.631 401.818 111.26C401.441 110.882 400.884 110.693 400.148 110.693C399.504 110.693 398.964 110.856 398.527 111.182C398.091 111.507 397.873 111.901 397.873 112.363H396.057C396.057 111.836 396.242 111.328 396.613 110.84C396.991 110.345 397.499 109.954 398.137 109.668C398.781 109.382 399.488 109.238 400.256 109.238C401.473 109.238 402.427 109.544 403.117 110.156C403.807 110.762 404.165 111.598 404.191 112.666V117.529C404.191 118.499 404.315 119.271 404.562 119.844V120H402.668ZM399.67 118.623C400.236 118.623 400.773 118.477 401.281 118.184C401.789 117.891 402.157 117.51 402.385 117.041V114.873H400.969C398.755 114.873 397.648 115.521 397.648 116.816C397.648 117.383 397.837 117.826 398.215 118.145C398.592 118.464 399.077 118.623 399.67 118.623ZM413.85 110.928H408.977V120H407.16V109.434H413.85V110.928ZM422.258 109.434H424.064V120H422.258V112.295L417.385 120H415.578V109.434H417.385V117.148L422.258 109.434ZM431.203 118.721C431.848 118.721 432.411 118.525 432.893 118.135C433.374 117.744 433.641 117.256 433.693 116.67H435.402C435.37 117.275 435.161 117.852 434.777 118.398C434.393 118.945 433.879 119.382 433.234 119.707C432.596 120.033 431.919 120.195 431.203 120.195C429.764 120.195 428.618 119.717 427.766 118.76C426.919 117.796 426.496 116.481 426.496 114.814V114.512C426.496 113.483 426.685 112.568 427.062 111.768C427.44 110.967 427.98 110.345 428.684 109.902C429.393 109.46 430.23 109.238 431.193 109.238C432.378 109.238 433.361 109.593 434.143 110.303C434.93 111.012 435.35 111.934 435.402 113.066H433.693C433.641 112.383 433.381 111.823 432.912 111.387C432.45 110.944 431.877 110.723 431.193 110.723C430.275 110.723 429.562 111.055 429.055 111.719C428.553 112.376 428.303 113.33 428.303 114.58V114.922C428.303 116.139 428.553 117.077 429.055 117.734C429.556 118.392 430.272 118.721 431.203 118.721ZM445.285 110.898H441.74V120H439.934V110.898H436.457V109.434H445.285V110.898ZM455.969 114.834C455.969 116.442 455.601 117.738 454.865 118.721C454.13 119.704 453.133 120.195 451.877 120.195C450.594 120.195 449.585 119.788 448.85 118.975V124.062H447.043V109.434H448.693L448.781 110.605C449.517 109.694 450.539 109.238 451.848 109.238C453.117 109.238 454.12 109.717 454.855 110.674C455.598 111.631 455.969 112.962 455.969 114.668V114.834ZM454.162 114.629C454.162 113.438 453.908 112.497 453.4 111.807C452.893 111.117 452.196 110.771 451.311 110.771C450.217 110.771 449.396 111.257 448.85 112.227V117.275C449.39 118.239 450.217 118.721 451.33 118.721C452.196 118.721 452.883 118.379 453.391 117.695C453.905 117.005 454.162 115.983 454.162 114.629ZM464.797 120C464.693 119.792 464.608 119.421 464.543 118.887C463.703 119.759 462.701 120.195 461.535 120.195C460.493 120.195 459.637 119.902 458.967 119.316C458.303 118.724 457.971 117.975 457.971 117.07C457.971 115.97 458.387 115.117 459.221 114.512C460.061 113.9 461.239 113.594 462.756 113.594H464.514V112.764C464.514 112.132 464.325 111.631 463.947 111.26C463.57 110.882 463.013 110.693 462.277 110.693C461.633 110.693 461.092 110.856 460.656 111.182C460.22 111.507 460.002 111.901 460.002 112.363H458.186C458.186 111.836 458.371 111.328 458.742 110.84C459.12 110.345 459.628 109.954 460.266 109.668C460.91 109.382 461.617 109.238 462.385 109.238C463.602 109.238 464.556 109.544 465.246 110.156C465.936 110.762 466.294 111.598 466.32 112.666V117.529C466.32 118.499 466.444 119.271 466.691 119.844V120H464.797ZM461.799 118.623C462.365 118.623 462.902 118.477 463.41 118.184C463.918 117.891 464.286 117.51 464.514 117.041V114.873H463.098C460.884 114.873 459.777 115.521 459.777 116.816C459.777 117.383 459.966 117.826 460.344 118.145C460.721 118.464 461.206 118.623 461.799 118.623ZM477.814 109.434V120H475.998V110.928H472.404L472.189 114.883C472.072 116.699 471.766 117.998 471.271 118.779C470.783 119.561 470.005 119.967 468.938 120H468.215V118.408L468.732 118.369C469.318 118.304 469.738 117.965 469.992 117.354C470.246 116.742 470.409 115.609 470.48 113.955L470.676 109.434H477.814ZM487.551 109.434H489.357V120H487.551V112.295L482.678 120H480.871V109.434H482.678V117.148L487.551 109.434Z" fill="#204371"/>
<path d="M6 78.5H172.5" stroke="#3D4E88" stroke-width="5"/>
<path d="M6 13H172.5" stroke="#5F5F5F" stroke-width="3"/>
<path d="M6 45.5H172.5" stroke="#6079F6" stroke-width="5"/>
</svg>
