<svg width="39" height="70" viewBox="0 0 39 70" fill="none" xmlns="http://www.w3.org/2000/svg">
<path fill-rule="evenodd" clip-rule="evenodd" d="M30.9737 69.729H8.02633C3.60027 69.729 0 66.4652 0 62.4498V30.5717C0 28.7366 1.93995 24.4678 5.12514 17.6562C6.96897 13.7326 9.47692 8.36276 9.50314 7.27919C9.50314 6.7374 8.58996 5.74121 7.9739 5.08145C6.93401 3.95855 5.85918 2.79196 6.53204 1.4637C7.17869 0.17914 8.95261 0 10.7877 0H28.1905C30.5062 0.017477 32.1665 0.288371 32.7913 1.54672C33.4379 2.87934 32.3238 4.06778 31.3407 5.12077C30.7334 5.76305 29.8202 6.73303 29.8202 7.27482C29.8289 8.36713 32.2757 13.8025 34.0802 17.7654C37.1431 24.5159 39 28.7497 39 30.5673V62.4454C39 66.4652 35.391 69.729 30.9737 69.729ZM10.9013 4.43917C11.8582 5.49653 12.8806 6.99518 12.8806 8.5419C12.8806 10.058 11.4649 13.4049 8.66424 19.4913C6.70244 23.7338 4.03719 29.5362 4.03719 30.8513V61.624C4.03719 63.9528 6.11259 65.8447 8.64676 65.8447H30.3314C32.883 65.8447 34.9541 63.9528 34.9541 61.624V30.8513C34.9541 29.5362 32.3893 23.7775 30.5062 19.5786C27.8671 13.6321 26.0888 10.0493 26.0888 8.52005C26.0888 6.95586 27.4389 5.50964 28.4089 4.45664C28.4788 4.37363 28.0769 4.15953 27.6793 4.15953H11.2683C11.0367 4.15953 10.827 4.35178 10.9013 4.43917Z" fill="white"/>
<path fill-rule="evenodd" clip-rule="evenodd" d="M30.2148 57.0929C30.2148 60.1558 27.9384 60.9685 25.129 60.9685H13.9262C11.1167 60.9685 8.84473 60.1558 8.84473 57.0929V28.4568C8.84473 25.394 11.5974 35.1593 17.5177 30.5279C23.4424 25.9139 30.2148 25.394 30.2148 28.4568V57.0929Z" fill="white"/>
</svg>
