<?xml version="1.0" encoding="utf-8"?>
<svg width="255" height="255" viewBox="0 0 255 255" fill="none" xmlns="http://www.w3.org/2000/svg" xmlns:bx="https://boxy-svg.com">
  <circle cx="127.5" cy="127.5" r="127.5" fill="#EAEAEA"/>
  <mask id="mask0" mask-type="alpha" maskUnits="userSpaceOnUse" x="0" y="0" width="255" height="255">
    <circle cx="127.5" cy="127.5" r="127.5" fill="#EAEAEA"/>
  </mask>
  <g mask="url(#mask0)">
    <path d="M 248.889 113.591 C 239.369 112.737 230.248 110.004 223.252 105.769 C 217.008 101.977 208.108 101.909 201.909 105.769 C 185.128 116.153 154.443 116.153 137.396 105.256 C 131.418 101.431 122.784 102.148 116.718 105.871 C 99.892 116.153 69.384 116.118 52.426 105.29 C 46.448 101.465 37.681 102.25 31.57 105.974 C 24.707 110.141 15.63 112.839 6.022 113.625 C 2.524 113.898 0 116.289 0 118.988 L 1.284 262.853 C 1.284 265.961 4.649 268.591 8.679 268.318 C 21.431 267.464 33.519 264.424 43.836 259.471 C 68.853 271.29 104.497 271.119 128.85 259.471 C 153.868 271.29 189.512 271.119 213.865 259.471 C 224.182 264.322 236.402 267.43 248.889 268.284 C 252.918 268.557 256.284 265.927 256.284 262.819 L 254.999 119.159 C 255.044 116.426 252.475 113.898 248.889 113.591 Z" fill="#C80022"/>
  </g>
  <text transform="matrix(1, 0, 0, 0.915983, -2.377692, 24.304371)" style="fill: rgb(255, 255, 255); font-family: &quot;Open Sans&quot;; font-size: 26.2014px; white-space: pre;" x="62.663" y="188.625">рек</text>
  <text style="fill: rgb(255, 255, 255); font-family: &quot;Open Sans&quot;; font-size: 24px; white-space: pre;" x="61.312" y="166.161">150 тыс.</text>
</svg>