<svg width="50" height="49" viewBox="0 0 50 49" fill="none" xmlns="http://www.w3.org/2000/svg">
<path d="M24.3892 14.5232C16.891 14.5624 9.39277 14.5232 1.89454 14.4775C1.60062 14.4775 1.3067 14.4579 1.01278 14.4448C0.627416 14.4252 0.333496 14.2162 0.248585 13.8961C0.157144 13.5564 0.287775 13.2755 0.653542 13.0599C3.35108 11.492 6.0878 9.98947 8.81146 8.46733C11.202 7.13464 13.5926 5.79542 15.9962 4.47579C18.648 3.01898 21.3063 1.5883 23.9582 0.131484C24.2782 -0.0449018 24.546 -0.0449019 24.8726 0.138016C27.4133 1.54257 29.9672 2.92099 32.508 4.32554C36.6947 6.63815 40.8749 8.96382 45.0616 11.283C46.1001 11.8579 47.1256 12.4523 48.1511 13.0403C48.4907 13.2363 48.654 13.5237 48.5952 13.7981C48.5103 14.177 48.2164 14.4252 47.7984 14.4448C45.251 14.5363 42.7037 14.5036 40.1564 14.5167C34.8985 14.5363 29.6406 14.5232 24.3892 14.5232ZM24.4415 11.5181C26.6296 11.7011 28.367 9.58444 28.3408 7.65073C28.3147 5.50797 26.5904 3.77025 24.4545 3.76372C22.2469 3.75719 20.5095 5.39692 20.4834 7.6246C20.4638 9.6171 22.0771 11.6945 24.4415 11.5181Z" fill="#C80022"/>
<path d="M21.5176 30.0706C21.5176 26.8551 21.5226 23.6331 21.5127 20.4176C21.5127 20.0902 21.5868 20.0312 21.8189 20.0312C23.6264 20.0443 25.4339 20.0443 27.2463 20.0312C27.4932 20.0312 27.5624 20.1164 27.5624 20.4504C27.5525 26.9075 27.5525 33.3712 27.5624 39.8284C27.5624 40.1296 27.4784 40.1951 27.2759 40.1951C25.6857 40.1886 24.1005 40.1886 22.5103 40.1886C22.2732 40.1886 22.0312 40.1755 21.7942 40.1951C21.5818 40.2148 21.5077 40.1231 21.5127 39.8284C21.5226 37.4512 21.5176 35.0739 21.5176 32.6967C21.5176 31.8126 21.5176 30.9416 21.5176 30.0706Z" fill="#C80022"/>
<path d="M36.8414 30.0706C36.8414 26.8551 36.8463 23.6331 36.8364 20.4176C36.8364 20.0902 36.9105 20.0312 37.1426 20.0312C38.9501 20.0443 40.7576 20.0443 42.57 20.0312C42.817 20.0312 42.8861 20.1164 42.8861 20.4504C42.8762 26.9075 42.8762 33.3712 42.8861 39.8284C42.8861 40.1296 42.8022 40.1951 42.5997 40.1951C41.0095 40.1886 39.4242 40.1886 37.834 40.1886C37.5969 40.1886 37.355 40.1755 37.1179 40.1951C36.9056 40.2148 36.8315 40.1231 36.8364 39.8284C36.8463 37.4512 36.8414 35.0739 36.8414 32.6967C36.8414 31.8126 36.8414 30.9416 36.8414 30.0706Z" fill="#C80022"/>
<path d="M6.18949 30.0706C6.18949 26.8551 6.19443 23.6331 6.18456 20.4176C6.18456 20.0902 6.25863 20.0312 6.49075 20.0312C8.29825 20.0443 10.1057 20.0443 11.9182 20.0312C12.1651 20.0312 12.2343 20.1164 12.2343 20.4504C12.2244 26.9075 12.2244 33.3712 12.2343 39.8284C12.2343 40.1296 12.1503 40.1951 11.9478 40.1951C10.3576 40.1886 8.77234 40.1886 7.18214 40.1886C6.94509 40.1886 6.7031 40.1755 6.46605 40.1951C6.2537 40.2148 6.17962 40.1231 6.18456 39.8284C6.19443 37.4512 6.18949 35.0739 6.18949 32.6967C6.18949 31.8126 6.18949 30.9416 6.18949 30.0706Z" fill="#C80022"/>
<path d="M24.4024 18.8356C18.1583 18.8356 11.9141 18.8356 5.67645 18.8356C4.86001 18.8356 4.04356 18.8356 3.22712 18.8291C2.86788 18.8291 2.62621 18.6461 2.56743 18.2934C2.46293 17.6597 2.41067 17.0195 2.52171 16.3793C2.60662 15.9024 2.77644 15.7652 3.27284 15.7325C4.48118 15.6607 5.68952 15.6737 6.89786 15.6672C12.9591 15.6607 19.0204 15.6476 25.0817 15.6541C31.5676 15.6607 38.0534 15.6737 44.5392 15.6868C44.8985 15.6868 45.2577 15.7195 45.6169 15.7325C45.9697 15.7456 46.1917 15.922 46.257 16.2617C46.3942 16.9542 46.3942 17.6466 46.2374 18.3326C46.1656 18.6331 46.0023 18.8356 45.5516 18.8356C39.6536 18.8225 33.7622 18.8291 27.8642 18.8291C26.7081 18.8291 25.5585 18.8291 24.4024 18.8291V18.8356Z" fill="#C80022"/>
<path d="M24.3648 44.5114C18.1207 44.5114 11.8765 44.5114 5.63886 44.5114C4.82241 44.5114 4.00597 44.5114 3.18952 44.5048C2.83028 44.5048 2.58862 44.3219 2.52983 43.9692C2.42533 43.3355 2.37308 42.6953 2.48411 42.055C2.56902 41.5782 2.73884 41.441 3.23524 41.4083C4.44358 41.3364 5.65192 41.3495 6.86026 41.343C12.9215 41.3364 18.9828 41.3234 25.0441 41.3299C31.53 41.3364 38.0158 41.3495 44.5016 41.3626C44.8609 41.3626 45.2201 41.3952 45.5793 41.4083C45.9321 41.4214 46.1541 41.5978 46.2194 41.9375C46.3566 42.6299 46.3566 43.3224 46.1998 44.0084C46.128 44.3089 45.9647 44.5114 45.514 44.5114C39.616 44.4983 33.7246 44.5048 27.8266 44.5048C26.6705 44.5048 25.5209 44.5048 24.3648 44.5048V44.5114Z" fill="#C80022"/>
<path d="M24.4618 48.8555C17.8833 48.8555 11.3048 48.8555 4.73321 48.8555C3.87305 48.8555 3.01289 48.8555 2.15273 48.8489C1.77426 48.8489 1.51965 48.6635 1.45772 48.3059C1.34762 47.6636 1.29257 47.0147 1.40955 46.3657C1.49901 45.8823 1.67792 45.7433 2.2009 45.7102C3.47394 45.6373 4.74697 45.6506 6.02001 45.644C12.4058 45.6373 18.7917 45.6241 25.1775 45.6307C32.0106 45.6373 38.8437 45.6506 45.6768 45.6638C46.0553 45.6638 46.4338 45.6969 46.8123 45.7102C47.1838 45.7234 47.4178 45.9022 47.4866 46.2465C47.6311 46.9485 47.6311 47.6504 47.466 48.3457C47.3903 48.6503 47.2183 48.8555 46.7434 48.8555C40.5296 48.8423 34.3227 48.8489 28.1089 48.8489C26.8909 48.8489 25.6798 48.8489 24.4618 48.8489V48.8555Z" fill="#C80022"/>
</svg>
