<svg width="65" height="65" viewBox="0 0 65 65" fill="none" xmlns="http://www.w3.org/2000/svg">
<path d="M37.8548 19.8824C31.1637 16.6194 23.3173 18.5493 18.7846 24.0467L25.7931 31.0551C26.593 31.8549 26.593 33.1373 25.7931 33.9244C25.3995 34.318 24.8789 34.5212 24.3584 34.5212C23.8378 34.5212 23.3173 34.318 22.9237 33.9244L16.55 27.5509L0.285751 60.904C-0.0824482 61.6658 -0.107841 62.5926 0.285751 63.4052C0.971364 64.8145 2.6854 65.3985 4.09471 64.7129L21.0573 56.4349L14.8106 50.1884C14.0107 49.4012 14.0107 48.1062 14.8106 47.319C15.6105 46.5318 16.8928 46.5318 17.68 47.319L24.917 54.5559L37.8675 48.2331C40.9147 46.7477 43.5175 44.2592 45.1172 40.9836C48.9389 33.15 45.6886 23.7039 37.8548 19.8824ZM49.5483 15.4514C52.0241 10.284 50.7418 4.17707 45.7013 0C39.3149 5.29435 39.0356 13.6485 44.6982 19.2856L45.714 20.3013C51.3512 25.9639 59.7182 25.6846 65 19.2983C60.8228 14.2579 54.7158 12.9756 49.5483 15.4514Z" fill="white"/>
</svg>
