<svg width="53" height="53" viewBox="0 0 53 53" fill="none" xmlns="http://www.w3.org/2000/svg">
<path d="M45.8953 0.267578H7.15066C3.35453 0.267578 0.265625 3.35648 0.265625 7.15344V45.894C0.265625 49.6917 3.3537 52.7815 7.15066 52.7815H45.8953C49.6914 52.7815 52.7795 49.6926 52.7795 45.894V7.15344C52.7795 3.35648 49.6914 0.267578 45.8953 0.267578ZM42.6631 31.9069H31.9041V42.6651H21.1476V31.9069H10.3853V21.1421H21.1476V10.384H31.9041V21.1421H42.6631V31.9069Z" fill="#C80022"/>
</svg>
