<svg width="74" height="74" viewBox="0 0 74 74" fill="none" xmlns="http://www.w3.org/2000/svg">
<path d="M6.56585 49.1076C6.62091 47.4555 6.84803 45.9067 7.24721 44.4611C7.64639 43.0156 8.12128 41.7559 8.67188 40.682C9.22247 39.6082 9.76618 38.5481 10.303 37.5018C10.8398 36.4555 11.3078 35.2784 11.707 33.9705C12.1062 32.6627 12.3333 31.2928 12.3884 29.861C12.471 27.4931 11.7139 25.9512 10.1172 25.2353C9.07106 24.602 7.31603 23.8241 4.85212 22.9017C2.38821 21.9793 0.770833 21.3254 0 20.9399C0.715774 20.3066 1.63114 19.4806 2.74609 18.4618C3.86105 17.443 4.83147 16.5688 5.65737 15.8392C6.48326 15.1095 7.25409 14.4693 7.96987 13.9186C6.26302 12.7897 5.4096 11.179 5.4096 9.08635C5.4096 7.57195 6.00149 6.24342 7.18527 5.10074C8.36905 3.95807 9.64918 3.38673 11.0257 3.38673C12.2094 3.38673 13.2969 3.8617 14.2879 4.81163C15.279 5.76157 16.0636 6.81476 16.6417 7.9712C16.449 6.67709 16.4353 5.47246 16.6004 4.35732C16.7656 3.24217 17.268 2.23717 18.1077 1.3423C18.9474 0.447434 20.1243 0 21.6384 0C23.1801 0 24.5015 0.557571 25.6027 1.67271C26.7039 2.78786 27.2545 4.14392 27.2545 5.74092C27.2545 7.03503 26.8553 8.21901 26.0569 9.29285C26.2772 9.32039 26.4836 9.36169 26.6763 9.41676C26.869 9.47183 27.0342 9.52001 27.1719 9.56131C27.3095 9.60262 27.4609 9.67834 27.6261 9.78847C27.7913 9.89861 27.9221 9.97433 28.0184 10.0156C28.1148 10.0569 28.2387 10.1671 28.3901 10.346C28.5415 10.525 28.6447 10.6352 28.6998 10.6765C28.7548 10.7178 28.8718 10.8623 29.0508 11.1101C29.2297 11.3579 29.3398 11.5163 29.3811 11.5851C29.4224 11.6539 29.5463 11.8467 29.7528 12.1633C29.9593 12.48 30.09 12.6796 30.1451 12.7622C30.971 13.9737 31.7487 15.791 32.4782 18.214C33.2078 20.637 33.8272 22.9843 34.3365 25.2559C34.8458 27.5275 35.1968 28.8836 35.3895 29.3241C36.9587 30.6733 38.6587 31.8091 40.4894 32.7315C42.3201 33.6539 44.0063 34.1289 45.548 34.1564C47.2824 34.1839 49.1475 33.6814 51.1434 32.6489C53.1393 31.6164 55.0113 30.3154 56.7595 28.7459C58.5076 27.1764 60.2007 25.428 61.8387 23.5006C63.4767 21.5732 64.8808 19.7422 66.0508 18.0075C67.2208 16.2728 68.1499 14.7034 68.8382 13.2991C69.2511 14.4556 69.5815 15.495 69.8292 16.4174C70.077 17.3398 70.2697 18.5513 70.4074 20.0519C70.545 21.5525 70.4968 22.9086 70.2628 24.1201C70.0288 25.3316 69.4989 26.6189 68.673 27.9818C67.8471 29.3448 66.7046 30.5356 65.2455 31.5544C65.3006 31.6095 65.6722 31.6577 66.3605 31.699C67.0487 31.7403 67.7714 31.8229 68.5285 31.9468C69.2855 32.0707 70.0908 32.4906 70.9442 33.2065C71.7976 33.9224 72.4308 34.8998 72.8438 36.1389C71.3847 36.1389 70.0908 36.5863 68.9621 37.4812C67.8333 38.376 67.1176 39.2916 66.8147 40.2277C67.7783 40.0075 69.0859 40.3585 70.7377 41.2809C72.3895 42.2033 73.4769 43.4355 74 44.9774C72.7612 45.0875 71.7839 45.5143 71.0681 46.2578C70.3523 47.0012 69.6365 48.3228 68.9208 50.2227C67.9847 52.7559 66.505 54.8347 64.4816 56.4592C62.4581 58.0838 60.2214 59.1576 57.7712 59.6808C55.3211 60.2039 52.7195 60.3829 49.9665 60.2177C47.2135 60.0525 44.6189 59.5569 42.1825 58.7308C39.7461 57.9048 37.5506 56.8378 35.596 55.53C33.6414 54.2221 32.2098 52.7972 31.3013 51.2552C33.2284 55.7158 36.0227 59.192 39.6842 61.6839C43.3456 64.1758 47.1998 65.4355 51.2467 65.463C54.2199 65.4905 57.2068 64.5544 60.2076 62.6545C59.3542 64.6094 57.9983 66.351 56.1401 67.8791C54.2818 69.4073 52.2584 70.5844 50.0698 71.4104C47.8811 72.2365 45.7958 72.856 43.8136 73.269C41.8315 73.682 40.0283 73.916 38.404 73.9711C28.1905 74.274 20.2757 72.1951 14.6596 67.7346C9.04353 63.274 6.34561 57.065 6.56585 49.1076ZM15.8158 11.8536C14.6871 11.8536 13.7305 12.2459 12.9459 13.0306C12.1613 13.8154 11.769 14.7722 11.769 15.9011C11.769 17.03 12.1613 17.9868 12.9459 18.7716C13.7305 19.5563 14.6871 19.9487 15.8158 19.9487C16.9446 19.9487 17.9012 19.5563 18.6858 18.7716C19.4704 17.9868 19.8627 17.03 19.8627 15.9011C19.8627 14.7722 19.4704 13.8154 18.6858 13.0306C17.9012 12.2459 16.9446 11.8536 15.8158 11.8536Z" fill="white"/>
</svg>
