<?xml version="1.0" encoding="utf-8"?>
<svg version="1.1" id="Layer_1" xmlns="http://www.w3.org/2000/svg" xmlns:xlink="http://www.w3.org/1999/xlink" x="0px" y="0px"
	 viewBox="0 0 25.1 28.3" style="enable-background:new 0 0 25.1 28.3;" xml:space="preserve">
<style type="text/css">
	.st0{fill:#fcc287;}
</style>
<path class="st0" d="M17.3,22.6c3.2-1.4,5.6-3.8,7.7-6.5c0.3-0.4-0.3-0.8-0.6-0.6c-3.2,1.5-6.5,2.9-9.9,3.8c3.5-1.7,6.8-3.9,9.8-6.3
	c0.3-0.2,0.1-0.6-0.2-0.7c-1.5-0.6-3.2-0.2-4.7,0.2c-0.5,0.2-1.1,0.3-1.6,0.5c0.8-0.6,1.6-1.2,2.2-1.9c1-1,1.9-2.3,1.8-3.8
	c0-0.3-0.3-0.5-0.6-0.4c-0.9,0.3-1.9,0.6-2.8,0.8c0.8-0.7,1.5-1.4,2.3-2.1c0.4-0.3,0-0.8-0.4-0.7c-1.2,0.2-2.3,0.4-3.5,0.6
	c0.5-0.5,1-1,1.4-1.5c0.3-0.3,0.1-0.7-0.3-0.8c-1.4-0.2-2.8,0.1-4.2,0.5c0.5-0.5,0.9-0.9,1.4-1.4c0.2-0.3,0.1-0.6-0.2-0.7
	c-0.5-0.2-1.1-0.3-1.7-0.4C13.3,1.1,13.4,1,13.5,1c0.3-0.2,0.1-0.7-0.2-0.7c-2.2-0.7-4.6,0-5.9,1.9C7.1,2.3,7,2.4,7,2.5
	C7,2.7,7.1,2.9,7.3,3c0.1,0,0.2,0,0.4,0c0.9-0.4,1.9-0.6,2.9-0.7c-0.4,0.4-0.9,0.7-1.3,1C8,4.1,6.5,3.7,5,4.1
	C4.6,4.2,4.6,4.7,4.9,4.9C6.6,5.8,8.3,5.8,10,5.5c-1.5,1-3.2,1.7-5,1.9c-0.6,0-1.1,0.1-1.7,0.1s-0.6,0.9,0,0.9s1.2,0,1.8-0.1
	c2.6-0.2,5.1-0.6,7.6-1c-3.2,1.6-7,2.3-10.5,2.6c-0.5,0-0.6,0.8-0.1,0.9h0.1l0,0l0,0c4.4,0.6,8.6,0,12.8-1.1
	c-1.1,0.9-2.3,1.7-3.6,2.3C8,13.5,4,13.4,0.3,14.3c-0.5,0.1-0.4,0.9,0.1,0.9c2.5,0,4.9,1,7.4,1.3c0.3,0,0.7,0.1,1,0.1
	c-1.2,0.5-2.4,0.9-3.6,1.3C3.9,18.3,2.4,18.8,1,19c-0.4,0.1-0.4,0.6-0.1,0.8C2.4,20.6,4,21,5.7,21.2c-1.1,0.2-2.1,0.3-3.2,0.3
	c-0.4,0-0.6,0.5-0.3,0.8c1.3,1.2,2.9,2,4.7,2.4C6.4,24.9,6,25,5.5,25.3c-0.3,0.1-0.3,0.6,0,0.8c2.8,1.5,5.9,2.5,9.1,2.1
	s5.9-2.3,8-4.6c0.1-0.1,0.1-0.3,0.1-0.4c0-0.2-0.2-0.3-0.4-0.3c-0.1,0-0.2,0-0.2,0.1c-3,1.1-6.3,1.6-9.6,1.7c-0.2,0-0.5,0-0.7,0
	c0.1,0,0.1,0,0.2,0C13.8,24,15.6,23.4,17.3,22.6z M11,1.3c-0.6,0.1-1.3,0.1-1.9,0.3C10,1,11,0.8,12.1,0.9C12,1,11.9,1.1,11.8,1.2
	C11.5,1.2,11.3,1.3,11,1.3z M7.1,4.7C8,4.7,8.9,4.6,9.8,4c0.8-0.6,1.6-1.2,2.3-1.9c0.6,0,1.2,0,1.8,0.1c-0.7,0.7-1.4,1.4-2.2,2
	C10.1,4.7,8.6,5,7.1,4.7z M9.3,6.9c1.1-0.5,2-1.2,3-2C13.8,4.5,15.4,4.1,17,4c-0.6,0.7-1.3,1.3-2,1.8C13,6.3,11.2,6.6,9.3,6.9z
	 M7.5,10c2.8-0.6,5.5-1.6,7.8-3.2c1.2-0.2,2.5-0.5,3.7-0.7c-0.8,0.7-1.6,1.5-2.4,2.2C13.6,9.1,10.6,9.8,7.5,10z M8.1,15.7
	c-1.7-0.2-3.3-0.7-4.9-1c2.9-0.5,5.9-0.7,8.7-2c1.9-0.9,3.6-2.2,5.1-3.6c1.3-0.4,2.6-0.7,3.9-1.1c-0.4,2.5-3.6,4.4-5.5,5.5
	c-1.1,0.6-2.2,1.2-3.3,1.7C10.8,15.6,9.5,15.8,8.1,15.7z M2.5,19.6c2.7-0.6,5.4-1.7,8-2.8c0.6-0.3,1.2-0.5,1.8-0.8
	c0.3-0.1,0.7-0.2,1-0.3c1.8-0.7,3.6-1.5,5.5-2.1c1.3-0.4,2.7-0.8,4.1-0.7c-2.4,1.9-5,3.6-7.8,5c-1.8,0.9-3.8,1.8-5.7,2.4
	C7.1,20.6,4.7,20.4,2.5,19.6z M11.9,25.3c2.9,0,5.9-0.3,8.7-1.2c-1.8,1.6-3.8,2.8-6.2,3.1c-2.7,0.4-5.3-0.4-7.7-1.5
	c0.7-0.2,1.3-0.4,2-0.6C9.8,25.2,10.9,25.3,11.9,25.3z M3.7,22.4c2.1-0.1,4.2-0.5,6.2-1.2c1-0.1,2-0.3,3-0.5
	c3.5-0.8,6.9-2.1,10.2-3.6c-1.9,2.2-4.1,3.9-6.8,5c-2.5,1-5.1,1.3-7.7,2C6.8,23.9,5.1,23.4,3.7,22.4z"/>
</svg>
