<?xml version="1.0" encoding="utf-8"?>
<svg version="1.1" xmlns="http://www.w3.org/2000/svg" xmlns:xlink="http://www.w3.org/1999/xlink" x="0px" y="0px"
	 viewBox="0 0 89.8 29.6" style="enable-background:new 0 0 89.8 29.6;" xml:space="preserve">
<style type="text/css">
	.st0{fill:#F2BC82;}
	.st1{fill:#B2CDAE;}
</style>
<g id="Layer_2">
</g>
<g id="Слой_1">
	<path class="st0" d="M17.3,22.6c3.2-1.4,5.6-3.8,7.7-6.5c0.3-0.4-0.3-0.8-0.6-0.6c-3.2,1.5-6.5,2.9-9.9,3.8
		c3.5-1.7,6.8-3.9,9.8-6.3c0.3-0.2,0.1-0.6-0.2-0.7c-1.5-0.6-3.2-0.2-4.7,0.2c-0.5,0.2-1.1,0.3-1.6,0.5c0.8-0.6,1.6-1.2,2.2-1.9
		c1-1,1.9-2.3,1.8-3.8c0-0.3-0.3-0.5-0.6-0.4c-0.9,0.3-1.9,0.6-2.8,0.8c0.8-0.7,1.5-1.4,2.3-2.1c0.4-0.3,0-0.8-0.4-0.7
		c-1.2,0.2-2.3,0.4-3.5,0.6c0.5-0.5,1-1,1.4-1.5c0.3-0.3,0.1-0.7-0.3-0.8c-1.4-0.2-2.8,0.1-4.2,0.5c0.5-0.5,0.9-0.9,1.4-1.4
		c0.2-0.3,0.1-0.6-0.2-0.7c-0.5-0.2-1.1-0.3-1.7-0.4c0.1-0.1,0.2-0.2,0.3-0.2c0.3-0.2,0.1-0.7-0.2-0.7c-2.2-0.7-4.6,0-5.9,1.9
		C7.1,2.3,7,2.4,7,2.5c0,0.2,0.1,0.4,0.3,0.5c0.1,0,0.2,0,0.4,0c0.9-0.4,1.9-0.6,2.9-0.7c-0.4,0.4-0.9,0.7-1.3,1
		C8,4.1,6.5,3.7,5,4.1C4.6,4.2,4.6,4.7,4.9,4.9C6.6,5.8,8.3,5.8,10,5.5c-1.5,1-3.2,1.7-5,1.9c-0.6,0-1.1,0.1-1.7,0.1
		c-0.6,0-0.6,0.9,0,0.9c0.6,0,1.2,0,1.8-0.1c2.6-0.2,5.1-0.6,7.6-1c-3.2,1.6-7,2.3-10.5,2.6c-0.5,0-0.6,0.8-0.1,0.9c0,0,0.1,0,0.1,0
		c0,0,0,0,0,0c0,0,0,0,0,0c4.4,0.6,8.6,0,12.8-1.1c-1.1,0.9-2.3,1.7-3.6,2.3C8,13.5,4,13.4,0.3,14.3c-0.5,0.1-0.4,0.9,0.1,0.9
		c2.5,0,4.9,1,7.4,1.3c0.3,0,0.7,0.1,1,0.1c-1.2,0.5-2.4,0.9-3.6,1.3C3.9,18.3,2.4,18.8,1,19c-0.4,0.1-0.4,0.6-0.1,0.8
		c1.5,0.8,3.1,1.2,4.8,1.4c-1.1,0.2-2.1,0.3-3.2,0.3c-0.4,0-0.6,0.5-0.3,0.8c1.3,1.2,2.9,2,4.7,2.4c-0.5,0.2-0.9,0.3-1.4,0.6
		c-0.3,0.1-0.3,0.6,0,0.8c2.8,1.5,5.9,2.5,9.1,2.1c3.2-0.4,5.9-2.3,8-4.6c0.1-0.1,0.1-0.3,0.1-0.4c0-0.2-0.2-0.3-0.4-0.3
		c-0.1,0-0.2,0-0.2,0.1c-3,1.1-6.3,1.6-9.6,1.7c-0.2,0-0.5,0-0.7,0c0.1,0,0.1,0,0.2,0C13.8,24,15.6,23.4,17.3,22.6z M11,1.3
		c-0.6,0.1-1.3,0.1-1.9,0.3C10,1,11,0.8,12.1,0.9c-0.1,0.1-0.2,0.2-0.3,0.3C11.5,1.2,11.3,1.3,11,1.3z M7.1,4.7C8,4.7,8.9,4.6,9.8,4
		c0.8-0.6,1.6-1.2,2.3-1.9c0.6,0,1.2,0,1.8,0.1c-0.7,0.7-1.4,1.4-2.2,2C10.1,4.7,8.6,5,7.1,4.7z M9.3,6.9c1.1-0.5,2-1.2,3-2
		c1.5-0.4,3.1-0.8,4.7-0.9c-0.6,0.7-1.3,1.3-2,1.8C13,6.3,11.2,6.6,9.3,6.9z M7.5,10c2.8-0.6,5.5-1.6,7.8-3.2
		c1.2-0.2,2.5-0.5,3.7-0.7c-0.8,0.7-1.6,1.5-2.4,2.2C13.6,9.1,10.6,9.8,7.5,10z M8.1,15.7c-1.7-0.2-3.3-0.7-4.9-1
		c2.9-0.5,5.9-0.7,8.7-2c1.9-0.9,3.6-2.2,5.1-3.6c1.3-0.4,2.6-0.7,3.9-1.1c-0.4,2.5-3.6,4.4-5.5,5.5c-1.1,0.6-2.2,1.2-3.3,1.7
		C10.8,15.6,9.5,15.8,8.1,15.7z M2.5,19.6c2.7-0.6,5.4-1.7,8-2.8c0.6-0.3,1.2-0.5,1.8-0.8c0.3-0.1,0.7-0.2,1-0.3
		c1.8-0.7,3.6-1.5,5.5-2.1c1.3-0.4,2.7-0.8,4.1-0.7c-2.4,1.9-5,3.6-7.8,5c-1.8,0.9-3.8,1.8-5.7,2.4C7.1,20.6,4.7,20.4,2.5,19.6z
		 M11.9,25.3c2.9,0,5.9-0.3,8.7-1.2c-1.8,1.6-3.8,2.8-6.2,3.1c-2.7,0.4-5.3-0.4-7.7-1.5c0.7-0.2,1.3-0.4,2-0.6
		C9.8,25.2,10.9,25.3,11.9,25.3z M3.7,22.4c2.1-0.1,4.2-0.5,6.2-1.2c1-0.1,2-0.3,3-0.5c3.5-0.8,6.9-2.1,10.2-3.6
		c-1.9,2.2-4.1,3.9-6.8,5c-2.5,1-5.1,1.3-7.7,2C6.8,23.9,5.1,23.4,3.7,22.4z"/>
	<g>
		<g>
			<path class="st1" d="M74.7,4.8c-0.6,0-0.8,0.3-0.8,0.9v4.4h-0.4c-3.2,0-5.8,0.8-7.7,2.3c-0.6,0.4-1,0.9-1.4,1.4
				c-0.3-0.7-0.6-1.4-1.2-2C62,10.6,60.6,10,58.7,10c-2,0-3.7,0.7-4.9,2c-0.9,0.9-1.4,2-1.7,3.4c-1-1.5-2.2-2.7-3.6-3.6
				c1.1-0.5,2.2-1.2,3-2.2c0.9-0.9,1.4-1.9,1.7-3c0.1-0.3,0.1-0.6,0.1-0.8c0-0.3-0.1-0.5-0.2-0.7c-0.1-0.2-0.3-0.3-0.6-0.3
				c-0.3,0-0.5,0.1-0.6,0.2c-0.1,0.1-0.2,0.4-0.3,0.7c-0.3,1-0.8,1.8-1.4,2.6c-0.9,1.2-2.2,2-3.7,2.5c-0.6-0.2-1.3-0.4-2-0.5
				c-0.7-0.1-1.4-0.2-2-0.2V5.9c0-0.3-0.1-0.6-0.3-0.8c-0.2-0.2-0.4-0.3-0.7-0.3c-0.3,0-0.5,0.1-0.7,0.3c-0.2,0.2-0.3,0.4-0.3,0.8
				v17.5c0,0.3,0.1,0.6,0.3,0.8c0.2,0.2,0.4,0.3,0.7,0.3c0.3,0,0.5-0.1,0.7-0.3c0.2-0.2,0.3-0.4,0.3-0.8V11.8c2.5,0,4.6,0.8,6.3,2.4
				c1.3,1.2,2.3,2.8,3,4.9c0.1,0.2,0.2,0.3,0.3,0.4c0.3,1.2,0.9,2.2,1.7,3c1.3,1.3,3.2,1.9,5.6,1.9c0.8,0,1.6,0,2.2-0.1l1.7-0.2
				c0.3,0,0.6-0.1,0.8-0.2c0.3-0.1,0.4-0.4,0.4-0.7c0-0.3-0.1-0.5-0.2-0.6c-0.1-0.1-0.3-0.2-0.6-0.2c-0.1,0-0.3,0-0.4,0
				c-0.1,0-0.3,0-0.6,0.1l-1,0.1c-0.2,0-0.4,0.1-0.8,0.1c-0.4,0-0.8,0-1.2,0c-2,0-3.5-0.5-4.6-1.4c-1.1-1-1.6-2.4-1.6-4.3h9.3
				c-0.1,0.4-0.1,0.8-0.1,1.2c0,1.7,0.5,3.1,1.5,4.2c1.2,1.2,2.9,1.9,5.2,1.9h5.2c0.6,0,0.8-0.3,0.8-0.9V5.7
				C75.5,5.1,75.2,4.8,74.7,4.8z M53.8,15.6c0.3-1.2,0.8-2.2,1.7-3c0.9-0.8,1.9-1.1,3.1-1.1c1.2,0,2.2,0.4,3,1.1
				c0.8,0.8,1.2,1.7,1.2,3L53.8,15.6z M73.8,22.8h-4c-1.3,0-2.4-0.2-3.2-0.6c-1.3-0.7-2-1.9-2-3.8c0-2.1,0.8-3.8,2.4-5
				c1.6-1.2,3.7-1.9,6.4-1.9h0.4V22.8z"/>
			<path class="st1" d="M86.8,12.3c-1.9-1.5-4.1-2.2-6.8-2.2h-1.8c-0.6,0-0.8,0.3-0.8,0.9v17.7c0,0.6,0.3,0.9,0.8,0.9
				c0.6,0,0.8-0.3,0.8-0.9v-4.3h4.3c2.2,0,3.9-0.6,5-1.9c0.9-1.1,1.4-2.4,1.4-4.1C89.8,15.9,88.8,13.9,86.8,12.3z M86.1,22.2
				c-0.8,0.4-1.8,0.6-3.2,0.6h-3.8V11.6h0.4c2.5,0,4.6,0.6,6.2,1.9c1.6,1.3,2.4,2.9,2.4,5C88,20.3,87.4,21.5,86.1,22.2z"/>
		</g>
	</g>
</g>
</svg>
