<?xml version="1.0" encoding="utf-8"?>
<svg version="1.1" id="Isolation_Mode" xmlns="http://www.w3.org/2000/svg" xmlns:xlink="http://www.w3.org/1999/xlink" x="0px"
	 y="0px" viewBox="0 0 9.7 9.7" style="enable-background:new 0 0 9.7 9.7;" xml:space="preserve">
<style type="text/css">
	.st0{fill:#376750;}
</style>
<path class="st0" d="M9.3,7.1C9,7,7.8,6.3,7.6,6.2C7.4,6.1,7.2,6.1,7.1,6.3C6.9,6.5,6.4,7.1,6.2,7.2c-0.2,0.2-0.3,0.2-0.5,0
	c-0.2-0.1-1-0.4-1.9-1.3C3.1,5.2,2.6,4.4,2.5,4.1c-0.1-0.3,0-0.4,0.1-0.5C2.8,3.5,2.9,3.3,3,3.2C3.2,3.1,3.2,3,3.3,2.8
	c0.1-0.2,0.1-0.3,0-0.4C3.3,2.2,2.8,1,2.7,0.5C2.5,0,2.3,0.1,2.1,0C2,0,1.8,0,1.7,0C1.5,0,1.2,0,1,0.3c-0.2,0.2-0.9,0.8-1,2
	c-0.1,1.2,0.7,2.4,0.9,2.6c0.1,0.2,1.6,2.8,4,4c0.6,0.3,1,0.5,1.4,0.6c0.6,0.2,1.1,0.2,1.5,0.2c0.5,0,1.5-0.5,1.7-1.1
	C9.7,8,9.8,7.5,9.7,7.4C9.7,7.3,9.5,7.2,9.3,7.1z"/>
</svg>
