<svg width="177" height="102" viewBox="0 0 177 102" fill="none" xmlns="http://www.w3.org/2000/svg">
<path d="M0 82.1673C4.89313 75.6696 9.75528 69.231 14.8962 62.4675C12.2947 62.9106 10.3437 63.8852 7.9281 64.5645C11.7992 59.455 15.4846 54.5817 19.4796 49.3541C16.2588 49.9152 13.6884 50.9785 10.5605 52.0122C14.5245 46.7845 18.2408 41.8818 22.2049 36.6246C18.055 37.2448 14.5555 38.5739 11.025 39.7553C10.8082 39.2532 11.1799 39.0464 11.3657 38.8101C18.7983 29.0046 26.2618 19.199 33.6944 9.39346C34.2828 8.62556 34.6235 8.03486 35.5216 9.21625C43.0161 19.1695 50.5726 29.0932 58.0981 39.0169C58.222 39.1646 58.3149 39.3418 58.5936 39.7848C54.7844 38.5148 51.2849 37.0971 47.0112 36.4769C51.0062 41.7636 54.7535 46.6959 58.6556 51.8941C55.6516 51.0376 53.0811 49.738 49.7984 49.2655C53.7624 54.4931 57.4478 59.3664 61.2879 64.4759C58.9033 63.9147 56.9523 62.7038 54.2889 62.3199C59.3988 69.0833 64.2919 75.581 69.309 82.1673C68.5038 82.2854 67.9773 81.931 67.4508 81.7242C59.0582 78.3868 50.2939 76.4375 41.2509 75.6991C40.0431 75.6105 39.5786 75.9059 39.6095 77.0873C39.6715 81.7242 39.6405 86.3317 39.6405 90.9686C39.6405 92.7702 39.3928 93.0361 37.5036 93.0361C35.5836 93.0361 33.6944 93.0065 31.7743 93.0361C30.3498 93.0656 29.7304 92.5635 29.7614 91.1163C29.8233 86.4793 29.7613 81.8719 29.7923 77.2349C29.7923 76.0831 29.5136 75.6991 28.2129 75.8173C19.2628 76.5261 10.6534 78.6231 2.26074 81.6356C1.67233 81.8424 1.11489 82.0491 0.526475 82.2559C0.402598 82.3149 0.309691 82.2263 0 82.1673Z" fill="#C80022"/>
<path d="M72.7305 73.6204C77.6236 67.1227 82.4857 60.6841 87.6266 53.9207C85.0252 54.3637 83.0742 55.3383 80.6586 56.0176C84.5297 50.9081 88.215 46.0349 92.2101 40.8072C88.9893 41.3684 86.4188 42.4316 83.2909 43.4653C87.255 38.2377 90.9713 33.3349 94.9353 28.0777C90.7855 28.6979 87.286 30.027 83.7555 31.2084C83.5387 30.7063 83.9103 30.4995 84.0961 30.2633C91.5287 20.4577 98.9923 10.6521 106.425 0.846588C107.013 0.0786828 107.354 -0.512015 108.252 0.669377C115.747 10.6226 123.303 20.5463 130.829 30.47C130.952 30.6177 131.045 30.7949 131.324 31.2379C127.515 29.9679 124.015 28.5502 119.742 27.93C123.737 33.2168 127.484 38.1491 131.386 43.3472C128.382 42.4907 125.812 41.1912 122.529 40.7186C126.493 45.9463 130.178 50.8195 134.018 55.929C131.634 55.3679 129.683 54.1569 127.019 53.773C132.129 60.5365 137.022 67.0341 142.039 73.6204C141.234 73.7385 140.708 73.3841 140.181 73.1774C131.789 69.8399 123.024 67.8906 113.981 67.1523C112.774 67.0637 112.309 67.359 112.34 68.5404C112.402 73.1774 112.371 77.7848 112.371 82.4218C112.371 84.2234 112.123 84.4892 110.234 84.4892C108.314 84.4892 106.425 84.4597 104.505 84.4892C103.08 84.5187 102.461 84.0166 102.492 82.5694C102.554 77.9325 102.492 73.325 102.523 68.6881C102.523 67.5362 102.244 67.1523 100.943 67.2704C91.9933 67.9792 83.3839 70.0762 74.9912 73.0888C74.4028 73.2955 73.8454 73.5022 73.2569 73.709C73.1331 73.7681 73.0402 73.6795 72.7305 73.6204Z" fill="#C80022"/>
<path d="M46.293 92.9175C50.36 87.5169 54.4013 82.1653 58.6742 76.5437C56.512 76.912 54.8903 77.7221 52.8826 78.2867C56.1001 74.0398 59.1633 69.9893 62.4838 65.6442C59.8068 66.1107 57.6703 66.9944 55.0705 67.8536C58.3653 63.5085 61.4542 59.4335 64.749 55.0639C61.2997 55.5794 58.391 56.6841 55.4566 57.666C55.2764 57.2487 55.5853 57.0768 55.7398 56.8805C61.9175 48.7304 68.121 40.5803 74.2987 32.4302C74.7878 31.792 75.0709 31.301 75.8174 32.2829C82.0466 40.5557 88.3274 48.804 94.5823 57.0523C94.6853 57.175 94.7625 57.3223 94.9942 57.6906C91.8281 56.635 88.9194 55.4566 85.3672 54.9411C88.6877 59.3353 91.8023 63.4349 95.0456 67.7554C92.5488 67.0435 90.4123 65.9634 87.6838 65.5706C90.9786 69.9157 94.0418 73.9662 97.2336 78.213C95.2516 77.7466 93.6299 76.7401 91.4162 76.421C95.6634 82.0426 99.7304 87.4432 103.9 92.9175C103.231 93.0157 102.794 92.7212 102.356 92.5493C95.3803 89.7753 88.0957 88.1552 80.5794 87.5414C79.5755 87.4678 79.1894 87.7133 79.2152 88.6952C79.2667 92.5493 79.2409 96.3789 79.2409 100.233C79.2409 101.73 79.035 101.951 77.4648 101.951C75.8689 101.951 74.2987 101.927 72.7028 101.951C71.5187 101.976 71.0039 101.559 71.0297 100.356C71.0812 96.5016 71.0297 92.6721 71.0554 88.818C71.0554 87.8606 70.8238 87.5414 69.7426 87.6396C62.3036 88.2288 55.1477 89.9717 48.172 92.4757C47.683 92.6475 47.2196 92.8194 46.7306 92.9912C46.6276 93.0403 46.5504 92.9666 46.293 92.9175Z" fill="#C80022"/>
<path d="M119.023 84.3707C123.09 78.97 127.132 73.6185 131.405 67.9969C129.242 68.3651 127.621 69.1752 125.613 69.7398C128.831 65.4929 131.894 61.4424 135.214 57.0974C132.537 57.5638 130.401 58.4475 127.801 59.3067C131.096 54.9617 134.185 50.8866 137.479 46.517C134.03 47.0325 131.122 48.1372 128.187 49.1191C128.007 48.7018 128.316 48.53 128.47 48.3336C134.648 40.1835 140.851 32.0334 147.029 23.8833C147.518 23.2451 147.801 22.7541 148.548 23.7361C154.777 32.0089 161.058 40.2571 167.313 48.5054C167.416 48.6282 167.493 48.7755 167.725 49.1437C164.559 48.0881 161.65 46.9098 158.098 46.3943C161.418 50.7884 164.533 54.888 167.776 59.2085C165.279 58.4966 163.143 57.4165 160.414 57.0237C163.709 61.3688 166.772 65.4193 169.964 69.6662C167.982 69.1997 166.36 68.1933 164.147 67.8741C168.394 73.4957 172.461 78.8964 176.631 84.3707C175.962 84.4689 175.524 84.1743 175.086 84.0024C168.111 81.2285 160.826 79.6083 153.31 78.9946C152.306 78.9209 151.92 79.1664 151.946 80.1483C151.997 84.0024 151.971 87.832 151.971 91.6861C151.971 93.1836 151.765 93.4045 150.195 93.4045C148.599 93.4045 147.029 93.3799 145.433 93.4045C144.249 93.429 143.734 93.0117 143.76 91.8088C143.812 87.9547 143.76 84.1252 143.786 80.2711C143.786 79.3137 143.554 78.9946 142.473 79.0928C135.034 79.6819 127.878 81.4249 120.902 83.9288C120.413 84.1006 119.95 84.2725 119.461 84.4443C119.358 84.4934 119.281 84.4198 119.023 84.3707Z" fill="#C80022"/>
</svg>
