<svg width="69" height="58" viewBox="0 0 69 58" fill="none" xmlns="http://www.w3.org/2000/svg">
<path d="M48.3 10.2353H55.2V58H13.8V10.2353H20.7V6.82353C20.7 5.01382 21.427 3.27822 22.721 1.99857C24.015 0.718905 25.77 0 27.6 0H41.4C43.23 0 44.985 0.718905 46.279 1.99857C47.573 3.27822 48.3 5.01382 48.3 6.82353V10.2353ZM58.65 10.2353H62.1C63.93 10.2353 65.685 10.9542 66.979 12.2339C68.273 13.5135 69 15.2491 69 17.0588V51.1765C69 52.9862 68.273 54.7218 66.979 56.0014C65.685 57.2811 63.93 58 62.1 58H58.65V10.2353ZM10.35 10.2353V58H6.9C5.07001 58 3.31496 57.2811 2.02096 56.0014C0.726962 54.7218 0 52.9862 0 51.1765V17.0588C0 13.3059 3.105 10.2353 6.9 10.2353H10.35ZM27.6 6.82353V10.2353H41.4V6.82353H27.6Z" fill="#C80022"/>
</svg>
