<svg width="63" height="62" viewBox="0 0 63 62" fill="none" xmlns="http://www.w3.org/2000/svg">
<path d="M35 38.6543C28.6836 38.6543 23.502 38.2051 18.5801 37.1152C13.6582 36.0254 10.418 34.653 8.85938 32.998C14.4375 34.2493 20.6719 34.875 27.5625 34.875C32.6074 34.875 37.396 34.7479 41.9282 34.0617C46.4604 33.3755 50.1211 31.7871 52.9102 30.5762C55.6992 29.3652 57.0938 28.4974 57.0938 27.125V23.25H59.0625C60.252 23.4922 61.2056 23.9867 61.9233 24.7334C62.6411 25.4801 63 26.2773 63 27.125V31C63 32.4128 61.7695 33.7145 59.3086 34.9053C56.8477 36.096 52.9204 37.2027 48.6958 37.8889C44.4712 38.5751 40.0039 38.6543 35 38.6543ZM31.5 23.25C27.5215 23.25 23.8711 23.0381 20.5488 22.6143C17.2266 22.1904 14.5811 21.6859 12.6123 21.1006C10.6436 20.5153 8.97217 19.8896 7.59814 19.2236C6.22412 18.5576 5.27051 17.9824 4.7373 17.498C4.2041 17.0137 3.9375 16.6706 3.9375 16.4688V14.1074C6.0293 15.6413 9.63867 16.9027 14.7656 17.8916C19.8926 18.8805 25.4707 19.375 31.5 19.375C37.5293 19.375 43.1074 18.8805 48.2344 17.8916C53.3613 16.9027 56.9707 15.6413 59.0625 14.1074V15.5C59.0625 16.8724 57.832 18.154 55.3711 19.3447C52.9102 20.5355 49.5674 21.484 45.3428 22.1904C41.1182 22.8968 36.5039 23.25 31.5 23.25ZM31.5 15.5C26.4961 15.5 21.8818 15.1468 17.6572 14.4404C13.4326 13.734 10.0898 12.7855 7.62891 11.5947C5.16797 10.404 3.9375 9.1123 3.9375 7.71973C3.9375 6.32715 5.16797 5.03548 7.62891 3.84473C10.0898 2.65397 13.4326 1.71549 17.6572 1.0293C21.8818 0.343099 26.4961 0 31.5 0C36.5039 0 41.1182 0.343099 45.3428 1.0293C49.5674 1.71549 52.9102 2.65397 55.3711 3.84473C57.832 5.03548 59.0625 6.32715 59.0625 7.71973C59.0625 9.1123 57.832 10.404 55.3711 11.5947C52.9102 12.7855 49.5674 13.734 45.3428 14.4404C41.1182 15.1468 36.5039 15.5 31.5 15.5ZM1.96875 19.375C1.96875 20.7474 3.36328 22.0391 6.15234 23.25C8.94141 24.4609 12.6021 25.4095 17.1343 26.0957C21.6665 26.7819 26.4551 27.125 31.5 27.125C36.0938 27.125 40.4824 26.8324 44.666 26.2471C48.8496 25.6618 52.3359 24.8646 55.125 23.8555C55.084 23.9362 55.0122 24.0674 54.9097 24.249C54.8071 24.4307 54.4893 24.7637 53.9561 25.248C53.4229 25.7324 52.7769 26.1966 52.0181 26.6406C51.2593 27.0846 50.1519 27.5892 48.6958 28.1543C47.2397 28.7194 45.5991 29.1937 43.7739 29.5771C41.9487 29.9606 39.6211 30.2936 36.791 30.5762C33.9609 30.8587 30.8848 31 27.5625 31C22.5586 31 17.9443 30.6468 13.7197 29.9404C9.49512 29.234 6.15234 28.2855 3.69141 27.0947C1.23047 25.904 0 24.6224 0 23.25V19.375C0 18.4062 0.65625 17.4577 1.96875 16.5293V19.375ZM1.96875 39.7793V42.625C1.96875 43.9974 3.36328 45.2891 6.15234 46.5C8.94141 47.7109 12.6021 48.6595 17.1343 49.3457C21.6665 50.0319 26.4551 50.375 31.5 50.375C36.0117 50.375 40.3491 50.0924 44.5122 49.5273C48.6753 48.9622 52.1719 48.1751 55.002 47.166C54.3867 49.1842 51.4541 50.8695 46.2041 52.2217C40.9541 53.5739 34.7402 54.25 27.5625 54.25C22.5586 54.25 17.9443 53.9069 13.7197 53.2207C9.49512 52.5345 6.15234 51.596 3.69141 50.4053C1.23047 49.2145 0 47.9128 0 46.5V42.625C0 41.6562 0.65625 40.7077 1.96875 39.7793ZM35.4375 42.625C39.9902 42.625 44.3481 42.3324 48.5112 41.7471C52.6743 41.1618 56.1504 40.3646 58.9395 39.3555C58.3652 41.3737 55.4531 43.069 50.2031 44.4414C44.9531 45.8138 38.7188 46.5 31.5 46.5C26.4961 46.5 21.8818 46.1569 17.6572 45.4707C13.4326 44.7845 10.0898 43.846 7.62891 42.6553C5.16797 41.4645 3.9375 40.1628 3.9375 38.75V34.875C3.9375 33.987 4.53223 33.0788 5.72168 32.1504C6.33691 32.3522 6.87012 32.5137 7.32129 32.6348C6.54199 33.4017 6.15234 34.1484 6.15234 34.875C6.15234 36.2474 7.52637 37.5391 10.2744 38.75C13.0225 39.9609 16.6523 40.9095 21.1641 41.5957C25.6758 42.2819 30.4336 42.625 35.4375 42.625ZM57.0938 50.375V47.5293C58.4062 48.4577 59.0625 49.4062 59.0625 50.375V54.25C59.0625 55.6628 57.832 56.9645 55.3711 58.1553C52.9102 59.346 49.5674 60.2845 45.3428 60.9707C41.1182 61.6569 36.5039 62 31.5 62C24.2812 62 18.0469 61.3138 12.7969 59.9414C7.54688 58.569 4.63477 56.8737 4.06055 54.8555C6.84961 55.8646 10.3257 56.6618 14.4888 57.2471C18.6519 57.8324 23.0098 58.125 27.5625 58.125C32.6074 58.125 37.396 57.7819 41.9282 57.0957C46.4604 56.4095 50.1211 55.4609 52.9102 54.25C55.6992 53.0391 57.0938 51.7474 57.0938 50.375Z" fill="#B7B7B7"/>
</svg>
