<svg width="81" height="48" viewBox="0 0 81 48" fill="none" xmlns="http://www.w3.org/2000/svg">
<rect x="20.1445" width="38.74" height="22.156" fill="#C80022"/>
<rect x="41.8398" y="25.8438" width="38.74" height="22.156" fill="#C80022"/>
<rect y="25.8438" width="38.74" height="22.156" fill="#C80022"/>
</svg>
