<svg width="56" height="56" viewBox="0 0 56 56" fill="none" xmlns="http://www.w3.org/2000/svg">
<g clip-path="url(#clip0)">
<path d="M33.2496 26.2525C33.2491 27.6454 32.6954 28.981 31.7102 29.9656C30.7249 30.9501 29.3889 31.503 27.9961 31.5025C26.6032 31.5021 25.2676 30.9483 24.2831 29.9631C23.2985 28.9779 22.7456 27.6419 22.7461 26.249C22.7466 24.8562 23.3003 23.5206 24.2855 22.536C25.2708 21.5514 26.6067 20.9986 27.9996 20.999C29.3924 20.9995 30.7281 21.5532 31.7126 22.5385C32.6972 23.5237 33.2501 24.8597 33.2496 26.2525Z" fill="#C80022"/>
<path d="M49.945 14H41.055C39.4491 14 37.909 14.6379 36.7735 15.7735C35.6379 16.909 35 18.4491 35 20.055V31.5C35 32.4283 35.3687 33.3185 36.0251 33.9749C36.6815 34.6313 37.5717 35 38.5 35V56H52.5V35C53.4283 35 54.3185 34.6313 54.9749 33.9749C55.6313 33.3185 56 32.4283 56 31.5V20.055C56 18.4491 55.3621 16.909 54.2265 15.7735C53.091 14.6379 51.5509 14 49.945 14Z" fill="#C80022"/>
<path d="M52.5021 7.00385C52.5232 7.93604 52.3578 8.86304 52.0157 9.73044C51.6736 10.5978 51.1616 11.3881 50.5099 12.055C49.8582 12.7218 49.0798 13.2517 48.2204 13.6135C47.3611 13.9754 46.4381 14.1619 45.5057 14.1621C44.5732 14.1623 43.6502 13.9763 42.7906 13.6149C41.9311 13.2535 41.1524 12.724 40.5004 12.0575C39.8483 11.391 39.3359 10.6009 38.9934 9.7337C38.6508 8.86647 38.485 7.93955 38.5056 7.00735C38.5461 5.17839 39.3009 3.43793 40.6086 2.15856C41.9162 0.879185 43.6727 0.162567 45.5022 0.16211C47.3316 0.161652 49.0885 0.877391 50.3968 2.15611C51.705 3.43483 52.4608 5.17491 52.5021 7.00385Z" fill="#C80022"/>
<path d="M6.055 17.5H14.945C15.7402 17.5 16.5275 17.6566 17.2621 17.9609C17.9968 18.2652 18.6643 18.7112 19.2265 19.2735C19.7888 19.8357 20.2348 20.5032 20.5391 21.2379C20.8434 21.9725 21 22.7598 21 23.555V31.5C21 32.4283 20.6313 33.3185 19.9749 33.9749C19.3185 34.6313 18.4283 35 17.5 35L21 45.5H17.5V56H3.5V45.5H0L3.5 35C2.57174 35 1.6815 34.6313 1.02513 33.9749C0.368749 33.3185 0 32.4283 0 31.5V23.555C0 21.9491 0.637936 20.409 1.77347 19.2735C2.909 18.1379 4.44911 17.5 6.055 17.5Z" fill="#C80022"/>
<path d="M17.5021 10.5039C17.5232 11.436 17.3578 12.363 17.0157 13.2304C16.6736 14.0978 16.1617 14.8881 15.5099 15.555C14.8582 16.2218 14.0798 16.7517 13.2204 17.1135C12.3611 17.4754 11.4381 17.6619 10.5057 17.6621C9.57323 17.6623 8.65016 17.4763 7.79063 17.1149C6.9311 16.7535 6.15243 16.224 5.50036 15.5575C4.84828 14.891 4.33593 14.1009 3.99338 13.2337C3.65084 12.3665 3.485 11.4396 3.50562 10.5074C3.54606 8.67839 4.3009 6.93793 5.60855 5.65856C6.9162 4.37918 8.67274 3.66257 10.5022 3.66211C12.3316 3.66165 14.0885 4.37739 15.3968 5.65611C16.705 6.93483 17.4608 8.67491 17.5021 10.5039Z" fill="#C80022"/>
<path d="M24.5 45.5V56H31.5V45.5C32.4283 45.5 33.3185 45.1313 33.9749 44.4749C34.6313 43.8185 35 42.9283 35 42V36.61C35 35.2547 34.4616 33.955 33.5033 32.9967C32.545 32.0384 31.2453 31.5 29.89 31.5H26.11C24.7547 31.5 23.455 32.0384 22.4967 32.9967C21.5384 33.955 21 35.2547 21 36.61V42C21 42.9283 21.3687 43.8185 22.0251 44.4749C22.6815 45.1313 23.5717 45.5 24.5 45.5Z" fill="#C80022"/>
</g>
<defs>
<clipPath id="clip0">
<rect width="56" height="56" fill="white"/>
</clipPath>
</defs>
</svg>
