<svg width="63" height="63" viewBox="0 0 63 63" fill="none" xmlns="http://www.w3.org/2000/svg">
<g clip-path="url(#clip0)">
<path fill-rule="evenodd" clip-rule="evenodd" d="M7.05482 47.1973C7.47626 47.7114 7.92335 48.204 8.39441 48.6731C11.9435 41.0912 16.2108 35.3574 20.5213 30.1952C20.609 23.9719 22.2702 17.5754 26.3666 14.3385C23.8456 19.2035 23.7742 24.3537 23.9877 26.0924C37.4411 11.5353 50.4756 7.61288 50.4756 7.61288C42.5228 12.5565 36.3602 17.8007 31.4558 22.9483C35.6506 20.8164 43.346 22.1822 43.346 22.1822C28.359 26.2506 28.1156 26.746 27.9885 26.4647C25.1548 29.8811 22.4863 33.5869 20.4459 36.6753C23.0648 35.5866 26.8716 34.8376 33.3774 35.0167C33.3774 35.0167 19.6951 37.6247 16.2838 41.9313C14.247 45.3685 12.6634 48.397 11.4594 50.7439C16.9955 54.549 31.8716 54.7412 37.9526 45.6443C44.5132 35.84 44.9523 19.1846 61.6341 2.52646C66.6247 -2.45541 23.1245 6.40549 10.8686 19.8343C3.31803 28.0863 0.294667 38.9052 7.05482 47.1973Z" fill="#C80022"/>
<path fill-rule="evenodd" clip-rule="evenodd" d="M7.62705 43.2598C7.62705 43.2598 5.22534 47.7544 2.87335 52.9165C0.521369 58.0785 0.956121 60.571 0.385577 60.8556C-0.192721 61.1478 6.6762 61.0783 6.6762 61.0783C6.6762 61.0783 5.09839 54.0538 9.5156 46.3058L7.62705 43.2598Z" fill="#C80022"/>
</g>
<defs>
<clipPath id="clip0">
<rect width="61.3183" height="61.3183" fill="white" transform="translate(62.0273 0.712891) rotate(90.6666)"/>
</clipPath>
</defs>
</svg>
