<svg width="125" height="76" viewBox="0 0 125 76" fill="none" xmlns="http://www.w3.org/2000/svg">
<path d="M0 55.0704C1.51855 52.8326 3.83633 51.7776 6.266 50.8984C11.2213 49.1241 16.3683 48.6126 21.5953 48.9483C25.7833 49.22 29.9074 49.8754 33.7916 51.5538C35.3102 52.2092 36.8127 52.9125 37.8837 54.2392C38.9707 55.5979 38.9547 56.3972 37.8198 57.6759C36.0615 59.6421 33.7757 60.713 31.314 61.3844C23.1778 63.5903 15.0256 63.7022 6.90539 61.3045C5.13109 60.777 3.45269 60.0417 1.93415 58.9867C1.1509 58.4432 0.591434 57.7239 0.0159847 57.0046C3.57286e-09 56.3492 0 55.7098 0 55.0704Z" fill="#1C3351"/>
<path d="M124.999 30.1311C124.919 30.4987 124.823 30.8504 124.792 31.218C124.616 32.7366 123.832 33.8236 122.538 34.6228C119.581 36.4291 116.304 37.3562 112.931 37.9156C106.617 38.9866 100.367 38.7468 94.1648 37.1324C91.1757 36.3491 88.4423 35.1183 86.3164 32.7686C86.0766 32.4968 85.8848 32.273 85.8848 31.8734C85.9008 29.8274 85.8848 27.7654 85.8848 25.7193C85.8848 25.3517 85.9008 25.016 86.3963 25.3517C89.5772 27.5735 93.2537 28.4527 96.9941 29.1081C103.148 30.195 109.302 30.0831 115.408 28.8363C118.829 28.133 122.074 26.9981 124.983 25C124.999 26.7263 124.999 28.4207 124.999 30.1311Z" fill="#1C3351"/>
<path d="M124.999 17.9823C124.951 18.1901 124.855 18.3979 124.839 18.6057C124.791 20.396 123.8 21.5469 122.361 22.442C119.34 24.3122 115.984 25.1754 112.515 25.7189C105.753 26.7739 99.0878 26.4861 92.55 24.3602C90.1363 23.5769 87.8985 22.49 86.284 20.4439C86.0602 20.1562 85.9004 19.9005 85.9004 19.5168C85.9164 17.5507 85.9164 15.5686 85.9004 13.6025C85.9004 13.1549 85.9324 12.8192 86.5078 13.1709C91.559 16.3678 97.2335 17.2949 103.052 17.5507C108.455 17.7745 113.794 17.263 118.989 15.6166C121.099 14.9452 123.065 13.9382 124.999 12.8672C124.999 14.5775 124.999 16.2719 124.999 17.9823Z" fill="#1C3351"/>
<path d="M124.999 40.5219C124.792 41.3851 124.808 42.2642 124.808 43.1434C124.808 44.5021 124.28 45.5251 123.193 46.3563C121.195 47.9068 118.909 48.8339 116.496 49.4254C108.807 51.3116 101.102 51.3116 93.4456 49.2016C90.6642 48.4343 88.0907 47.2355 86.2525 44.8538C86.0287 44.566 85.8848 44.2943 85.8848 43.9266C85.9008 41.9605 85.8848 39.9784 85.8848 38.0123C85.8848 37.6287 85.8688 37.2291 86.4283 37.6127C89.4014 39.6108 92.7582 40.6178 96.2269 41.2732C101.822 42.3122 107.448 42.3442 113.075 41.513C116.751 40.9695 120.3 39.9465 123.593 38.1722C123.992 37.9484 124.408 37.5008 124.967 37.8045C124.999 38.7156 124.999 39.6108 124.999 40.5219Z" fill="#1C3351"/>
<path d="M124.999 52.5109C124.807 53.3421 124.776 54.2052 124.823 55.0524C124.935 56.7948 124.12 57.9776 122.761 58.9367C120.444 60.5672 117.838 61.4463 115.121 62.0378C108.679 63.4284 102.221 63.3165 95.7793 62.0378C93.5574 61.6062 91.4155 60.8709 89.4174 59.7519C88.1706 59.0486 87.1635 58.0576 86.1565 57.0825C85.9487 56.8747 85.8848 56.6509 85.8848 56.3632C85.8848 54.3331 85.9008 52.3191 85.8848 50.289C85.8848 49.7615 85.9967 49.5857 86.5082 49.9213C91.1597 52.9105 96.3867 53.8216 101.79 54.1733C106.201 54.461 110.565 54.3012 114.897 53.47C117.95 52.8785 120.843 51.8715 123.593 50.4169C124.68 49.8414 124.68 49.8574 124.903 51.0083C124.935 51.1362 124.967 51.2641 124.983 51.3919C124.999 51.7596 124.999 52.1432 124.999 52.5109Z" fill="#1C3351"/>
<path d="M58.9821 75.2104C57.5594 75.0346 56.1208 74.9387 54.7142 74.6829C51.693 74.1554 48.7359 73.3881 46.0505 71.8216C44.9315 71.1663 44.0524 70.2551 43.1253 69.376C42.8855 69.1522 42.8535 68.8805 42.8535 68.5768C42.8695 66.7065 42.8695 64.8523 42.8855 62.9821C42.9015 62.039 42.9654 61.9911 43.8286 62.4706C47.7129 64.6125 51.8529 65.8913 56.2487 66.243C59.8612 66.5307 63.4738 66.4828 67.1023 66.3389C71.0665 66.179 74.8229 65.204 78.4514 63.6695C79.3785 63.2698 80.2577 62.7743 81.1528 62.3108C81.5684 62.087 81.7443 62.2148 81.7443 62.6464C81.7603 64.6925 81.7762 66.7385 81.7922 68.8005C81.7922 69.1682 81.5205 69.36 81.3127 69.5838C79.3466 71.7417 76.805 72.9246 74.0716 73.7398C71.594 74.4751 69.0684 74.9706 66.4629 75.0825C66.2072 75.0985 65.9354 75.1784 65.6797 75.2264C63.4578 75.2104 61.2199 75.2104 58.9821 75.2104Z" fill="#1C3351"/>
<path d="M101.022 75.2079C99.3597 74.8563 97.6653 74.7444 96.0029 74.3607C93.2056 73.7054 90.5521 72.7463 88.0905 71.2597C86.7957 70.4765 86.1563 69.3415 86.0285 67.855C85.8846 66.3204 85.8526 64.7699 85.9805 63.2354C86.0764 62.0685 86.0764 62.0525 87.1474 62.612C89.1455 63.683 91.2235 64.5621 93.4134 65.1695C97.5055 66.2885 101.693 66.6082 105.897 66.5442C110.005 66.4803 114.082 66.1446 118.062 65.0097C120.124 64.4183 122.074 63.619 123.896 62.4841C124.488 62.1165 124.903 62.0525 124.983 62.8997C124.983 63.5871 124.983 64.2904 124.983 64.9777C124.743 66.1926 124.823 67.4074 124.791 68.6382C124.775 69.0219 124.759 69.3735 124.44 69.6453C123.832 70.1568 123.273 70.7322 122.617 71.1958C119.932 73.1139 116.831 73.9451 113.65 74.5366C112.163 74.8083 110.661 74.9841 109.158 75.2079C106.457 75.2079 103.739 75.2079 101.022 75.2079Z" fill="#1C3351"/>
<path d="M0 62.1016C5.1151 65.2026 10.7577 66.2416 16.6401 66.4654C21.1318 66.6412 25.5755 66.4654 29.9713 65.4743C32.6567 64.8669 35.1983 63.8599 37.628 62.5491C38.603 62.0216 38.651 62.0536 38.683 63.1725C38.7149 64.8669 38.7309 66.5773 38.7629 68.2876C38.7789 68.7352 38.619 69.0869 38.3473 69.4385C36.4451 71.8043 33.7757 72.8433 31.0263 73.7224C28.7884 74.4417 26.4866 74.8254 24.1529 75.0492C23.8971 75.0811 23.6414 75.1451 23.3696 75.193C20.7002 75.193 18.0467 75.193 15.3773 75.193C15.1695 75.1451 14.9777 75.0652 14.7699 75.0492C13.0755 74.9213 11.3971 74.6495 9.73468 74.2659C6.31395 73.4827 3.00512 72.4117 0.447571 69.8062C0.351663 69.6943 0.175832 69.6623 0.0479541 69.5824C-9.52762e-09 67.1048 0 64.6112 0 62.1016Z" fill="#1C3351"/>
<path d="M62.2128 24.4874C66.8964 24.3755 71.3881 24.9509 75.7199 26.5334C77.0307 27.013 78.2775 27.6044 79.4284 28.3876C79.9559 28.7393 80.4514 29.1549 80.867 29.6344C82.0019 30.9292 81.9859 32.224 80.803 33.4708C79.3804 34.9574 77.5422 35.7726 75.656 36.412C69.7896 38.426 63.7634 38.9695 57.6093 38.2982C54.1566 37.9145 50.7678 37.2272 47.5549 35.8685C46.372 35.373 45.2531 34.7655 44.294 33.8864C42.4877 32.2559 42.5037 30.5935 44.3579 29.027C45.7166 27.8761 47.3151 27.1408 48.9615 26.5174C53.2774 24.887 57.7531 24.3755 62.2128 24.4874Z" fill="#1C3351"/>
<path d="M107.513 0.0168804C110.31 0.000895667 114.818 0.496421 119.133 2.20678C120.7 2.83019 122.218 3.53351 123.497 4.66843C125.256 6.21894 125.287 7.73749 123.513 9.30399C121.947 10.6787 120.06 11.5099 118.11 12.1652C113.539 13.6998 108.807 14.1473 104.012 14.0195C100.128 13.9236 96.3232 13.3801 92.6308 12.1333C90.6966 11.4779 88.8744 10.6307 87.3398 9.25603C85.4856 7.59363 85.4856 6.2669 87.3718 4.60449C88.9862 3.18185 90.9044 2.35065 92.9185 1.69527C97.0585 0.336574 100.383 -0.0950125 107.513 0.0168804Z" fill="#1C3351"/>
<path d="M60.5173 50.7839C57.736 50.7519 53.2443 50.2084 48.8805 48.7058C46.6426 47.9386 44.7404 46.6598 43.126 44.9335C42.9342 44.7257 42.8223 44.5179 42.8223 44.2301C42.8223 42.1521 42.8223 40.0741 42.8223 37.9961C42.8223 37.6284 42.8542 37.3088 43.3498 37.6444C46.4028 39.6905 49.8715 40.5856 53.3882 41.3529C57.0646 42.1681 60.805 41.8804 64.5295 41.9443C69.7884 42.0242 74.7757 40.8893 79.5231 38.6834C80.1465 38.3957 80.722 37.9961 81.2974 37.6284C81.6811 37.3887 81.8249 37.4846 81.8249 37.9162C81.777 40.1221 81.713 42.328 81.6651 44.5498C81.6491 44.9175 81.3933 45.1093 81.1695 45.3331C79.1555 47.4271 76.5979 48.498 73.8805 49.2813C70.1241 50.3682 66.2558 50.8158 60.5173 50.7839Z" fill="#1C3351"/>
<path d="M62.1014 63.0287C57.4818 62.9328 52.8303 62.5012 48.3865 60.7749C46.4044 60.0076 44.6141 58.9207 43.2554 57.2263C43.0157 56.9226 42.8398 56.6349 42.8398 56.2352C42.8718 54.445 42.8558 52.6707 42.9038 50.8804C42.9198 49.8893 43.0317 49.8094 43.9108 50.2889C47.891 52.4309 52.1429 53.5978 56.6187 54.0613C63.9716 54.8126 71.1967 54.365 78.1181 51.5517C79.1251 51.1361 80.1002 50.6246 81.0752 50.1451C81.5228 49.9213 81.7626 49.9533 81.7786 50.5127C81.8425 52.4788 81.8105 54.4609 81.6347 56.4111C81.5708 57.1783 81.0752 57.7218 80.5318 58.2174C78.7255 59.8957 76.5036 60.7749 74.2018 61.4782C70.2536 62.6291 66.2414 62.9648 62.1014 63.0287Z" fill="#1C3351"/>
</svg>
