<svg width="104" height="62" viewBox="0 0 104 62" fill="none" xmlns="http://www.w3.org/2000/svg">
<path d="M81.4247 0C81.6809 0.640728 81.9462 1.27175 82.1841 1.92218C82.3853 2.50466 82.5317 3.10656 82.733 3.68904C82.9251 4.26181 82.9983 4.854 83.1904 5.42677C83.346 5.88305 83.4009 6.39757 83.4741 6.88297C83.7302 8.54304 83.8583 10.2225 83.7119 11.8923C83.6296 12.8728 83.5015 13.8824 83.2179 14.8144C82.8519 16.0279 82.5043 17.2608 81.8181 18.3675C81.4796 18.9112 81.1502 19.4937 80.83 20.0761C80.7934 20.1441 80.7202 20.212 80.7934 20.28C80.8392 20.3285 80.9581 20.3577 81.0038 20.3285C81.5528 19.9693 82.239 20.2315 82.7879 19.8723C82.8336 19.8431 82.8977 19.814 82.9617 19.814C83.5839 19.8043 84.1877 19.6296 84.8007 19.5422C86.7037 19.2801 88.6158 19.2121 90.5279 19.183C92.1839 19.1636 93.8307 19.1539 95.4775 19.3286C96.2735 19.416 97.1152 19.3383 97.8746 19.7364C97.9752 19.7946 98.1125 19.7752 98.2314 19.7752C98.945 19.7849 99.6037 20.0858 100.272 20.2897C100.601 20.3868 100.939 20.4742 101.278 20.5518C102.129 20.746 102.897 21.1343 103.684 21.4935C103.812 21.5518 104.032 21.6488 103.995 21.8624C103.95 22.0954 103.73 22.0371 103.574 22.0274C103.08 22.0177 102.568 22.0954 102.101 21.8042C102.037 21.7653 101.955 21.775 101.882 21.7653C99.494 21.4353 97.0969 21.4255 94.6999 21.4547C94.1967 21.4644 93.6935 21.4838 93.1903 21.4644C92.1382 21.445 91.1135 21.6877 90.0888 21.8333C89.0915 21.9692 88.076 22.2313 87.0788 22.4546C85.743 22.7458 84.4622 23.2021 83.1904 23.6584C81.9553 24.105 80.7843 24.7554 79.6223 25.4252C78.7349 25.9398 77.8932 26.5222 77.0789 27.1533C76.0085 27.9784 75.0295 28.9395 74.1238 29.9686C73.1266 31.0947 72.2574 32.3276 71.5072 33.6382C70.9399 34.6187 70.391 35.6478 70.3727 36.8613C70.3636 37.502 70.8393 37.9097 71.4248 37.7156C71.7725 37.5991 72.111 37.5699 72.4587 37.5602C73.154 37.5505 73.7944 37.2593 74.4532 37.0748C75.0478 36.9001 75.6425 36.6962 76.2372 36.5215C76.8959 36.337 77.4998 36.0167 78.1493 35.8225C78.7715 35.6381 79.3479 35.3274 79.9608 35.0944C80.5372 34.8808 81.077 34.541 81.6168 34.2401C83.1904 33.347 84.7092 32.3665 86.1456 31.2597C86.9781 30.619 87.7558 29.8909 88.3688 28.9978C88.4603 28.8716 88.5975 28.7454 88.5152 28.5706C88.4328 28.3959 88.2498 28.4541 88.1035 28.4541C87.28 28.4541 86.4383 28.3668 85.6424 28.5124C85.066 28.6192 84.4713 28.726 83.9041 28.9492C83.3277 29.1725 82.733 29.3667 82.1292 29.522C81.9096 29.5803 81.7541 29.7162 81.5619 29.7938C80.0798 30.4346 78.6617 31.2015 77.3351 32.1626C76.7861 32.5606 76.2281 32.9392 75.7066 33.3761C75.551 33.5023 75.3681 33.6867 75.1942 33.4829C75.0478 33.3178 75.2308 33.1528 75.3223 32.9781C76.1915 31.3277 77.4083 29.9977 78.7532 28.8036C80.0706 27.629 81.507 26.6484 83.1264 25.9689C83.9864 25.6097 84.8556 25.2408 85.7522 25.0078C86.3926 24.8331 87.0879 24.7457 87.7375 24.6001C89.6771 24.1632 91.6167 24.4641 93.5563 24.3962C94.2607 24.3768 94.9286 24.7651 95.6605 24.6874C95.8618 24.668 95.9167 24.8719 95.9441 25.066C96.0173 25.6776 95.8161 26.2504 95.6422 26.8038C95.3769 27.6678 94.9378 28.4541 94.462 29.2114C93.602 30.619 92.5773 31.8713 91.333 32.9101C91.0311 33.1625 90.6926 33.3664 90.4365 33.6867C90.5188 33.8421 90.656 33.7935 90.7658 33.7935C91.2233 33.8032 91.6807 33.8032 92.1382 33.8032C93.8948 33.8032 95.6422 34.1333 97.408 34.1333C98.4235 34.1333 99.4482 34.4051 100.445 34.6381C101.214 34.8226 101.973 35.0944 102.687 35.5021C103.291 35.8516 103.538 36.7933 103.227 37.502C102.943 38.1233 102.586 38.7058 102.156 39.2106C101.196 40.3464 100.208 41.4434 98.9999 42.288C98.8535 42.3948 98.7163 42.5016 98.5425 42.4336C98.3412 42.3463 98.3778 42.1327 98.4052 41.9677C98.5242 41.3269 98.6157 40.6668 98.8169 40.0552C99.1097 39.1523 98.7254 38.2204 98.1216 37.6864C98.0484 37.6282 97.9203 37.6282 97.8197 37.6088C96.3924 37.3564 94.9378 37.4243 93.5105 37.269C90.8482 36.968 88.1858 37.1428 85.5234 37.1331C84.4713 37.1331 83.41 37.2787 82.3762 37.5505C82.0285 37.6379 81.6626 37.6088 81.2875 37.7544C81.7724 37.8612 82.2572 37.9874 82.7513 38.0651C83.5656 38.1913 84.389 38.2786 85.1666 38.599C85.2215 38.6184 85.2856 38.6184 85.3496 38.6281C86.4017 38.7543 87.399 39.0941 88.4145 39.3465C88.8811 39.463 89.3477 39.6086 89.8052 39.7348C90.3816 39.8902 90.9488 40.1037 91.516 40.3173C92.3303 40.6183 93.1537 40.9289 93.9497 41.2881C95.2763 41.89 96.5663 42.5599 97.7922 43.385C98.8993 44.1423 99.9606 44.948 100.903 45.9188C101.278 46.3071 101.653 46.7052 102.01 47.1226C102.422 47.608 102.458 48.307 102.138 48.87C101.141 50.6369 99.7135 51.9184 98.0667 52.9668C96.8042 53.7726 95.4775 54.4521 94.1052 55.0152C92.989 55.4715 91.8545 55.8598 90.7018 56.2093C89.8235 56.4811 88.9177 56.6267 88.0394 56.9277C87.6277 57.0733 87.1611 57.1413 86.7494 57.151C85.56 57.1801 84.4256 57.5684 83.227 57.5199C81.6443 57.4519 80.0523 57.5975 78.4696 57.4519C77.4083 57.3548 76.3379 57.2383 75.2857 57.0733C74.5812 56.9665 73.8951 56.8112 73.1906 56.7141C72.5136 56.6267 71.8365 56.4617 71.1778 56.2481C70.7295 56.1025 70.2538 56.1122 69.8055 55.9375C69.0186 55.6365 68.1952 55.4715 67.4084 55.1802C66.8229 54.9667 66.2008 54.7822 65.5878 54.6172C64.9748 54.4521 64.3984 54.1706 63.7946 53.957C63.1724 53.7338 62.5595 53.4619 61.9465 53.1998C61.1231 52.86 60.318 52.4426 59.5128 52.0446C58.3875 51.4912 57.2896 50.899 56.2466 50.2C55.0847 49.4234 53.932 48.6371 52.8249 47.7633C52.0747 47.1614 51.3702 46.5207 50.7664 45.7635C50.6932 45.6761 50.5194 45.6082 50.6292 45.4625C50.7207 45.3266 50.8762 45.3655 51.0134 45.4237C51.727 45.7538 52.4315 46.0936 53.1451 46.4333C54.2613 46.9673 55.3592 47.5595 56.512 47.9963C57.0609 48.2002 57.5916 48.472 58.1679 48.6176C58.7992 48.773 59.3848 49.1127 60.0069 49.3457C60.6016 49.569 61.2237 49.7049 61.8184 49.9476C62.3216 50.1515 62.8522 50.2 63.3554 50.433C63.7214 50.5981 64.1422 50.6369 64.5356 50.7243C65.4231 50.9184 66.3014 51.1514 67.1706 51.365C68.2684 51.6368 69.3938 51.8407 70.5008 52.0057C71.4065 52.1416 72.3031 52.3941 73.2455 52.3746C74.9289 52.3455 76.5849 52.7921 78.2866 52.6465C79.5949 52.53 80.9215 52.4232 82.2207 52.2776C83.3094 52.1514 84.4256 51.9378 85.5051 51.6465C86.356 51.4233 87.216 51.1514 88.076 50.9573C88.625 50.8311 89.1281 50.4816 89.6679 50.3165C90.3541 50.103 90.9488 49.6952 91.6167 49.4428C92.5682 49.0836 93.4099 48.4817 94.2973 47.9866C94.828 47.6857 94.7548 47.3847 94.279 46.9479C93.2452 45.9965 91.9918 45.4917 90.7841 44.8801C89.8326 44.4044 88.7988 44.152 87.8198 43.7831C86.6122 43.3268 85.3588 43.0744 84.1145 42.822C83.3185 42.6569 82.4677 42.5696 81.6809 42.3948C80.6928 42.1715 79.6772 42.3754 78.7166 42.0065C78.6159 41.9677 78.5062 41.9871 78.3964 41.9774C73.8951 41.5696 69.3938 41.6958 64.8833 41.6861C64.069 41.6861 63.2822 41.8026 62.4771 41.8609C62.285 41.8706 61.9922 42.0065 61.9099 41.7347C61.8367 41.492 62.0746 41.3075 62.2484 41.1522C63.145 40.3658 64.0599 39.5989 64.929 38.7834C66.0361 37.7447 67.0242 36.5797 67.994 35.3954C68.9821 34.1819 69.897 32.9101 70.7478 31.5995C71.3516 30.6773 71.8914 29.6968 72.4129 28.6968C72.9802 27.5998 73.5566 26.4931 74.0231 25.3476C74.3251 24.6195 74.6361 23.8623 74.9015 23.105C75.1942 22.2604 75.487 21.4061 75.7706 20.5615C75.917 20.1344 76.1366 19.7266 76.1549 19.251C76.164 18.8626 76.3653 18.5229 76.4751 18.1637C76.713 17.3579 76.9051 16.5327 77.0881 15.7172C77.2436 15.0183 77.39 14.2999 77.4723 13.5621C77.6096 12.3583 77.6919 11.1545 77.6187 9.9507C77.5638 9.06727 77.5089 8.17413 77.2162 7.31983C77.0881 6.9218 77.0606 6.48494 76.9417 6.05779C76.8044 5.57239 76.53 5.63064 76.2464 5.74713C74.2336 6.63056 72.477 7.94114 70.7661 9.35851C69.1925 10.6594 67.7927 12.135 66.5118 13.7368C65.5786 14.8921 64.682 16.0764 63.9501 17.387C63.8129 17.6297 63.6482 18.0277 63.3554 17.9307C63.1175 17.853 63.2548 17.4356 63.2365 17.1734C63.1541 15.9502 63.4652 14.7659 63.7763 13.6203C64.1422 12.2903 64.6363 10.9797 65.3225 9.78566C66.3014 8.08676 67.4084 6.49465 68.8631 5.21319C70.5008 3.7667 72.3031 2.56291 74.2519 1.66978C75.3132 1.18438 76.3927 0.689268 77.5547 0.43686C77.9206 0.359196 78.3872 0.349488 78.7166 0.029124C79.5949 -5.78642e-09 80.5098 0 81.4247 0Z" fill="#C2C2C2"/>
<path d="M0 31.6484C1.25341 32.3377 2.41534 33.2211 3.72364 33.8133C4.48301 34.1628 5.21493 34.59 5.98344 34.9103C6.7977 35.2501 7.63026 35.5608 8.42623 35.92C9.5607 36.4442 10.7501 36.8131 11.9211 37.1917C12.7171 37.4441 13.5405 37.6965 14.3639 37.9004C15.2239 38.114 16.1297 38.2013 16.9531 38.5897C16.9805 38.5994 17.0171 38.6188 17.0446 38.6091C17.7856 38.5217 18.4535 38.9003 19.1763 38.978C19.8533 39.0459 20.5486 39.2207 21.2348 39.3275C21.9393 39.4343 22.6255 39.6284 23.3299 39.6867C24.2448 39.7643 25.1231 39.9876 26.0106 40.2012C26.5687 40.3371 27.1451 40.3371 27.7123 40.5118C28.6455 40.8031 29.6062 41.0167 30.5485 41.2594C31.2713 41.4535 31.9574 41.735 32.6894 41.8807C33.2292 41.9875 33.7415 42.2399 34.263 42.4437C34.8577 42.6767 35.4432 42.9291 36.0379 43.1718C37.9866 43.9873 39.8164 45.0746 41.573 46.2687C42.4239 46.8415 43.1833 47.5696 43.9243 48.2977C44.9399 49.2976 45.8456 50.3946 46.6507 51.579C46.788 51.7828 46.788 52.0741 46.9801 52.2585C47.0167 52.2973 46.9984 52.4235 46.971 52.4818C46.8978 52.5983 46.8246 52.4915 46.7514 52.4527C45.5986 51.8605 44.4916 51.1809 43.3662 50.5402C42.5611 50.0839 41.6554 49.8121 40.8411 49.3655C40.219 49.0258 39.5694 48.7636 38.929 48.4821C37.8951 48.0258 36.8613 47.5987 35.7909 47.2589C35.1047 47.0356 34.4277 46.7929 33.7598 46.5211C33.4579 46.4046 33.1377 46.3658 32.8266 46.3075C32.2777 46.2007 31.7562 45.9774 31.2072 45.8804C30.6766 45.7833 30.1368 45.6959 29.6244 45.5212C29.0664 45.3367 28.4991 45.2785 27.9319 45.1523C27.3281 45.0163 26.6876 44.9387 26.1112 44.7639C25.4708 44.5601 24.7846 44.6766 24.1716 44.3271C23.8697 44.1523 23.458 44.1815 23.1104 44.1329C22.534 44.0553 21.985 43.8611 21.4361 43.7252C20.8597 43.5893 20.265 43.4534 19.6886 43.3077C18.9567 43.1136 18.2339 42.8903 17.502 42.7156C16.9897 42.5893 16.4956 42.3855 15.9924 42.2496C15.3429 42.0845 14.7207 41.8321 14.0803 41.6477C13.7418 41.5506 13.4033 41.4244 13.1288 41.2205C12.8543 41.0167 12.5341 41.1137 12.2597 40.9875C12.1133 40.9196 12.095 41.1137 12.1407 41.2108C12.2048 41.3467 12.3054 41.4826 12.4152 41.5991C13.2386 42.4534 14.0071 43.3757 14.9037 44.1329C15.9833 45.0552 17.072 45.9774 18.2614 46.7638C19.4325 47.5307 20.5944 48.3074 21.8204 48.9578C22.8725 49.5112 23.9338 50.0354 25.0134 50.5305C25.791 50.88 26.587 51.1518 27.3646 51.4722C28.243 51.8314 29.1579 52.1129 30.0728 52.375C30.5119 52.5012 30.9602 52.6177 31.3994 52.8119C31.8111 52.9963 32.2777 53.074 32.7168 53.1225C33.7506 53.2584 34.7479 53.6079 35.7817 53.7535C37.1358 53.9477 38.4807 54.2001 39.853 54.3166C40.402 54.3652 40.9875 54.4428 41.5456 54.7146C41.1339 54.8214 40.713 54.9476 40.3013 55.035C40.0909 55.0738 39.8713 55.035 39.6609 55.0544C36.1111 55.4136 32.5521 55.3942 28.9932 55.3165C27.7123 55.2874 26.4315 55.1127 25.1689 54.8505C24.5651 54.7243 23.9246 54.7049 23.3299 54.5399C22.6895 54.3554 22.0308 54.2681 21.3904 54.0836C20.695 53.8895 20.018 53.6468 19.3227 53.4526C18.1242 53.1128 16.9988 52.5983 15.8918 52.0061C15.0044 51.5304 14.1443 51.0062 13.2935 50.4625C12.8726 50.1907 12.4884 49.8412 12.0858 49.5306C11.0428 48.7054 10.073 47.7831 9.149 46.8026C8.15176 45.7444 7.19111 44.6669 6.30366 43.5116C5.57174 42.5505 4.89471 41.5409 4.16279 40.5798C3.85173 40.1721 3.61385 39.7061 3.34853 39.2595C2.47023 37.8033 1.67427 36.2986 0.988092 34.7356C0.631281 33.9201 0.347662 33.0755 0.027447 32.2503C-5.45323e-09 32.0368 0 31.8426 0 31.6484Z" fill="#C2C2C2"/>
<path d="M58.2897 27.256C58.8386 25.4115 58.9941 23.5475 58.8661 21.6739C58.802 20.7322 58.6099 19.8002 58.4269 18.8586C58.2256 17.8489 57.8688 16.9073 57.5852 15.9365C57.3931 15.2569 57.018 14.6356 56.7435 13.9754C56.2677 12.8396 55.5633 11.8397 55.0052 10.7524C54.9503 10.6553 54.7764 10.5776 54.9411 10.4417C55.0418 10.3641 55.1699 10.3738 55.2888 10.4514C56.2128 11.1116 57.146 11.762 57.9146 12.6357C58.5641 13.3735 59.2869 14.0337 59.8907 14.82C60.705 15.8782 61.4461 17.0043 61.9767 18.2761C62.425 19.3634 62.791 20.4895 62.9008 21.6545C63.0288 22.9456 63.1112 24.2562 62.8093 25.5571C62.6995 26.0328 62.6537 26.5279 62.5257 27.0133C62.3152 27.8482 62.0042 28.6345 61.6839 29.4209C61.4003 30.1101 61.0618 30.7897 60.6684 31.4207C60.0463 32.4012 59.5065 33.44 58.6831 34.2749C58.2988 34.6632 58.2714 34.6826 58.0609 34.1681C57.5577 32.9449 57.1277 31.6731 56.5697 30.479C56.1396 29.5665 55.7279 28.6539 55.2796 27.7608C54.8313 26.8677 54.3281 26.0036 53.8524 25.1202C53.3035 24.1106 52.7271 23.1301 52.1232 22.1593C51.373 20.9555 50.5679 19.8002 49.7262 18.6838C48.9119 17.6062 47.9696 16.6548 46.9724 15.7714C46.1398 15.0336 45.2523 14.3832 44.3374 13.7716C44.1362 13.6357 43.8617 13.7036 43.6421 13.558C43.4866 13.4512 43.4866 13.6551 43.4866 13.7522C43.5598 14.6938 43.203 15.6161 43.3036 16.5383C43.3951 17.4315 43.3494 18.3635 43.5323 19.2275C43.7702 20.3536 44.0355 21.4797 44.3923 22.5767C44.7583 23.7126 45.2798 24.7707 45.7921 25.8192C46.2313 26.7026 46.7162 27.5569 47.3017 28.3627C47.9422 29.2461 48.5734 30.149 49.2779 30.9838C50.3849 32.2944 51.5286 33.5856 52.7088 34.8185C53.8981 36.0708 54.9594 37.4494 56.1214 38.7308C56.2128 38.8376 56.286 38.9638 56.3409 39.0997C56.3867 39.1968 56.405 39.323 56.3043 39.4104C56.2128 39.4978 56.1031 39.4492 56.0024 39.4007C55.3345 39.0997 54.7216 38.692 54.0994 38.3037C52.6996 37.4397 51.3273 36.5077 49.9 35.6922C48.61 34.9544 47.3475 34.1487 46.03 33.44C45.0602 32.9254 44.1179 32.3527 43.1115 31.9061C42.5076 31.644 41.9404 31.2654 41.3366 30.9936C40.6047 30.6635 39.8544 30.4014 39.1134 30.0907C38.3632 29.7703 37.5763 29.5859 36.7987 29.3626C36.1857 29.1879 35.527 29.2364 34.914 29.052C34.6578 28.9743 34.5023 29.1782 34.667 29.4209C35.6642 30.9159 36.6797 32.4012 37.8966 33.7215C38.5553 34.4302 39.1134 35.236 39.827 35.8864C41.0804 37.0222 42.2057 38.3134 43.514 39.3813C44.2368 39.9735 44.9779 40.5559 45.6366 41.2355C45.7189 41.3132 45.8928 41.352 45.8013 41.5267C45.7372 41.6529 45.6 41.6432 45.4719 41.6529C45.2432 41.6626 45.0877 41.4782 44.8864 41.4102C43.4408 40.9151 42.0502 40.2841 40.7327 39.4978C39.7995 38.9347 38.8938 38.3037 37.9789 37.7018C35.838 36.2844 34.0723 34.4399 32.4255 32.4595C31.5472 31.3916 30.7878 30.2169 30.2205 28.916C29.9918 28.4015 29.6625 27.9355 29.3971 27.4307C29.0769 26.8191 29.141 26.6832 29.7448 26.4405C30.1657 26.2755 30.5774 26.2755 30.9891 26.4211C31.1537 26.4793 31.3184 26.489 31.4831 26.489C32.0046 26.4988 32.5261 26.5473 33.0384 26.489C34.237 26.3725 35.408 26.6347 36.5608 26.8385C37.6312 27.0327 38.7108 27.2657 39.7446 27.6249C41.2085 28.1394 42.6632 28.7122 43.9898 29.5859C44.1087 29.6636 44.2368 29.8092 44.3557 29.7024C44.5113 29.5568 44.31 29.45 44.2368 29.3529C43.6238 28.5277 43.0017 27.7025 42.3796 26.8774C41.5287 25.7512 40.7693 24.5572 40.2204 23.2466C39.7721 22.1593 39.2872 21.0817 39.0676 19.8779C38.9029 18.9751 38.7291 18.0722 38.537 17.1791C37.9789 14.5288 38.0887 11.8591 38.1344 9.1894C38.1436 8.31568 38.3723 7.45166 38.6193 6.60707C38.7017 6.31583 38.9578 6.37408 39.1591 6.44203C40.2478 6.80123 41.3 7.26721 42.3338 7.77203C43.8526 8.50984 45.2706 9.45151 46.6338 10.4514C48.6741 11.9562 50.632 13.5968 52.2422 15.6258C53.5139 17.2373 54.7582 18.878 55.673 20.771C56.1305 21.7321 56.5331 22.7223 56.9539 23.7029C57.3107 24.5474 57.5029 25.46 57.8597 26.3046C58.006 26.6152 57.8414 27.0618 58.2897 27.256Z" fill="#C2C2C2"/>
<path d="M31.0134 61.0464C29.9795 60.6969 28.8816 60.7357 27.8112 60.5318C26.9421 60.3668 26.0912 60.1532 25.2586 59.8814C24.4993 59.6387 23.7673 59.2989 23.0354 58.9786C21.718 58.4058 20.5195 57.6 19.2752 56.8719C19.0282 56.7263 18.7994 56.5419 18.5616 56.3768C18.5067 56.338 18.4609 56.2894 18.4975 56.2215C18.525 56.1729 18.589 56.1244 18.6348 56.1244C18.9092 56.1147 19.2386 56.0273 19.4399 56.1535C19.9705 56.4836 20.5652 56.3962 21.1141 56.5419C21.7363 56.6972 22.4041 56.7846 23.0263 56.9399C23.8222 57.134 24.6639 57.0273 25.4142 57.3962C25.4965 57.435 25.588 57.4447 25.6795 57.4447C27.8387 57.5418 29.9887 57.7359 32.1478 57.7068C33.4561 57.6874 34.7644 57.5515 36.0545 57.3962C37.3719 57.2408 38.6894 56.9302 39.9702 56.4933C40.3911 56.3477 40.8028 56.0953 41.2694 56.1147C41.3975 56.1244 41.5713 56.0662 41.6353 56.2409C41.6994 56.4059 41.5256 56.4642 41.4432 56.5321C40.6381 57.3088 39.7964 58.0078 38.8632 58.6097C38.1038 59.0951 37.3079 59.4834 36.5028 59.8134C35.7708 60.1144 35.0206 60.3862 34.2247 60.5318C33.1634 60.7163 32.0929 60.7842 31.0134 61.0464Z" fill="#C2C2C2"/>
</svg>
