<svg width="49" height="48" viewBox="0 0 49 48" fill="none" xmlns="http://www.w3.org/2000/svg">
<path d="M20.8118 37.25C21.1377 37.25 21.4504 37.3795 21.6809 37.61C21.9114 37.8405 22.0409 38.1532 22.0409 38.4792C22.0409 38.8052 21.9114 39.1178 21.6809 39.3483C21.4504 39.5788 21.1377 39.7083 20.8118 39.7083C20.4858 39.7083 20.1731 39.5788 19.9426 39.3483C19.7121 39.1178 19.5826 38.8052 19.5826 38.4792C19.5826 38.1532 19.7121 37.8405 19.9426 37.61C20.1731 37.3795 20.4858 37.25 20.8118 37.25ZM28.1868 37.25C28.5127 37.25 28.8254 37.3795 29.0559 37.61C29.2864 37.8405 29.4159 38.1532 29.4159 38.4792C29.4159 38.8052 29.2864 39.1178 29.0559 39.3483C28.8254 39.5788 28.5127 39.7083 28.1868 39.7083C27.8608 39.7083 27.5481 39.5788 27.3176 39.3483C27.0871 39.1178 26.9576 38.8052 26.9576 38.4792C26.9576 38.1532 27.0871 37.8405 27.3176 37.61C27.5481 37.3795 27.8608 37.25 28.1868 37.25ZM19.5826 20.0417C20.2346 20.0417 20.8599 20.3007 21.3209 20.7617C21.7819 21.2227 22.0409 21.848 22.0409 22.5C22.0409 23.152 21.7819 23.7773 21.3209 24.2383C20.8599 24.6993 20.2346 24.9583 19.5826 24.9583C18.9306 24.9583 18.3053 24.6993 17.8443 24.2383C17.3833 23.7773 17.1243 23.152 17.1243 22.5C17.1243 21.848 17.3833 21.2227 17.8443 20.7617C18.3053 20.3007 18.9306 20.0417 19.5826 20.0417ZM29.4159 20.0417C30.0679 20.0417 30.6932 20.3007 31.1542 20.7617C31.6153 21.2227 31.8743 21.848 31.8743 22.5C31.8743 23.152 31.6153 23.7773 31.1542 24.2383C30.6932 24.6993 30.0679 24.9583 29.4159 24.9583C28.7639 24.9583 28.1386 24.6993 27.6776 24.2383C27.2166 23.7773 26.9576 23.152 26.9576 22.5C26.9576 21.848 27.2166 21.2227 27.6776 20.7617C28.1386 20.3007 28.7639 20.0417 29.4159 20.0417ZM39.2493 37.25C39.2493 42.6829 32.6363 47.0833 24.4993 47.0833C16.3622 47.0833 9.74925 42.6829 9.74925 37.25C9.74925 35.0375 10.8555 32.9971 12.6993 31.35C10.8555 28.8917 9.74925 25.8188 9.74925 22.5L10.0443 19.5008C8.71675 19.8696 7.11884 19.8696 5.81592 19.5008C3.30842 18.8125 -0.477412 15.9854 0.0880046 14.0188C0.653421 12.0521 5.34884 11.6833 7.85634 12.4208C9.30675 12.8388 10.8555 13.8958 11.7651 15.0267L13.1663 13.0354C11.6913 10.3312 12.2076 2.83333 19.5826 0.375L19.3613 0.719167C18.673 1.80083 16.903 5.21792 18.7713 8.90542C20.585 8.14411 22.5323 7.75199 24.4993 7.75199C26.4662 7.75199 28.4135 8.14411 30.2272 8.90542C32.0955 5.21792 30.3255 1.80083 29.6372 0.719167L29.4159 0.375C36.7909 2.83333 37.3072 10.3312 35.8322 13.0354L37.2334 15.0267C38.143 13.8958 39.6918 12.8388 41.1422 12.4208C43.6497 11.6833 48.3451 12.0521 48.9105 14.0188C49.4759 15.9854 45.6901 18.8125 43.1826 19.5008C41.8797 19.8696 40.2818 19.8696 38.9543 19.5008L39.2493 22.5C39.2493 25.8188 38.143 28.8917 36.2993 31.35C38.143 32.9971 39.2493 35.0375 39.2493 37.25ZM24.4993 32.3333C19.0663 32.3333 14.6659 34.5458 14.6659 37.25C14.6659 39.9542 19.0663 42.1667 24.4993 42.1667C29.9322 42.1667 34.3326 39.9542 34.3326 37.25C34.3326 34.5458 29.9322 32.3333 24.4993 32.3333ZM24.4993 27.4167C27.2526 27.4167 29.8338 27.9329 32.0463 28.7933C33.4722 27.0971 34.3326 24.9583 34.3326 22.5C34.3326 19.892 33.2966 17.3909 31.4525 15.5468C29.6084 13.7027 27.1072 12.6667 24.4993 12.6667C21.8913 12.6667 19.3901 13.7027 17.546 15.5468C15.7019 17.3909 14.6659 19.892 14.6659 22.5C14.6659 24.9583 15.5263 27.0971 16.9522 28.7933C19.1647 27.9329 21.7459 27.4167 24.4993 27.4167Z" fill="#C80022"/>
</svg>
