<svg width="93" height="92" viewBox="0 0 93 92" fill="none" xmlns="http://www.w3.org/2000/svg">
<path d="M20.925 28.3699C16.7865 28.3699 13.4385 25.0856 13.4385 21.0259C13.4385 19.0781 14.2273 17.2101 15.6312 15.8328C17.0352 14.4556 18.9395 13.6818 20.925 13.6818C25.0635 13.6818 28.4115 16.9661 28.4115 21.0259C28.4115 22.9736 27.6227 24.8416 26.2188 26.2189C24.8148 27.5962 22.9105 28.3699 20.925 28.3699ZM20.925 0.499023C9.3 0.499023 0 9.62207 0 21.0259C0 36.3982 20.925 59.1602 20.925 59.1602C20.925 59.1602 41.85 36.3982 41.85 21.0259C41.85 9.62207 32.55 0.499023 20.925 0.499023ZM72.075 28.3699C70.0895 28.3699 68.1852 27.5962 66.7813 26.2189C65.3773 24.8416 64.5885 22.9736 64.5885 21.0259C64.5885 20.0614 64.7822 19.1065 65.1584 18.2154C65.5346 17.3244 66.0861 16.5148 66.7813 15.8328C67.4764 15.1509 68.3017 14.6099 69.21 14.2409C70.1183 13.8718 71.0919 13.6818 72.075 13.6818C73.0581 13.6818 74.0317 13.8718 74.94 14.2409C75.8483 14.6099 76.6736 15.1509 77.3688 15.8328C78.0639 16.5148 78.6154 17.3244 78.9916 18.2154C79.3679 19.1065 79.5615 20.0614 79.5615 21.0259C79.5615 22.9736 78.7728 24.8416 77.3688 26.2189C75.9648 27.5962 74.0605 28.3699 72.075 28.3699ZM72.075 0.499023C60.45 0.499023 51.15 9.62207 51.15 21.0259C51.15 36.3982 72.075 59.1602 72.075 59.1602C72.075 59.1602 93 36.3982 93 21.0259C93 9.62207 83.7 0.499023 72.075 0.499023ZM72.075 64.3603C66.1695 64.3603 60.915 68.0096 58.962 73.4834H34.038C32.8058 70.0694 30.2444 67.2738 26.9148 65.7091C23.5853 64.1444 19.7592 63.9382 16.275 65.1358C14.5433 65.731 12.9481 66.6553 11.5807 67.8557C10.2133 69.056 9.10047 70.509 8.30586 72.1316C7.51125 73.7541 7.05042 75.5144 6.94972 77.3117C6.84903 79.1091 7.11043 80.9082 7.719 82.6064C8.96783 86.0293 11.5466 88.8284 14.8922 90.3925C18.2377 91.9565 22.0782 92.1584 25.575 90.954C29.5275 89.5856 32.55 86.4837 34.038 82.6064H59.0085C61.566 89.7224 69.564 93.4629 76.725 90.954C78.462 90.3649 80.0632 89.4448 81.4366 88.2468C82.8101 87.0487 83.9286 85.5962 84.728 83.9727C85.5274 82.3493 85.9919 80.5868 86.0947 78.7867C86.1976 76.9866 85.9369 75.1843 85.3275 73.4834C83.328 68.0096 78.027 64.3603 72.075 64.3603ZM72.075 84.8872C70.2251 84.8872 68.451 84.1663 67.1429 82.8831C65.8349 81.6 65.1 79.8596 65.1 78.0449C65.1 76.2302 65.8349 74.4899 67.1429 73.2067C68.451 71.9235 70.2251 71.2026 72.075 71.2026C73.9249 71.2026 75.699 71.9235 77.0071 73.2067C78.3151 74.4899 79.05 76.2302 79.05 78.0449C79.05 79.8596 78.3151 81.6 77.0071 82.8831C75.699 84.1663 73.9249 84.8872 72.075 84.8872Z" fill="#C4C4C4"/>
<ellipse cx="20.5" cy="78" rx="14.5" ry="14" fill="#C80022"/>
</svg>
