<svg width="77" height="87" viewBox="0 0 77 87" fill="none" xmlns="http://www.w3.org/2000/svg">
<path d="M61.3152 0C62.3416 0.716309 62.0809 1.79077 62.0972 2.78384C62.1135 7.11425 62.1135 7.11425 66.5121 7.11425C66.8542 7.11425 67.1963 7.13053 67.5221 7.11425C68.8254 7.08169 69.3304 7.798 69.3304 9.01898C69.3304 10.2562 69.4119 11.5098 69.3141 12.7308C69.2164 14.0331 69.754 14.4076 70.9758 14.3262C72.2139 14.2448 73.452 14.3262 74.6901 14.3099C75.9608 14.2936 76.531 14.9285 76.531 16.1821C76.5147 18.7706 76.531 21.359 76.531 23.9475C76.531 43.8902 76.531 63.8166 76.531 83.7594C76.531 86.4129 76.3844 86.5432 73.7778 86.5432C67.5221 86.5432 61.2664 86.5432 55.0106 86.5432C54.5056 86.5432 53.9843 86.5757 53.4956 86.4618C52.9091 86.3153 52.5181 85.892 52.5181 85.2408C52.5181 84.6059 52.8765 84.1501 53.4956 84.0361C54.0332 83.9221 54.6197 83.9221 55.1736 83.9221C60.8591 83.9221 66.5609 83.8896 72.2465 83.9384C73.5009 83.9547 73.8756 83.5966 73.8593 82.3267C73.8267 61.0328 73.8267 39.7552 73.8593 18.4612C73.8593 17.1589 73.4683 16.8658 72.2302 16.8821C69.3304 16.9472 69.3141 16.8821 69.3141 19.8776C69.3141 30.2478 69.3141 40.6017 69.2978 50.9719C69.2978 52.0627 69.5911 53.5767 67.9945 53.6092C66.3329 53.6418 66.675 52.1115 66.675 51.037C66.6587 37.8504 66.6424 24.6801 66.7076 11.4935C66.7076 10.0609 66.3166 9.68646 64.9156 9.73529C62.0809 9.83297 62.0809 9.75157 62.0809 12.6331C62.0809 31.5502 62.0809 50.4835 62.0809 69.4006C62.0809 72.1031 61.9506 72.2333 59.1811 72.2333C45.7085 72.2333 32.2359 72.2658 18.7632 72.2007C17.0853 72.1844 16.4988 72.5752 16.6291 74.3171C16.8409 77.0684 16.2544 76.7102 19.0891 76.7102C34.37 76.7265 49.6346 76.6939 64.9156 76.7428C66.3166 76.7428 66.7238 76.4009 66.6913 74.9846C66.6098 69.6285 66.6587 64.2888 66.6587 58.9327C66.6587 57.9234 66.6913 56.8326 68.0108 56.8489C69.1838 56.8652 69.3141 57.8908 69.3141 58.8513C69.3141 64.9888 69.3304 71.1263 69.2978 77.2637C69.2978 79.0545 68.8743 79.3801 66.8542 79.3801C53.1535 79.3801 39.4691 79.3801 25.7684 79.3964C25.1493 79.3964 24.123 79.0219 23.9601 79.7871C23.6994 81.0244 23.5691 82.3756 24.0578 83.5965C24.2696 84.1338 25.0841 83.8896 25.6217 83.8896C32.6106 83.9059 39.5994 83.8896 46.5882 83.9059C47.6471 83.9059 49.1785 83.5314 49.2111 85.192C49.2436 86.9013 47.696 86.5106 46.6371 86.5106C39.0292 86.5269 31.4213 86.5269 23.8134 86.5269C21.3861 86.5269 21.2721 86.3967 21.2558 83.9059C21.2558 82.7826 21.2069 81.643 21.2721 80.5197C21.3209 79.6243 20.9462 79.3313 20.0828 79.3638C18.7958 79.4127 17.4926 79.315 16.1893 79.3801C14.5602 79.4615 13.9411 78.7126 13.99 77.1498C14.0389 75.9613 13.9411 74.7729 14.0063 73.6008C14.0877 72.4612 13.599 72.1356 12.5238 72.1844C11.2857 72.2333 10.0476 72.2007 8.80947 72.0542C3.93847 71.5007 0.273 67.7401 0.0775086 62.8399C-0.134274 57.4024 -0.248311 58.0699 4.49236 58.0373C7.18037 58.0862 6.85455 58.5094 6.85455 55.7419C6.87084 38.0621 6.85455 20.366 6.85455 2.68616C6.85455 1.72565 6.78939 0.765149 7.52248 0C25.4588 0 43.3952 0 61.3152 0ZM45.7737 69.596C43.607 67.1866 42.6458 64.7283 42.7273 61.9119C42.7598 61.0003 42.3689 60.7561 41.538 60.7561C39.5668 60.7886 37.5956 60.7723 35.6244 60.7398C34.761 60.7235 33.9953 60.3653 34.0116 59.3886C34.0279 58.4281 34.7447 58.0862 35.657 58.1025C37.4653 58.1187 39.2573 58.1025 41.0656 58.1025C45.4804 58.1187 45.4478 57.5489 45.4478 62.3352C45.4478 66.5354 48.478 69.5146 52.7136 69.596C54.5219 69.6285 56.3302 69.5308 58.1222 69.6285C59.23 69.6774 59.5558 69.3192 59.5558 68.2122C59.5232 46.8694 59.5232 25.5267 59.5558 4.16762C59.5558 3.01176 59.2463 2.60476 58.0571 2.60476C42.3851 2.63732 26.7132 2.63732 11.0576 2.60476C9.8358 2.60476 9.55885 3.01176 9.55885 4.16762C9.59143 21.6846 9.59143 39.2017 9.55885 56.7187C9.55885 57.8257 9.86838 58.1513 10.9762 58.135C16.5477 58.0862 22.1355 58.0862 27.707 58.135C28.8148 58.1513 30.5905 57.5327 30.5416 59.4862C30.4927 61.2282 28.8148 60.7398 27.7233 60.7561C19.9525 60.7886 12.1654 60.8049 4.39461 60.7561C3.14021 60.7398 2.74923 61.0816 2.78181 62.3677C2.87955 66.5842 5.89338 69.596 10.2757 69.6122C19.6918 69.6448 29.108 69.6122 38.5079 69.6285C40.7886 69.596 43.0857 69.596 45.7737 69.596Z" fill="white"/>
<path d="M22.3306 27.0746C19.8544 27.0746 17.3619 27.0258 14.8856 27.0909C13.4846 27.1235 12.8004 26.6188 12.8167 25.1373C12.8493 20.1232 12.8493 15.109 12.8167 10.0948C12.8167 8.82501 13.338 8.22266 14.625 8.22266C19.6915 8.23894 24.7743 8.23894 29.8408 8.22266C31.1114 8.22266 31.6653 8.80873 31.649 10.0948C31.6165 15.109 31.6165 20.1232 31.649 25.1373C31.6653 26.6188 30.9974 27.1235 29.5964 27.0909C27.1853 27.0421 24.758 27.0746 22.3306 27.0746ZM22.2655 10.86C20.3594 10.86 18.4371 10.8763 16.531 10.8437C15.7816 10.8274 15.3907 11.0065 15.407 11.8693C15.4395 15.6951 15.4395 19.5208 15.407 23.3303C15.407 24.1117 15.6839 24.4536 16.4822 24.4536C20.3105 24.4373 24.1389 24.4373 27.951 24.4536C28.7004 24.4536 29.0751 24.2094 29.0751 23.3791C29.0588 19.5534 29.0425 15.7276 29.0751 11.9182C29.0751 11.1205 28.7981 10.8274 27.9999 10.8437C26.0938 10.8925 24.1878 10.86 22.2655 10.86Z" fill="white"/>
<path d="M34.4358 51.4117C28.0823 51.4117 21.7125 51.4117 15.359 51.4117C14.854 51.4117 14.3327 51.4442 13.844 51.3303C13.2575 51.2 12.8828 50.7605 12.8828 50.1093C12.8828 49.4581 13.2249 49.0185 13.844 48.8883C14.3816 48.7743 14.9681 48.7743 15.5219 48.7743C28.18 48.7743 40.8544 48.7743 53.5125 48.7743C53.6265 48.7743 53.7406 48.7743 53.8546 48.7743C54.8809 48.7743 56.1353 48.6929 56.1353 50.093C56.1353 51.5093 54.8809 51.3954 53.8546 51.3954C47.3871 51.4117 40.9033 51.4117 34.4358 51.4117Z" fill="white"/>
<path d="M43.9013 41.2031C47.3387 41.2031 50.7598 41.2194 54.1972 41.2031C55.1747 41.2031 56.1521 41.3334 56.1521 42.5055C56.1521 43.6776 55.1584 43.8567 54.1972 43.8567C47.2736 43.8567 40.3662 43.8567 33.4425 43.8567C32.4977 43.8567 31.5039 43.7428 31.5039 42.5055C31.5039 41.2682 32.4814 41.2031 33.4425 41.2031C36.9288 41.2031 40.4151 41.2031 43.9013 41.2031Z" fill="white"/>
<path d="M34.6123 33.7664C37.4795 33.7664 40.3467 33.7664 43.2139 33.7664C44.1751 33.7664 45.12 33.8641 45.12 35.1014C45.12 36.2247 44.2077 36.4037 43.328 36.42C37.4306 36.4363 31.517 36.4363 25.6197 36.42C24.6911 36.42 23.8277 36.0944 23.8603 35.0362C23.8929 33.9781 24.74 33.7501 25.6849 33.7664C28.6498 33.7827 31.6311 33.7664 34.6123 33.7664Z" fill="white"/>
<path d="M45.7236 10.4503C48.5908 10.4503 51.458 10.4665 54.3252 10.4503C55.2701 10.4503 56.1172 10.6619 56.1498 11.7201C56.1824 12.7783 55.3189 13.1039 54.3904 13.1039C48.5419 13.1201 42.6935 13.1201 36.8287 13.1039C35.9164 13.1039 35.0204 12.8434 35.0041 11.7852C34.9878 10.5968 35.9327 10.434 36.9264 10.4503C39.8751 10.4503 42.7912 10.4503 45.7236 10.4503Z" fill="white"/>
<path d="M45.5956 18.9654C42.7284 18.9654 39.8612 18.9492 36.994 18.9654C36.0165 18.9654 35.0391 18.8515 35.0391 17.6631C35.0391 16.4909 36.0165 16.3281 36.994 16.3281C42.7284 16.3281 48.4628 16.3281 54.2135 16.3281C55.1747 16.3281 56.1684 16.4746 56.1684 17.6468C56.1684 18.8189 55.191 18.9654 54.2135 18.9492C51.33 18.9492 48.4628 18.9654 45.5956 18.9654Z" fill="white"/>
<path d="M45.5141 22.2706C48.4465 22.2706 51.3626 22.2869 54.2949 22.2706C55.2398 22.2706 56.1195 22.4497 56.1521 23.5078C56.1847 24.68 55.2398 24.9242 54.2624 24.9242C48.4628 24.9242 42.6795 24.9242 36.8799 24.9242C35.9024 24.9242 34.9576 24.6474 35.0227 23.4753C35.0879 22.4171 35.9839 22.2543 36.9125 22.2706C39.7797 22.2869 42.6469 22.2706 45.5141 22.2706Z" fill="white"/>
<path d="M20.3899 41.2038C22.3611 41.2038 24.316 41.2201 26.2872 41.2038C27.2321 41.1876 28.0792 41.448 28.0792 42.5062C28.0792 43.5644 27.2158 43.8574 26.3035 43.8574C22.3774 43.8737 18.435 43.8737 14.5089 43.8574C13.5803 43.8574 12.7657 43.5156 12.8146 42.4411C12.8635 41.4643 13.6128 41.2038 14.4926 41.2201C16.4475 41.2201 18.4187 41.2038 20.3899 41.2038Z" fill="white"/>
</svg>
