<svg width="94" height="96" viewBox="0 0 94 96" fill="none" xmlns="http://www.w3.org/2000/svg">
<path fill-rule="evenodd" clip-rule="evenodd" d="M6.5 35H88V37H94V44H88V54.5H94V61H88V71.6119H94V78.5H88V89H94V96H0V89H6.5V78.5H0V71.5H6.5V62H0V54H6.5V43.5H0V37H6.5V35ZM11.5 91V40H83V91H11.5Z" fill="white"/>
<path d="M54.7445 48.8555L44.716 58.8705L57.5731 63.0434L44.116 75.3118L48.4874 77.6487L36.1445 80.5697L38.4588 68.2179L40.9445 72.4742L49.0017 64.7126L36.1445 60.5397L47.2874 48.8555H54.7445Z" fill="white"/>
<path fill-rule="evenodd" clip-rule="evenodd" d="M74.7137 0H78.9994V1.71428H82.428V4.28571H78.9994V6.85714H82.428V9.42856H78.9994V12.8571H82.428V15.4286H78.9994V18.8571H82.428V21.4286H78.9994V24.8571H82.428V27.4285H78.9994V30.8571H82.428V33.4285H78.9994V35.1428H74.7137V33.4285H71.2852V30.8571H74.7137V27.4285H71.2852V24.8571H74.7137V21.4286H71.2852V18.8571H74.7137V15.4286H71.2852V12.8571H74.7137V9.42856H71.2852V6.85714H74.7137V4.28571H71.2852V1.71428H74.7137V0Z" fill="white"/>
<path fill-rule="evenodd" clip-rule="evenodd" d="M44.4286 0H48.7143V1.71428H52.1428V4.28571H48.7143V6.85714H52.1428V9.42856H48.7143V12.8571H52.1428V15.4286H48.7143V18.8571H52.1428V21.4286H48.7143V24.8571H52.1428V27.4285H48.7143V30.8571H52.1428V33.4285H48.7143V35.1428H44.4286V33.4285H41V30.8571H44.4286V27.4285H41V24.8571H44.4286V21.4286H41V18.8571H44.4286V15.4286H41V12.8571H44.4286V9.42856H41V6.85714H44.4286V4.28571H41V1.71428H44.4286V0Z" fill="white"/>
<path fill-rule="evenodd" clip-rule="evenodd" d="M16.4286 0H20.7143V1.71428H24.1428V4.28571H20.7143V6.85714H24.1428V9.42856H20.7143V12.8571H24.1428V15.4286H20.7143V18.8571H24.1428V21.4286H20.7143V24.8571H24.1428V27.4285H20.7143V30.8571H24.1428V33.4285H20.7143V35.1428H16.4286V33.4285H13V30.8571H16.4286V27.4285H13V24.8571H16.4286V21.4286H13V18.8571H16.4286V15.4286H13V12.8571H16.4286V9.42856H13V6.85714H16.4286V4.28571H13V1.71428H16.4286V0Z" fill="white"/>
</svg>
