<svg width="37" height="49" viewBox="0 0 37 49" fill="none" xmlns="http://www.w3.org/2000/svg">
<path d="M18.6163 39.2135C23.6478 39.2135 28.6647 39.2135 33.6961 39.2135C35.8983 39.2135 36.9921 40.3219 36.9921 42.5386C36.9921 43.7054 37.0066 44.8721 36.9921 46.0388C36.9629 47.8034 35.767 48.9993 33.9878 48.9993C23.7645 48.9993 13.5411 48.9993 3.31783 48.9993C1.49484 48.9993 0.298959 47.8034 0.284375 45.995C0.269792 44.7262 0.269792 43.472 0.284375 42.2032C0.298959 40.3948 1.49484 39.2135 3.31783 39.2135C8.40761 39.1989 13.512 39.2135 18.6163 39.2135Z" fill="#C80022"/>
<path d="M17.9745 6.67738C18.4411 6.88155 18.762 6.5607 19.0974 6.21069C19.637 5.64192 20.1766 5.08773 20.7454 4.56271C21.0663 4.27103 21.0371 4.09602 20.7308 3.81893C20.2787 3.41058 19.8558 2.97306 19.4474 2.53555C18.762 1.79177 18.762 1.0334 19.4183 0.406296C20.0162 -0.162477 20.8037 -0.147894 21.5038 0.53755C24.7122 3.71684 27.9061 6.9253 31.1 10.1338C31.7854 10.8192 31.7854 11.6213 31.2021 12.2047C30.6041 12.8172 29.7728 12.8026 29.0582 12.1609C28.9999 12.1172 28.9561 12.0588 28.8978 12.0151C28.402 11.5922 28.0228 10.7463 27.4686 10.7755C26.9873 10.8046 26.5498 11.563 26.0977 12.0005C25.9373 12.1463 25.7914 12.3213 25.631 12.4526C25.1643 12.8172 24.9602 13.2255 25.0622 13.8818C25.2081 14.786 24.756 15.5444 24.1435 16.1715C21.3288 18.9862 18.4995 21.8009 15.6848 24.6156C15.4077 24.8927 15.2619 24.8781 14.9993 24.6156C12.3742 21.9759 9.74914 19.3508 7.10945 16.7257C6.83236 16.4486 6.86153 16.2882 7.12404 16.0402C9.9679 13.211 12.8118 10.3817 15.6556 7.55241C16.239 6.91072 17.0119 6.58987 17.9745 6.67738Z" fill="#C80022"/>
<path d="M20.4843 36.3144C21.1406 35.3957 21.6947 34.5499 22.0447 33.5874C23.1676 30.3499 22.526 27.4624 20.3385 24.8958C19.9739 24.4729 20.0176 24.2979 20.3822 23.9479C22.2489 22.1104 24.1155 20.2438 25.953 18.3771C26.2447 18.0855 26.3905 18.0855 26.6822 18.3917C31.2175 23.3646 32.6175 29.0957 30.9259 35.6144C30.78 36.154 30.5613 36.329 29.9925 36.329C27.0759 36.2998 24.1593 36.3144 21.2426 36.3144C21.0093 36.3144 20.7906 36.3144 20.4843 36.3144Z" fill="#C80022"/>
<path d="M14.0946 27.9561C11.3967 29.9395 7.2259 29.5603 4.61551 27.0228C2.07804 24.5728 1.66971 20.4604 3.62386 17.5C7.10924 20.9854 10.6092 24.4708 14.0946 27.9561Z" fill="#C80022"/>
</svg>
