<svg width="101" height="57" viewBox="0 0 101 57" fill="none" xmlns="http://www.w3.org/2000/svg">
<path fill-rule="evenodd" clip-rule="evenodd" d="M32.7199 56.0912C32.7199 56.0912 28.0456 56.0912 28.0456 51.4169C28.0456 46.7426 32.7199 32.7199 51.4169 32.7199C70.114 32.7199 74.7882 46.7426 74.7882 51.4169C74.7882 56.0912 70.114 56.0912 70.114 56.0912H32.7199ZM51.4169 28.0456C55.136 28.0456 58.7027 26.5682 61.3325 23.9384C63.9623 21.3086 65.4397 17.7419 65.4397 14.0228C65.4397 10.3037 63.9623 6.73697 61.3325 4.10718C58.7027 1.4774 55.136 0 51.4169 0C47.6978 0 44.1311 1.4774 41.5013 4.10718C38.8715 6.73697 37.3941 10.3037 37.3941 14.0228C37.3941 17.7419 38.8715 21.3086 41.5013 23.9384C44.1311 26.5682 47.6978 28.0456 51.4169 28.0456ZM24.381 56.0912C23.688 54.6319 23.3425 53.0321 23.3713 51.4169C23.3713 45.0833 26.5498 38.5627 32.4207 34.0286C29.4904 33.1257 26.4374 32.6842 23.3713 32.7199C4.67426 32.7199 0 46.7426 0 51.4169C0 56.0912 4.67426 56.0912 4.67426 56.0912H24.381ZM21.0342 28.0456C24.1334 28.0456 27.1057 26.8144 29.2972 24.6229C31.4887 22.4315 32.7199 19.4592 32.7199 16.3599C32.7199 13.2607 31.4887 10.2884 29.2972 8.09692C27.1057 5.90543 24.1334 4.67426 21.0342 4.67426C17.935 4.67426 14.9627 5.90543 12.7712 8.09692C10.5797 10.2884 9.34853 13.2607 9.34853 16.3599C9.34853 19.4592 10.5797 22.4315 12.7712 24.6229C14.9627 26.8144 17.935 28.0456 21.0342 28.0456Z" fill="#C80022"/>
<path d="M91.6962 43.7124C94.1637 43.7124 96.5302 42.674 98.275 40.8256C100.02 38.9772 101 36.4702 101 33.8562C101 31.2422 100.02 28.7352 98.275 26.8868C96.5302 25.0384 94.1637 24 91.6962 24H78V26.9811H81.5125V40.7313H78V43.7124H81.5125V47.802H78V50.7831H81.5125V56H84.3265V50.7831H92.7735V47.802H84.3265V43.7124H91.6962ZM84.3265 26.9811H91.6962C93.4174 26.9811 95.0681 27.7054 96.2852 28.9948C97.5023 30.2841 98.186 32.0328 98.186 33.8562C98.186 35.6796 97.5023 37.4283 96.2852 38.7176C95.0681 40.007 93.4174 40.7313 91.6962 40.7313H84.3265V26.9811Z" fill="#C80022"/>
</svg>
