<svg width="112" height="66" viewBox="0 0 112 66" fill="none" xmlns="http://www.w3.org/2000/svg">
<path d="M110.461 43.6385C108.174 41.1598 105.397 39.1817 102.308 37.8287C99.2178 36.4758 95.8813 35.7773 92.5083 35.7773C89.1352 35.7773 85.7988 36.4758 82.7089 37.8287C79.6191 39.1817 76.8429 41.1598 74.5552 43.6385C74.202 44.029 74.0045 44.5356 74 45.0622V53.6045C74.0075 54.1659 74.2358 54.7018 74.6355 55.0962C75.0352 55.4905 75.5741 55.7116 76.1356 55.7116H108.881C109.447 55.7116 109.991 55.4866 110.391 55.0861C110.792 54.6856 111.017 54.1424 111.017 53.576V45.0337C111.005 44.517 110.808 44.0217 110.461 43.6385Z" fill="#1F3B61"/>
<path d="M92.509 32.932C98.013 32.932 102.475 28.4701 102.475 22.966C102.475 17.4619 98.013 13 92.509 13C87.0049 13 82.543 17.4619 82.543 22.966C82.543 28.4701 87.0049 32.932 92.509 32.932Z" fill="#1F3B61"/>
<path d="M84.2816 47.2926C80.7503 43.4665 76.465 40.4131 71.6956 38.3247C66.9261 36.2364 61.7759 35.1582 56.5693 35.1582C51.3627 35.1582 46.2125 36.2364 41.4431 38.3247C36.6737 40.4131 32.3884 43.4665 28.8571 47.2926C28.3119 47.8954 28.0069 48.6774 28 49.4902V62.6761C28.0116 63.5427 28.364 64.3699 28.9809 64.9787C29.5979 65.5874 30.4297 65.9287 31.2965 65.9286H81.8422C82.7165 65.9286 83.555 65.5813 84.1732 64.9631C84.7914 64.3449 85.1387 63.5064 85.1387 62.6321V49.4463C85.1211 48.6487 84.8169 47.8841 84.2816 47.2926Z" fill="#1F3B61"/>
<path d="M56.57 30.767C65.0661 30.767 71.9535 23.8796 71.9535 15.3835C71.9535 6.88742 65.0661 0 56.57 0C48.0739 0 41.1865 6.88742 41.1865 15.3835C41.1865 23.8796 48.0739 30.767 56.57 30.767Z" fill="#1F3B61"/>
<path d="M36.4613 43.6385C34.1736 41.1598 31.3974 39.1817 28.3076 37.8287C25.2178 36.4758 21.8813 35.7773 18.5083 35.7773C15.1352 35.7773 11.7988 36.4758 8.70894 37.8287C5.61913 39.1817 2.84295 41.1598 0.555248 43.6385C0.202049 44.029 0.00447372 44.5356 0 45.0622V53.6045C0.00748653 54.1659 0.235784 54.7018 0.635473 55.0962C1.03516 55.4905 1.57408 55.7116 2.13557 55.7116H34.881C35.4474 55.7116 35.9906 55.4866 36.3911 55.0861C36.7916 54.6856 37.0166 54.1424 37.0166 53.576V45.0337C37.0052 44.517 36.8081 44.0217 36.4613 43.6385Z" fill="#1F3B61"/>
<path d="M18.509 32.932C24.013 32.932 28.475 28.4701 28.475 22.966C28.475 17.4619 24.013 13 18.509 13C13.0049 13 8.54297 17.4619 8.54297 22.966C8.54297 28.4701 13.0049 32.932 18.509 32.932Z" fill="#1F3B61"/>
</svg>
