<svg width="197" height="179" viewBox="0 0 197 179" fill="none" xmlns="http://www.w3.org/2000/svg">
<path d="M28.123 35.0258C21.0949 39.2601 18.7522 50.5516 23.4376 56.1973C29.2944 43.4944 38.6652 47.7287 52.7215 61.843C62.0923 71.723 74.9772 63.2544 74.9772 63.2544C74.9772 63.2544 77.3199 80.1916 94.8902 83.0144C114.803 85.8373 121.831 71.723 121.831 71.723C121.831 71.723 126.517 85.8373 144.087 77.3687C156.972 71.723 152.286 61.843 152.286 61.843C152.286 61.843 164 61.843 164 51.963C164 39.2601 151.115 40.6715 151.115 40.6715C151.115 40.6715 153.458 26.5573 140.573 25.1458C128.859 23.7344 125.345 32.203 125.345 32.203C125.345 32.203 121.831 16.6772 104.261 16.6772C87.862 16.6772 82.0053 35.0258 82.0053 35.0258C82.0053 35.0258 77.3199 26.5573 63.2636 26.5573C52.7215 26.5573 48.036 36.4373 48.036 36.4373C48.036 36.4373 35.1512 29.3801 28.123 35.0258Z" fill="#B5001F"/>
<path d="M61.123 18.3484C54.0949 22.5827 51.7522 33.8741 56.4376 39.5197C62.2944 26.817 71.6652 31.0512 85.7215 45.1654C95.0923 55.0453 107.977 46.5768 107.977 46.5768C107.977 46.5768 110.32 63.5139 127.89 66.3367C147.803 69.1595 154.831 55.0453 154.831 55.0453C154.831 55.0453 159.517 69.1595 177.087 60.691C189.972 55.0453 185.286 45.1654 185.286 45.1654C185.286 45.1654 197 45.1654 197 35.2855C197 22.5827 184.115 23.9941 184.115 23.9941C184.115 23.9941 186.458 9.87993 173.573 8.46851C161.859 7.0571 158.345 15.5256 158.345 15.5256C158.345 15.5256 154.831 0 137.261 0C120.862 0 115.005 18.3484 115.005 18.3484C115.005 18.3484 110.32 9.87993 96.2636 9.87993C85.7215 9.87993 81.036 19.7599 81.036 19.7599C81.036 19.7599 68.1512 12.7028 61.123 18.3484Z" fill="#C2C2C2"/>
<path fill-rule="evenodd" clip-rule="evenodd" d="M0 178.547H52L42.25 67.6919H9.75L0 178.547Z" fill="#C2C2C2"/>
</svg>
