<svg width="103" height="107" viewBox="0 0 103 107" fill="none" xmlns="http://www.w3.org/2000/svg">
<path d="M0 84.1345C5.4361 76.7088 10.8378 69.3507 16.5491 61.6213C13.6591 62.1276 11.4915 63.2415 8.80786 64.0178C13.1086 58.1785 17.2029 52.6093 21.6412 46.6351C18.063 47.2764 15.2073 48.4915 11.7323 49.6728C16.1363 43.6986 20.265 38.0956 24.6689 32.0876C20.0585 32.7964 16.1707 34.3153 12.2484 35.6654C12.0076 35.0916 12.4205 34.8553 12.6269 34.5853C20.8843 23.3794 29.176 12.1734 37.4334 0.967493C38.0871 0.0899199 38.4656 -0.585139 39.4634 0.764974C47.7895 12.1397 56.1845 23.4806 64.5451 34.8216C64.6828 34.9903 64.786 35.1929 65.0956 35.6992C60.8637 34.2478 56.9759 32.6276 52.2279 31.9188C56.6662 37.9606 60.8293 43.5973 65.1644 49.5378C61.8271 48.559 58.9714 47.0739 55.3244 46.5338C59.7283 52.5081 63.8226 58.0773 68.0889 63.9165C65.4397 63.2752 63.2721 61.8913 60.3132 61.4526C65.9902 69.1819 71.4263 76.6076 77 84.1345C76.1054 84.2695 75.5206 83.8644 74.9357 83.6282C65.6117 79.8141 55.8749 77.5864 45.8284 76.7426C44.4866 76.6413 43.9705 76.9789 44.0049 78.329C44.0737 83.6282 44.0393 88.8936 44.0393 94.1928C44.0393 96.2517 43.7641 96.5555 41.6653 96.5555C39.5322 96.5555 37.4334 96.5217 35.3003 96.5555C33.7176 96.5892 33.0295 96.0154 33.0639 94.3615C33.1327 89.0624 33.0639 83.7969 33.0983 78.4977C33.0983 77.1814 32.7887 76.7426 31.3436 76.8776C21.4004 77.6877 11.8356 80.0841 2.51161 83.5269C1.8579 83.7632 1.2386 83.9994 0.584896 84.2357C0.447273 84.3032 0.344057 84.202 0 84.1345Z" fill="#C2C2C2"/>
<path d="M39 96.4176C43.5183 90.2456 48.008 84.1298 52.7551 77.7054C50.353 78.1262 48.5514 79.052 46.3208 79.6972C49.8954 74.8439 53.2985 70.2149 56.9875 65.2493C54.0134 65.7823 51.6399 66.7923 48.7516 67.7742C52.412 62.8086 55.8436 58.1516 59.504 53.1579C55.672 53.7471 52.4406 55.0095 49.1805 56.1317C48.9803 55.6548 49.3235 55.4584 49.4951 55.234C56.3584 45.92 63.2502 36.6059 70.1135 27.2919C70.6568 26.5625 70.9714 26.0014 71.8007 27.1236C78.7212 36.5779 85.6988 46.0041 92.6479 55.4303C92.7623 55.5706 92.8481 55.7389 93.1054 56.1597C89.588 54.9534 86.3566 53.6068 82.4102 53.0177C86.0992 58.0394 89.5594 62.7244 93.1626 67.662C90.3887 66.8484 88.0152 65.614 84.9839 65.1651C88.6443 70.1307 92.0474 74.7597 95.5934 79.6131C93.3914 79.08 91.5898 77.9298 89.1305 77.5651C93.849 83.9895 98.3673 90.1615 103 96.4176C102.256 96.5298 101.77 96.1931 101.284 95.9967C93.5344 92.8266 85.4415 90.975 77.0912 90.2737C75.9759 90.1895 75.5469 90.4701 75.5755 91.5922C75.6327 95.9967 75.6041 100.373 75.6041 104.778C75.6041 106.489 75.3753 106.742 73.6309 106.742C71.8579 106.742 70.1135 106.713 68.3405 106.742C67.025 106.77 66.4531 106.293 66.4817 104.918C66.5389 100.513 66.4817 96.137 66.5103 91.7325C66.5103 90.6384 66.2529 90.2737 65.0518 90.3859C56.7873 91.0592 48.8374 93.0511 41.0876 95.9126C40.5442 96.109 40.0295 96.3053 39.4861 96.5017C39.3718 96.5578 39.286 96.4737 39 96.4176Z" fill="#B5001F"/>
</svg>
