<svg width="121" height="66" viewBox="0 0 121 66" fill="none" xmlns="http://www.w3.org/2000/svg">
<path d="M55.2327 64.8318C50.6752 64.8318 46.0454 64.8318 41.488 64.8318C40.7646 64.8318 39.8965 64.9038 39.8242 63.9678C39.7518 63.0318 40.6199 62.9598 41.3433 62.8878C42.4284 62.8158 43.5859 62.8878 44.5986 62.5998C46.7688 61.9518 47.854 60.5838 46.9135 58.2798C45.5391 54.9678 44.0922 51.6558 42.7178 48.3438C42.2114 47.0478 41.3433 46.5438 39.9688 46.5438C33.4582 46.5438 26.9476 46.5438 20.4369 46.4718C19.0625 46.4718 18.2667 46.9758 17.6156 48.1998C16.3859 50.4318 15.3008 52.6638 14.5773 55.1118C13.1305 59.7198 14.7944 62.2398 19.7135 62.7438C20.7986 62.8878 22.6071 62.2398 22.4625 64.0398C22.3901 65.4078 20.6539 64.8318 19.7135 64.8318C14.1433 64.9038 8.64543 64.8318 3.07522 64.8318C2.27947 64.8318 1.19437 65.1918 0.977346 64.0398C0.760325 62.8878 1.84543 62.8878 2.64118 62.5998C8.35607 60.4398 10.2369 55.1118 12.4795 50.3598C20.2199 34.3758 27.671 18.3198 35.2667 2.33581C35.6284 1.61581 35.6284 0.463815 36.6412 0.463815C37.871 0.391815 37.9433 1.68781 38.305 2.47981C46.6965 20.4078 55.0157 38.2638 63.4795 56.1198C64.7816 58.9278 66.3008 61.7358 69.7008 62.5998C70.4242 62.8158 71.2922 62.8158 71.2922 63.7518C71.2922 64.9758 70.1348 64.7598 69.4114 64.7598C64.6369 64.7598 59.9348 64.7598 55.2327 64.8318C55.2327 64.7598 55.2327 64.7598 55.2327 64.8318ZM30.0582 43.2318C32.7348 43.2318 35.3391 43.2318 38.0157 43.2318C39.5348 43.2318 39.9688 42.5118 39.3901 41.2158C36.7135 35.3118 34.0369 29.4798 31.3603 23.5758C30.4922 21.6318 29.6242 22.3518 28.9731 23.7918C26.2965 29.4078 23.6922 35.0238 21.088 40.7118C20.2199 42.6558 20.871 43.3758 22.8965 43.3038C25.2114 43.2318 27.5986 43.2318 30.0582 43.2318Z" fill="#C2C2C2"/>
<path d="M97.3254 20.9838C101.666 20.9838 106.079 20.9838 110.419 20.9838C117.074 20.9838 115.845 20.8398 115.917 26.2398C115.989 35.7438 115.845 45.1758 115.989 54.6798C116.062 57.9918 115.121 61.9518 120.04 63.0318C120.474 63.1038 120.764 63.7518 120.474 64.1838C120.257 64.4718 119.679 64.7598 119.317 64.7598C114.108 64.8318 108.972 64.7598 103.764 64.7598C102.028 64.7598 101.955 63.5358 102.027 62.2398C102.027 61.5918 102.317 60.6558 101.593 60.2958C100.653 59.8638 100.074 60.7278 99.4956 61.3038C96.2403 64.5438 92.3339 65.9118 87.7764 65.8398C81.6275 65.6958 76.7083 61.2318 76.4913 55.0398C76.202 46.7598 76.2743 38.4798 76.202 30.2718C76.202 27.0318 76.1296 23.8638 72.1509 22.7838C71.5722 22.6398 71.2828 22.1358 71.4275 21.7038C71.5722 21.3438 72.1509 21.0558 72.5126 21.0558C77.7211 20.9838 82.8573 20.9118 88.0658 21.0558C90.236 21.1278 89.7296 23.0718 89.7296 24.3678C89.7296 32.4318 89.7296 40.4238 89.7296 48.4878C89.7296 50.7918 89.802 53.0238 90.0913 55.3278C90.5977 59.5038 93.853 61.0158 97.3977 58.6398C100.291 56.6958 102.317 54.3918 102.172 50.4318C101.883 44.5998 102.172 38.6958 102.1 32.7918C102.027 28.4718 103.113 23.7198 96.8913 21.9918C96.9637 21.6318 97.1807 21.2718 97.3254 20.9838Z" fill="#B5001F"/>
</svg>
