<svg width="129" height="103" viewBox="0 0 129 103" fill="none" xmlns="http://www.w3.org/2000/svg">
<path fill-rule="evenodd" clip-rule="evenodd" d="M75.5109 45.3123C74.3013 44.1471 72.6607 43.4925 70.9501 43.4925C69.2394 43.4925 67.5988 44.1471 66.3892 45.3123C65.1796 46.4775 64.5001 48.0579 64.5001 49.7057C64.5001 51.3536 65.1796 52.9339 66.3892 54.0991C67.5988 55.2643 69.2394 55.9189 70.9501 55.9189C72.6607 55.9189 74.3013 55.2643 75.5109 54.0991C76.7205 52.9339 77.4 51.3536 77.4 49.7057C77.4 48.0579 76.7205 46.4775 75.5109 45.3123ZM52.8551 3.64852C47.1495 6.05445 42.0226 9.57197 37.797 13.9797L16.125 0C7.353 10.3139 1.61249 23.1753 0.322493 37.2793H0V49.7057H51.6C51.6 44.7622 53.6387 40.0211 57.2675 36.5255C60.8963 33.0299 65.8181 31.0661 70.9501 31.0661C76.082 31.0661 81.0037 33.0299 84.6325 36.5255C88.2614 40.0211 90.3 44.7622 90.3 49.7057H129V37.2793H115.649C112.488 16.2165 93.5251 0 70.9501 0C64.7217 0.000367006 58.5608 1.2426 52.8551 3.64852ZM19.737 17.2106L30.5085 24.1694C28.38 28.208 26.961 32.6194 26.2515 37.2793H13.287C14.061 30.072 16.3185 23.2996 19.737 17.2106Z" fill="#C2C2C2"/>
<path d="M35 71.5058L26 62.7856H63.2214C64.7643 65.4017 67.7857 67.1457 71 67.1457C74.2143 67.1457 77.2357 65.4017 78.7786 62.7856H116V71.5058C105.65 65.4017 106.1 73.6858 106.1 73.6858V85.8941L93.5 98.1023C90.2857 87.2021 84.5 93.3062 84.5 93.3062L75.5 102.026H57.5C63.8 91.9982 55.25 92.4342 55.25 92.4342H42.65L30.05 80.226C41.3 77.1739 35 71.5058 35 71.5058Z" fill="#B5001F"/>
</svg>
